id,value,feed_id,created_at,lat,lon,ele
0EMSA40Z0E6KVCP6SSBXZK5GTW,94,1537925,2021-01-15 23:41:27 UTC,,,
0EMSA43ZZR9JSHTNHYXAVP31D9,93,1537925,2021-01-15 23:41:37 UTC,,,
0EMSA472C6X7D50EFHNDARVR5D,94,1537925,2021-01-15 23:41:47 UTC,,,
0EMSA4A3MT56QS8FWMK5M1WAYQ,94,1537925,2021-01-15 23:41:57 UTC,,,
0EMSA4D4WM9YA8YT2HAH5AAQH4,94,1537925,2021-01-15 23:42:07 UTC,,,
0EMSA4G78W3FHWR2MZE0PQC5XP,94,1537925,2021-01-15 23:42:17 UTC,,,
0EMSA4K8PF6FQ99G10SECVG614,94,1537925,2021-01-15 23:42:27 UTC,,,
0EMSA4PA06ATPBTZ7N9MCP336K,94,1537925,2021-01-15 23:42:37 UTC,,,
0EMSA4SC3NR42JJQ66APVV52ZQ,93,1537925,2021-01-15 23:42:47 UTC,,,
0EMSA4WDGWR1KHREZNGEM38S27,93,1537925,2021-01-15 23:42:57 UTC,,,
0EMSA4ZF9RK9ZTTYZHP1BSEZ56,93,1537925,2021-01-15 23:43:07 UTC,,,
0EMSA52GBE7ANJWGVZTM2PN9EX,93,1537925,2021-01-15 23:43:17 UTC,,,
0EMSA55JPW24VYAD4S0B7ZXYY4,93,1537925,2021-01-15 23:43:27 UTC,,,
0EMSA58MM347QX82YMXV7RGT5G,93,1537925,2021-01-15 23:43:37 UTC,,,
0EMSA5BP60B6294JP960GFPBPV,93,1537925,2021-01-15 23:43:47 UTC,,,
0EMSA5EQ74M7EH3CGCWRGV7FV9,93,1537925,2021-01-15 23:43:57 UTC,,,
0EMSA5HRY2AMAG9GN4E4Y39AP8,93,1537925,2021-01-15 23:44:07 UTC,,,
0EMSA5MVDT7K6FVT1MAZNRX6N7,93,1537925,2021-01-15 23:44:17 UTC,,,
0EMSA5QX5MT4BBEY2R6CAN6SBR,93,1537925,2021-01-15 23:44:27 UTC,,,
0EMSA5TYKQP7BTVNX4W0EZ30P9,93,1537925,2021-01-15 23:44:37 UTC,,,
0EMSA5Y0854Q00AH3768MQD586,93,1537925,2021-01-15 23:44:47 UTC,,,
0EMSA6125R67XFD728R31RQMCM,93,1537925,2021-01-15 23:44:57 UTC,,,
0EMSA642R4E9QH8G7W59TD8Q61,93,1537925,2021-01-15 23:45:07 UTC,,,
0EMSA674E828RVHFAB6A8ZVP35,93,1537925,2021-01-15 23:45:17 UTC,,,
0EMSA6A7A27BX0C4VMEJZKN06C,93,1537925,2021-01-15 23:45:27 UTC,,,
0EMSA6D9049DG55CF8477WAG9E,93,1537925,2021-01-15 23:45:37 UTC,,,
0EMSA6GA66ZATYGXV65MWDX0Z0,93,1537925,2021-01-15 23:45:47 UTC,,,
0EMSA6KBSZ6GBXGNWAK5KRKXTH,93,1537925,2021-01-15 23:45:57 UTC,,,
0EMSA6PD9VKBQG0J1292XJ5B8W,94,1537925,2021-01-15 23:46:07 UTC,,,
0EMSA6SF7DKF44JYJ6GTDHZG0F,94,1537925,2021-01-15 23:46:17 UTC,,,
0EMSA6WGTCW8QJHP5W67PS9NZX,94,1537925,2021-01-15 23:46:27 UTC,,,
0EMSA6ZJB0DCHSTSVY2CZZHBNG,94,1537925,2021-01-15 23:46:37 UTC,,,
0EMSA72KWWWBBN7G35ZDTBCHAX,94,1537925,2021-01-15 23:46:47 UTC,,,
0EMSA75NWQKGYHEP4SEAJPYK4X,94,1537925,2021-01-15 23:46:57 UTC,,,
0EMSA78PHPF2MQC27TYSYAZAEX,94,1537925,2021-01-15 23:47:07 UTC,,,
0EMSA7BS9TNNY7YVCVE16X8GNP,94,1537925,2021-01-15 23:47:17 UTC,,,
0EMSA7ETXN0TDADW0TXZ140QA8,94,1537925,2021-01-15 23:47:27 UTC,,,
0EMSA7HVVVV39DSQ1DJDN5DFQV,94,1537925,2021-01-15 23:47:37 UTC,,,
0EMSA7MXMY65FG13M8C210R70Y,94,1537925,2021-01-15 23:47:47 UTC,,,
0EMSA7QZ5E6A7XHPDWRKMZQWAA,94,1537925,2021-01-15 23:47:57 UTC,,,
0EMSA7V1DTSPPXAC4PEBS3NPDP,93,1537925,2021-01-15 23:48:07 UTC,,,
0EMSA7Y2GY91BNPZ7ABV3M25N8,93,1537925,2021-01-15 23:48:17 UTC,,,
0EMSA8158S4M750K5ARXAKNGM1,93,1537925,2021-01-15 23:48:27 UTC,,,
0EMSA845ET2ZYJPHRXWDPP3TJA,94,1537925,2021-01-15 23:48:37 UTC,,,
0EMSA877QYP1XZT6Z16EXG8BT2,93,1537925,2021-01-15 23:48:47 UTC,,,
0EMSA8A98ZRJERXBD0WD7DPXRN,93,1537925,2021-01-15 23:48:57 UTC,,,
0EMSA8DBAN5F53G5MAPBTFRVDM,93,1537925,2021-01-15 23:49:07 UTC,,,
0EMSA8GCKH07RR8GZWJC5RQ0TN,93,1537925,2021-01-15 23:49:17 UTC,,,
0EMSA8KE51ETC0Q5Q6R6A3KRZX,93,1537925,2021-01-15 23:49:27 UTC,,,
0EMSA8PGCR4RGZWD4NEMQYE7GW,93,1537925,2021-01-15 23:49:37 UTC,,,
0EMSA8SH1MYCPW70RTEPD79JMA,93,1537925,2021-01-15 23:49:47 UTC,,,
0EMSA8WJXQB4H7NA1QC4GNH4H8,93,1537925,2021-01-15 23:49:57 UTC,,,
0EMSA8ZNHMSGZEMBZ5Q134D079,93,1537925,2021-01-15 23:50:07 UTC,,,
0EMSA92PWNBDC7ZVB752WA16Z8,93,1537925,2021-01-15 23:50:17 UTC,,,
0EMSA95RJZ6B4M9CKD4AGM35EY,93,1537925,2021-01-15 23:50:27 UTC,,,
0EMSA98SXRM17J105YAGYSW21G,93,1537925,2021-01-15 23:50:37 UTC,,,
0EMSA9BW6QRTS52805C0S62M39,93,1537925,2021-01-15 23:50:47 UTC,,,
0EMSA9EXFZZ3ER39XSZBMXXZEW,93,1537925,2021-01-15 23:50:57 UTC,,,
0EMSA9HYFMNB72587JZWAVNVV1,93,1537925,2021-01-15 23:51:07 UTC,,,
0EMSA9N19T8EEDF2Z41S99XHRE,93,1537925,2021-01-15 23:51:17 UTC,,,
0EMSA9R2S1MGGD3NGVPCCZV886,93,1537925,2021-01-15 23:51:27 UTC,,,
0EMSA9V3K4GBRZ80YHT8G5Z8AE,93,1537925,2021-01-15 23:51:37 UTC,,,
0EMSA9Y5JD4DXHQAW3R46F7S7Y,93,1537925,2021-01-15 23:51:47 UTC,,,
0EMSAA17E5Z1VJ2J0Y9Y855095,94,1537925,2021-01-15 23:51:57 UTC,,,
0EMSAA4BWGJWKBQPZ1CTCFNXP7,94,1537925,2021-01-15 23:52:07 UTC,,,
0EMSAA79W1717YZ022602RYQ2Z,94,1537925,2021-01-15 23:52:17 UTC,,,
0EMSAAACCC0SKM31915DV0QC91,94,1537925,2021-01-15 23:52:27 UTC,,,
0EMSAADEEDS1XWAXDNT6TSEANK,93,1537925,2021-01-15 23:52:37 UTC,,,
0EMSAAGFX8FFGVC5JEAZYYHJBH,93,1537925,2021-01-15 23:52:47 UTC,,,
0EMSAAKGXT6AZVYC1EPWN2RA6Y,94,1537925,2021-01-15 23:52:57 UTC,,,
0EMSAAPKFEMRKBRYPYDFYK8DVM,94,1537925,2021-01-15 23:53:07 UTC,,,
0EMSAASM6N0GBC766G7EPKK5A6,94,1537925,2021-01-15 23:53:17 UTC,,,
0EMSAAWP3PBNCJBKED0P7BHHG5,94,1537925,2021-01-15 23:53:27 UTC,,,
0EMSAAZQKBKMQVPVNSBCPXAJY8,94,1537925,2021-01-15 23:53:37 UTC,,,
0EMSAB2RZ6Y2WK4R9T1FEQQP9H,94,1537925,2021-01-15 23:53:47 UTC,,,
0EMSAB5TF45YPEZWEN1GG9N40J,94,1537925,2021-01-15 23:53:57 UTC,,,
0EMSAB8WPT1SS80AD1MPQ3JK6F,94,1537925,2021-01-15 23:54:07 UTC,,,
0EMSABBYCZ5Y8MXKNNSSPSFP2F,94,1537925,2021-01-15 23:54:17 UTC,,,
0EMSABEZXM43GHQZZ6JMSTNEBS,93,1537925,2021-01-15 23:54:27 UTC,,,
0EMSABJ1K9RFEMGD1AAB3M7DSP,93,1537925,2021-01-15 23:54:37 UTC,,,
0EMSABN3JK3W3CMWEC0CVVYQZX,93,1537925,2021-01-15 23:54:47 UTC,,,
0EMSABR4GMM1F18VS3DQXV27D5,93,1537925,2021-01-15 23:54:57 UTC,,,
0EMSABV68R3R2DRZQ0MRW6ZJTR,93,1537925,2021-01-15 23:55:07 UTC,,,
0EMSABY7TS54VXGG60WA80RTWF,93,1537925,2021-01-15 23:55:17 UTC,,,
0EMSAC19MG98MV8XVA0K611MA1,93,1537925,2021-01-15 23:55:27 UTC,,,
0EMSAC4CCPX0R5H5J0HMQRCNNV,93,1537925,2021-01-15 23:55:37 UTC,,,
0EMSAC7CRTNH056XPNDWR1W7Q8,93,1537925,2021-01-15 23:55:47 UTC,,,
0EMSACAF7HA528TERW5G3XFEVD,93,1537925,2021-01-15 23:55:57 UTC,,,
0EMSACDGNFQDQCDN9CXQ4H14RM,93,1537925,2021-01-15 23:56:07 UTC,,,
0EMSACGHVMKAV22WQ9CZ2JP6RB,93,1537925,2021-01-15 23:56:17 UTC,,,
0EMSACKKGF2RD19Q69TAK818XZ,93,1537925,2021-01-15 23:56:27 UTC,,,
0EMSACPPDC2AVN3WFVC6VEWP15,93,1537925,2021-01-15 23:56:37 UTC,,,
0EMSACSQFKPM7XMS1KS22ZXQNW,93,1537925,2021-01-15 23:56:47 UTC,,,
0EMSACWS0PWMWE9ZQJS03Y4DPS,93,1537925,2021-01-15 23:56:57 UTC,,,
0EMSACZTTVB6K84X1MG1EFT5GN,93,1537925,2021-01-15 23:57:07 UTC,,,
0EMSAD51K94XZW424BYD5QMBS4,93,1537925,2021-01-15 23:57:24 UTC,,,
0EMSADA92B6NQYN7CVZJMZQ41Y,93,1537925,2021-01-15 23:57:41 UTC,,,
0EMSADAKN52TP1CYHDT21762A9,93,1537925,2021-01-15 23:57:42 UTC,,,
0EMSADC0KRCS23QG0DXCZZRTRW,93,1537925,2021-01-15 23:57:47 UTC,,,
0EMSADF3KRY73S95FP031QXPC7,94,1537925,2021-01-15 23:57:57 UTC,,,
0EMSADJ4E2HM2Q0SMJC8E4Y7EF,94,1537925,2021-01-15 23:58:07 UTC,,,
0EMSADN5XX1R7R9W2F5BVRZ58Y,94,1537925,2021-01-15 23:58:17 UTC,,,
0EMSADR8QVXW49G05PDJ8W0F8R,94,1537925,2021-01-15 23:58:27 UTC,,,
0EMSADV96WEWVP6JMFJ3VVPQNS,94,1537925,2021-01-15 23:58:37 UTC,,,
0EMSADYAMXHSQ0B91BJTQJ4P88,94,1537925,2021-01-15 23:58:47 UTC,,,
0EMSAE1D76ZGEZ316N6R6G92WE,94,1537925,2021-01-15 23:58:57 UTC,,,
0EMSAE4EHZMKXEXNCC3FSC1N22,94,1537925,2021-01-15 23:59:07 UTC,,,
0EMSAE7G62M15NDTJ4SSNS1NA3,94,1537925,2021-01-15 23:59:17 UTC,,,
0EMSAEAHA2EW97Y7YA8G1QT6Y1,93,1537925,2021-01-15 23:59:27 UTC,,,
0EMSAEDK7FFK6FEA41G64NSPET,93,1537925,2021-01-15 23:59:37 UTC,,,
0EMSAEGNFSV4P6VT1S15102400,93,1537925,2021-01-15 23:59:47 UTC,,,
0EMSAEKPQCRA75KP6YS7F8ESV8,93,1537925,2021-01-15 23:59:57 UTC,,,
0EMSAEPS66QN3N9T2DN78CBCCA,93,1537925,2021-01-16 00:00:07 UTC,,,
0EMSAEST56NT67C5DK21WHDHHS,93,1537925,2021-01-16 00:00:17 UTC,,,
0EMSAEWV8CA2GQT8XGPX0P97PY,93,1537925,2021-01-16 00:00:27 UTC,,,
0EMSAEZXHFBMS15CKRGDZZVA0R,93,1537925,2021-01-16 00:00:37 UTC,,,
0EMSAF2Z2Y4SGHB5C7S12DPV4R,93,1537925,2021-01-16 00:00:47 UTC,,,
0EMSAF61FTR26479K5Y04T9D5E,93,1537925,2021-01-16 00:00:57 UTC,,,
0EMSAF9306FGTXRM090SQN3V9E,93,1537925,2021-01-16 00:01:07 UTC,,,
0EMSAFC4K52MCW1NM26WVX9GNP,93,1537925,2021-01-16 00:01:17 UTC,,,
0EMSAFF676Z4QJ4GBSHR0RTYMP,93,1537925,2021-01-16 00:01:27 UTC,,,
0EMSAFJ80V7DMTP9JZ6Y5NMSQX,93,1537925,2021-01-16 00:01:37 UTC,,,
0EMSAFN8ZFRA9HD7GEDSWMQPAF,93,1537925,2021-01-16 00:01:47 UTC,,,
0EMSAFRBCHNRKPGWJK6BZ35EQC,93,1537925,2021-01-16 00:01:57 UTC,,,
0EMSAFVCA9GWBAW922J7F26JV5,94,1537925,2021-01-16 00:02:07 UTC,,,
0EMSAFYDBZH0ZGNW21J7MYE76T,94,1537925,2021-01-16 00:02:17 UTC,,,
0EMSAG1GHK8AZGCHN17SADSMSW,93,1537925,2021-01-16 00:02:27 UTC,,,
0EMSAG4J47CFQ4YMH1H7WX82F8,94,1537925,2021-01-16 00:02:37 UTC,,,
0EMSAG7KK5PV5PJ9T6G2WAPZY6,94,1537925,2021-01-16 00:02:47 UTC,,,
0EMSAGANCFGCZHSGCKBNGRSMQ7,94,1537925,2021-01-16 00:02:57 UTC,,,
0EMSAGDPGBSACW131DGHWKZHRG,94,1537925,2021-01-16 00:03:07 UTC,,,
0EMSAGGR0YV32H8ZFWBTJ082QH,94,1537925,2021-01-16 00:03:17 UTC,,,
0EMSAGKSN8H1WCEXSCYJVCXF2V,94,1537925,2021-01-16 00:03:27 UTC,,,
0EMSAGPVGBPZNGFGXYQHFR2RSC,94,1537925,2021-01-16 00:03:37 UTC,,,
0EMSAGSXAREJAJW78F89EBS1MK,94,1537925,2021-01-16 00:03:47 UTC,,,
0EMSAGWZCBBSZCG0M2FBK1KT8T,94,1537925,2021-01-16 00:03:57 UTC,,,
0EMSAH00SW65EHEPW3SDJ6PYPE,94,1537925,2021-01-16 00:04:07 UTC,,,
0EMSAH32S5NSVNSY1AJFJ13CH9,94,1537925,2021-01-16 00:04:17 UTC,,,
0EMSAH630XVWKXJV9CVB2JYVWH,94,1537925,2021-01-16 00:04:27 UTC,,,
0EMSAH94JZ3VQXCJPZ92X5441R,94,1537925,2021-01-16 00:04:37 UTC,,,
0EMSAHC6T33942C8KFQ24PZ8WN,94,1537925,2021-01-16 00:04:47 UTC,,,
0EMSAHF8FEZZPVHJT0FTAW8NM6,94,1537925,2021-01-16 00:04:57 UTC,,,
0EMSAHJAWA3ZA2YSMD3S12QP4A,93,1537925,2021-01-16 00:05:07 UTC,,,
0EMSAHNBHEC14DBMK0JT299MYT,93,1537925,2021-01-16 00:05:17 UTC,,,
0EMSAHRDAQCPDVVNV0NN3AQ83H,93,1537925,2021-01-16 00:05:27 UTC,,,
0EMSAHVFG3W7ATVEK5XZE95NQS,93,1537925,2021-01-16 00:05:37 UTC,,,
0EMSAHYH5E75KHFEBS3PBYTEWP,93,1537925,2021-01-16 00:05:47 UTC,,,
0EMSAJ1KSQD1RE989D9RP4NP5E,93,1537925,2021-01-16 00:05:57 UTC,,,
0EMSAJ4MWFQRD6EC61QV8DK1X6,93,1537925,2021-01-16 00:06:07 UTC,,,
0EMSAJ7PDPFZYY69A4BC72NQ3B,93,1537925,2021-01-16 00:06:17 UTC,,,
0EMSAJAQW840XGQBD9GY9FKHC3,93,1537925,2021-01-16 00:06:27 UTC,,,
0EMSAJDS155WTJ6QZ3M2A90286,93,1537925,2021-01-16 00:06:37 UTC,,,
0EMSAJGTTCNCRKYSYKN9G3E1R9,93,1537925,2021-01-16 00:06:47 UTC,,,
0EMSAJKWMC6CXEVKCMJAQY7CW3,93,1537925,2021-01-16 00:06:57 UTC,,,
0EMSAJPY4PNF78XSHN29A51T50,93,1537925,2021-01-16 00:07:07 UTC,,,
0EMSAJT046GSZZR5KA4JV0YSS2,93,1537925,2021-01-16 00:07:17 UTC,,,
0EMSAJX1JPNX8W8B9RGT0DTR64,93,1537925,2021-01-16 00:07:27 UTC,,,
0EMSAK036RF852T9W0PCBF2707,93,1537925,2021-01-16 00:07:37 UTC,,,
0EMSAK3588S8NP8BGXCWJH87XV,93,1537925,2021-01-16 00:07:47 UTC,,,
0EMSAK65YEX27SF635F4QRMP0Z,93,1537925,2021-01-16 00:07:57 UTC,,,
0EMSAK97PMZ2VMHYHXPNS5SF49,93,1537925,2021-01-16 00:08:07 UTC,,,
0EMSAKC97QMWQ950J9GJ6YN65N,93,1537925,2021-01-16 00:08:17 UTC,,,
0EMSAKFBNZ9ZZA9RAYSZ43X99E,93,1537925,2021-01-16 00:08:27 UTC,,,
0EMSAKJD4QC7RA66GW3Y19V9BK,93,1537925,2021-01-16 00:08:37 UTC,,,
0EMSAKNE5WMDJTVZ0836K9CPA5,93,1537925,2021-01-16 00:08:47 UTC,,,
0EMSAKRGKJX05C07QZ3ZXC40HB,93,1537925,2021-01-16 00:08:57 UTC,,,
0EMSAKVJ8ZB768HFAT5GQ2Y2R7,99,1537925,2021-01-16 00:09:07 UTC,,,
0EMSAKYKEKSQPC8J99PQHJXBAV,101,1537925,2021-01-16 00:09:17 UTC,,,
0EMSAM1NBKJEB629A85Y7KW7P0,98,1537925,2021-01-16 00:09:27 UTC,,,
0EMSAM4PDHJ1QGQYR4TP1TQ02Y,98,1537925,2021-01-16 00:09:37 UTC,,,
0EMSAM7R7GC9YGT680V2FJ8FX1,97,1537925,2021-01-16 00:09:47 UTC,,,
0EMSAMASQ1ZFJ6W77PKMRBSBWA,95,1537925,2021-01-16 00:09:57 UTC,,,
0EMSAMDVGP3NP22H7VTJY46N2H,94,1537925,2021-01-16 00:10:07 UTC,,,
0EMSAMGXD61W3SR34K11A4CQ8N,93,1537925,2021-01-16 00:10:17 UTC,,,
0EMSAMKYXSX9FGNXBCKNB5PWBV,93,1537925,2021-01-16 00:10:27 UTC,,,
0EMSAMQ08TE1FAVB9492M08NW3,92,1537925,2021-01-16 00:10:37 UTC,,,
0EMSAMT2SNPA31X5DRX6YB8Z0G,91,1537925,2021-01-16 00:10:47 UTC,,,
0EMSAMX4A5RTXPP3BBV23AS9CR,91,1537925,2021-01-16 00:10:57 UTC,,,
0EMSAN066GM6NHDANE00K54XN0,91,1537925,2021-01-16 00:11:07 UTC,,,
0EMSAN377GHYFEAAE6EWHX9ZRR,91,1537925,2021-01-16 00:11:17 UTC,,,
0EMSAN691XEW5FXYSFYMPMMZNG,91,1537925,2021-01-16 00:11:27 UTC,,,
0EMSAN9BBY5B2VAR1K6CR2FXX3,92,1537925,2021-01-16 00:11:37 UTC,,,
0EMSANCD287PD0BBX292A25V65,92,1537925,2021-01-16 00:11:47 UTC,,,
0EMSANFDX919H4HJ797RN8V6YV,92,1537925,2021-01-16 00:11:57 UTC,,,
0EMSANJGCG1R1DFVR7GJT5KJWS,92,1537925,2021-01-16 00:12:07 UTC,,,
0EMSANNHYT8GXY8BD2BP9WNY1S,93,1537925,2021-01-16 00:12:17 UTC,,,
0EMSANRK8CTPVRADR5E38S3WPT,93,1537925,2021-01-16 00:12:27 UTC,,,
0EMSANVMRKWV88837QDDKPB4WZ,93,1537925,2021-01-16 00:12:37 UTC,,,
0EMSANYP43GS7GMC8KVGZ9YD8C,93,1537925,2021-01-16 00:12:47 UTC,,,
0EMSAP1QFPFX3E4YAX7N8BXT7S,94,1537925,2021-01-16 00:12:57 UTC,,,
0EMSAP4SGQQ0GRNRK6Z7YCKAVE,94,1537925,2021-01-16 00:13:07 UTC,,,
0EMSAP7VT0P0W6K362T35GTEEE,94,1537925,2021-01-16 00:13:17 UTC,,,
0EMSAPAXPY85ZPNNRJYAD422S4,94,1537925,2021-01-16 00:13:27 UTC,,,
0EMSAPDY7JZWX9M1HNGHEH1A2K,94,1537925,2021-01-16 00:13:37 UTC,,,
0EMSAPH0HXHSF6P6VQTQD09YF1,95,1537925,2021-01-16 00:13:47 UTC,,,
0EMSAPM1D87BMV4RZJM9NJEDMK,95,1537925,2021-01-16 00:13:57 UTC,,,
0EMSAPQ35V50FQEBCMSRHP0158,95,1537925,2021-01-16 00:14:07 UTC,,,
0EMSAPT5AS268A6GQBDZ9999ZM,95,1537925,2021-01-16 00:14:17 UTC,,,
0EMSAPX6Y3HB5QZC5FM09NQDSR,95,1537925,2021-01-16 00:14:27 UTC,,,
0EMSAQ08YMV9EP3X3G3S2R3AQF,95,1537925,2021-01-16 00:14:37 UTC,,,
0EMSAQ3AGZGSBFRWZFEVNERH3E,95,1537925,2021-01-16 00:14:47 UTC,,,
0EMSAQ6BNB11BHKA73AZ74XECS,95,1537925,2021-01-16 00:14:57 UTC,,,
0EMSAQ9EFFYX8E7VRWK1SN5R23,95,1537925,2021-01-16 00:15:07 UTC,,,
0EMSAQCG89QA1CVTHNQZYBMQ6V,95,1537925,2021-01-16 00:15:17 UTC,,,
0EMSAQFH31B918PZEBF8W4B4SA,95,1537925,2021-01-16 00:15:27 UTC,,,
0EMSAQJJMY5VXM0TZAPBTCWSN0,95,1537925,2021-01-16 00:15:37 UTC,,,
0EMSAQNNB4MH4WJ6BFS94BN6AN,95,1537925,2021-01-16 00:15:47 UTC,,,
0EMSAQRPRJZPPNX9TH2NEZMFY0,95,1537925,2021-01-16 00:15:57 UTC,,,
0EMSAQVQS03NBX3VQC3YPA99TT,95,1537925,2021-01-16 00:16:07 UTC,,,
0EMSAQYSHT2PKJCV5XHSCD5A0A,95,1537925,2021-01-16 00:16:17 UTC,,,
0EMSAR1TTG027QTTS39AN35BNT,95,1537925,2021-01-16 00:16:27 UTC,,,
0EMSAR4WABWWMVG1SXN0SMFNHQ,95,1537925,2021-01-16 00:16:37 UTC,,,
0EMSAR7YF9BE4V5BX1BW9TAA55,95,1537925,2021-01-16 00:16:47 UTC,,,
0EMSARAZEMVT4672XV1ZY2R1YF,95,1537925,2021-01-16 00:16:57 UTC,,,
0EMSARE0ZPD45PDKYGZB8F0WYS,95,1537925,2021-01-16 00:17:07 UTC,,,
0EMSARH3BZ83W45E1MH0MDYDJV,95,1537925,2021-01-16 00:17:17 UTC,,,
0EMSARM4QD1PHCZ41T0A7642ZB,95,1537925,2021-01-16 00:17:27 UTC,,,
0EMSARQ6XWQW8KDMW2VRRJKBH6,95,1537925,2021-01-16 00:17:37 UTC,,,
0EMSART8M8GC5N2F6ZN5J5DSQY,95,1537925,2021-01-16 00:17:47 UTC,,,
0EMSARXA131HRCV6EDXY1YH37C,95,1537925,2021-01-16 00:17:57 UTC,,,
0EMSAS0B5WMJTZ4E46G1J9F4HB,95,1537925,2021-01-16 00:18:07 UTC,,,
0EMSAS3DANVDQGS8560P0CF5FG,95,1537925,2021-01-16 00:18:17 UTC,,,
0EMSAS6EHEADHW2D8X59JX5MR6,95,1537925,2021-01-16 00:18:27 UTC,,,
0EMSAS9FZAYP62DMYKQR1A7J6S,95,1537925,2021-01-16 00:18:37 UTC,,,
0EMSASCJQJHNJRWG10EGWPCKAB,95,1537925,2021-01-16 00:18:47 UTC,,,
0EMSASFM8JKJEYKYXWHD3AYFVT,95,1537925,2021-01-16 00:18:57 UTC,,,
0EMSASJNNEQGQF0EM3B3G9RA21,95,1537925,2021-01-16 00:19:07 UTC,,,
0EMSASNQ8SAT9FC8XN511HE83Y,94,1537925,2021-01-16 00:19:17 UTC,,,
0EMSASRRZTHHH160PKHY2YZ87J,94,1537925,2021-01-16 00:19:27 UTC,,,
0EMSASVTSFC1V92G19BN7K6Q5Y,94,1537925,2021-01-16 00:19:37 UTC,,,
0EMSASYVY683H2PXYBBV1EZHKK,94,1537925,2021-01-16 00:19:47 UTC,,,
0EMSAT1YBS5D8GPY68QFN4JN8A,94,1537925,2021-01-16 00:19:57 UTC,,,
0EMSAT4ZRX2VW8RFJBXDC0BSC6,94,1537925,2021-01-16 00:20:07 UTC,,,
0EMSAT814A6Z50WW366RQJX96G,94,1537925,2021-01-16 00:20:17 UTC,,,
0EMSATB3296HGYXN5ADBCTE4X1,94,1537925,2021-01-16 00:20:27 UTC,,,
0EMSATE552KNT2HFPF3J3K3KXZ,94,1537925,2021-01-16 00:20:37 UTC,,,
0EMSATH6H3X74537SNBKCC6PRX,94,1537925,2021-01-16 00:20:47 UTC,,,
0EMSATM74EFPXBMSE008ZH1P7G,94,1537925,2021-01-16 00:20:57 UTC,,,
0EMSATQABPXSRWBRMBE2RG8YR2,94,1537925,2021-01-16 00:21:07 UTC,,,
0EMSATTC1GXMZD8QFVA3PDTHDQ,94,1537925,2021-01-16 00:21:17 UTC,,,
0EMSATXC4TJXKVCRT8EZSP4FJ3,94,1537925,2021-01-16 00:21:27 UTC,,,
0EMSAV0EP093JF9E7WZ1FYTXXK,94,1537925,2021-01-16 00:21:37 UTC,,,
0EMSAV3GPKRTYRNCY25GXMSWV5,94,1537925,2021-01-16 00:21:47 UTC,,,
0EMSAV6J6C8BAPGVQX39V079CR,94,1537925,2021-01-16 00:21:57 UTC,,,
0EMSAV9KYH0BW5D2HHF7G95QJV,94,1537925,2021-01-16 00:22:07 UTC,,,
0EMSAVCN0KCXGJX3J6WGBK63DC,94,1537925,2021-01-16 00:22:17 UTC,,,
0EMSAVFNYMVCP9G3CVRDQZZ99J,94,1537925,2021-01-16 00:22:27 UTC,,,
0EMSAVJQQTT23Q3P0JN6QYX8A8,94,1537925,2021-01-16 00:22:37 UTC,,,
0EMSAVNTM0ZVXQRB3W1FYRTHS3,95,1537925,2021-01-16 00:22:47 UTC,,,
0EMSAVRVTS16FQCKDTPY3P5H5C,95,1537925,2021-01-16 00:22:57 UTC,,,
0EMSAVVWS6W1Q5F531J3W5QGQQ,95,1537925,2021-01-16 00:23:07 UTC,,,
0EMSAVYZ4PHN4DSAMHDT693MXZ,96,1537925,2021-01-16 00:23:17 UTC,,,
0EMSAW20GFZ6NVT1499BTSRPKR,96,1537925,2021-01-16 00:23:27 UTC,,,
0EMSAW52A72R3GP7KY8F5WDQBM,96,1537925,2021-01-16 00:23:37 UTC,,,
0EMSAW845953G90DKWSVZAYE42,97,1537925,2021-01-16 00:23:47 UTC,,,
0EMSAWB5D37VM3K0HMJC9MPGH0,97,1537925,2021-01-16 00:23:57 UTC,,,
0EMSAWE7NM0MG3M03QVTAQ70RZ,97,1537925,2021-01-16 00:24:07 UTC,,,
0EMSAWH97SYC6HCR92G98REFDJ,97,1537925,2021-01-16 00:24:17 UTC,,,
0EMSAWMAB96XR8VQVC4YTSJ4Z1,98,1537925,2021-01-16 00:24:27 UTC,,,
0EMSAWQC88GCG7GYGWFJQQ6JRS,98,1537925,2021-01-16 00:24:37 UTC,,,
0EMSAWTDDVZ3HXGJK28NE8REQP,98,1537925,2021-01-16 00:24:47 UTC,,,
0EMSAWXEX6440T9TXDFCNTG1RM,98,1537925,2021-01-16 00:24:57 UTC,,,
0EMSAX0H817J67FDGFN5MSPAHC,98,1537925,2021-01-16 00:25:07 UTC,,,
0EMSAX3JTQE4M3JZJ6FMM04SJ2,99,1537925,2021-01-16 00:25:17 UTC,,,
0EMSAX6MN1DXJSC4RSDX98S1TA,99,1537925,2021-01-16 00:25:27 UTC,,,
0EMSAX9PBWD6NVZCNHKHM0JP6A,99,1537925,2021-01-16 00:25:37 UTC,,,
0EMSAXCQK9P1MTVW3TXJ8EYDP0,99,1537925,2021-01-16 00:25:47 UTC,,,
0EMSAXFS5B692FVAPRJBMPF29K,99,1537925,2021-01-16 00:25:57 UTC,,,
0EMSAXJVF3KW58ZKZG1BJMJ7DM,99,1537925,2021-01-16 00:26:07 UTC,,,
0EMSAXNWHCV96WAC97G4SAR28A,99,1537925,2021-01-16 00:26:17 UTC,,,
0EMSAXRYWJGTTSE1YA0VSAFH7A,99,1537925,2021-01-16 00:26:27 UTC,,,
0EMSAXW0KRF8AXKSPP45G5Z6MF,99,1537925,2021-01-16 00:26:37 UTC,,,
0EMSAXZ27ER0S41AXCRPFAVRDW,99,1537925,2021-01-16 00:26:47 UTC,,,
0EMSAY240JNXM3KZ72X2AY1HQC,99,1537925,2021-01-16 00:26:57 UTC,,,
0EMSAY556V6NE1P6B5CZCZ6NKZ,100,1537925,2021-01-16 00:27:07 UTC,,,
0EMSAY8643B4G7TS5W042FRADM,100,1537925,2021-01-16 00:27:17 UTC,,,
0EMSAYB8TY851JN3QASHVQ3QC3,100,1537925,2021-01-16 00:27:27 UTC,,,
0EMSAYE9AC5HF7QADRBJMC0EYR,100,1537925,2021-01-16 00:27:37 UTC,,,
0EMSAYHC9JMP7NE6AFE05TCPY2,100,1537925,2021-01-16 00:27:47 UTC,,,
0EMSAYMDVV8CDJ3V1WN8A8V670,100,1537925,2021-01-16 00:27:57 UTC,,,
0EMSAYQEQNNCGBJT51M9ARQ5Z5,100,1537925,2021-01-16 00:28:07 UTC,,,
0EMSAYTGAEVSWYA90YST574ATE,100,1537925,2021-01-16 00:28:17 UTC,,,
0EMSAYXJAYVERZFV1ZWDRA6N6N,100,1537925,2021-01-16 00:28:27 UTC,,,
0EMSAZ0K75QCY0J3BBHDGBYTK1,99,1537925,2021-01-16 00:28:37 UTC,,,
0EMSAZ3NTGGCWBDFJAWEH7ZKEV,99,1537925,2021-01-16 00:28:47 UTC,,,
0EMSAZ6QA1KXJGQ128EEBXEZVB,99,1537925,2021-01-16 00:28:57 UTC,,,
0EMSAZ9RT1R8799YVNYEVYG7V8,99,1537925,2021-01-16 00:29:07 UTC,,,
0EMSAZCSVZRG3N3TXEZ4YXN8NV,99,1537925,2021-01-16 00:29:17 UTC,,,
0EMSAZFWKNPXD1EHE1MY8XPF88,99,1537925,2021-01-16 00:29:27 UTC,,,
0EMSAZJXGZ9ZJSGGZZSMSAKFT2,99,1537925,2021-01-16 00:29:37 UTC,,,
0EMSAZNZ1VYE6EFXN9KVW8HXAZ,99,1537925,2021-01-16 00:29:47 UTC,,,
0EMSAZS1D0ZZ3X8T5M1ZCTEX7K,99,1537925,2021-01-16 00:29:57 UTC,,,
0EMSAZW2B4D9CN4Z59210R1N0W,99,1537925,2021-01-16 00:30:07 UTC,,,
0EMSAZZ453JX2QBA6G8CA5SXQ0,99,1537925,2021-01-16 00:30:17 UTC,,,
0EMSB0266JHTYDVKQWG3DBKCGT,99,1537925,2021-01-16 00:30:27 UTC,,,
0EMSB0586NZBFKVPY8VG3WRHT2,99,1537925,2021-01-16 00:30:37 UTC,,,
0EMSB089RBCKJFT7AC6XQ3BB89,99,1537925,2021-01-16 00:30:47 UTC,,,
0EMSB0BASYHBMPJPAP7HDPPDA2,99,1537925,2021-01-16 00:30:57 UTC,,,
0EMSB0ECXNSY7RBTXXA3A919R0,99,1537925,2021-01-16 00:31:07 UTC,,,
0EMSB0HEG96T1K6SDZV4TYXVV6,99,1537925,2021-01-16 00:31:17 UTC,,,
0EMSB0MGDP4Y107A1W10GKFJQY,99,1537925,2021-01-16 00:31:27 UTC,,,
0EMSB0QHK0YFDX4852SK8CARAC,98,1537925,2021-01-16 00:31:37 UTC,,,
0EMSB0TM8ABEV4994059N9XT2W,98,1537925,2021-01-16 00:31:47 UTC,,,
0EMSB0XMPGPDC4F0M2K9Y813PV,98,1537925,2021-01-16 00:31:57 UTC,,,
0EMSB10PMT108952E6HRV4WYX2,98,1537925,2021-01-16 00:32:07 UTC,,,
0EMSB13R7P5Q7DFYNQ8C49T21W,98,1537925,2021-01-16 00:32:17 UTC,,,
0EMSB16T2GSK9B5WNNK3P08YRE,98,1537925,2021-01-16 00:32:27 UTC,,,
0EMSB19TZTDK5YYV9Q84C1KPDT,98,1537925,2021-01-16 00:32:37 UTC,,,
0EMSB1CXBYHR51AAS7TE7FWFWF,98,1537925,2021-01-16 00:32:47 UTC,,,
0EMSB1FZ324F9MM642EFHM6ESF,98,1537925,2021-01-16 00:32:57 UTC,,,
0EMSB1K0JZ0YYMNCWM7YG8D6KH,98,1537925,2021-01-16 00:33:07 UTC,,,
0EMSB1P1S32Y603W33H130R36P,98,1537925,2021-01-16 00:33:17 UTC,,,
0EMSB1S44F041N4H0Z9DABF10A,98,1537925,2021-01-16 00:33:27 UTC,,,
0EMSB1W5N8WFHD6ZPYY991ACKE,98,1537925,2021-01-16 00:33:37 UTC,,,
0EMSB1Z6Q1J6AV1N7VW4PEHBSV,98,1537925,2021-01-16 00:33:47 UTC,,,
0EMSB229EAGAR9CC3YG4DRTSJK,97,1537925,2021-01-16 00:33:57 UTC,,,
0EMSB25ASWJZSXS86R3HV4KQZR,97,1537925,2021-01-16 00:34:07 UTC,,,
0EMSB28CPF66GBP85W1Q63M4P8,97,1537925,2021-01-16 00:34:17 UTC,,,
0EMSB2BDD0GRHKRN2ESDZYADZ0,97,1537925,2021-01-16 00:34:27 UTC,,,
0EMSB2EF1RRB62170JZ243NZ3X,97,1537925,2021-01-16 00:34:37 UTC,,,
0EMSB2HHHNK98GB4NEVVDFTZ4K,97,1537925,2021-01-16 00:34:47 UTC,,,
0EMSB2MJ4XVN7VXHZGGX6X844K,97,1537925,2021-01-16 00:34:57 UTC,,,
0EMSB2QMFWJV2N18TJCZXMTVP4,97,1537925,2021-01-16 00:35:07 UTC,,,
0EMSB2TRY4ZYKYKWEDKX0654PZ,97,1537925,2021-01-16 00:35:17 UTC,,,
0EMSB2XYRYGA6EG4JJXA012442,97,1537925,2021-01-16 00:35:27 UTC,,,
0EMSB30SCED6RHW41FBYXNRCBN,97,1537925,2021-01-16 00:35:37 UTC,,,
0EMSB33VR770GW88JCX7DXTETD,96,1537925,2021-01-16 00:35:47 UTC,,,
0EMSB36WQHPH0BECQZKTBR2YA1,96,1537925,2021-01-16 00:35:57 UTC,,,
0EMSB39Z0SCG3MC5N2B4B34HJQ,96,1537925,2021-01-16 00:36:07 UTC,,,
0EMSB3D16G3S80TGJ9QKN268KN,96,1537925,2021-01-16 00:36:17 UTC,,,
0EMSB3G1XB2J7F765G2GEFATCP,96,1537925,2021-01-16 00:36:27 UTC,,,
0EMSB3K3H3V94Q3N9RGFDS4CB2,96,1537925,2021-01-16 00:36:37 UTC,,,
0EMSB3P4HZXY7AGTYAN7DBEXWH,96,1537925,2021-01-16 00:36:47 UTC,,,
0EMSB3S6TC4JK04AHDKTD8PSAD,96,1537925,2021-01-16 00:36:57 UTC,,,
0EMSB3W8D45W2KM0WDW9V10ZH6,96,1537925,2021-01-16 00:37:07 UTC,,,
0EMSB3ZB1NCRR3K9F18W7TFTWY,95,1537925,2021-01-16 00:37:17 UTC,,,
0EMSB42BPD1G3HE0ZSWCTGYY74,95,1537925,2021-01-16 00:37:27 UTC,,,
0EMSB45DHDQ6H5WNDH5RSZSNKE,95,1537925,2021-01-16 00:37:37 UTC,,,
0EMSB48F79AYAW78CD3RK0SH26,95,1537925,2021-01-16 00:37:47 UTC,,,
0EMSB4BG1FNNGMYKYD85J3AA5H,95,1537925,2021-01-16 00:37:57 UTC,,,
0EMSB4EJR0VG2XS5KFSDJVC0MT,95,1537925,2021-01-16 00:38:07 UTC,,,
0EMSB4HKZD32KF5SVWG14Q97Q0,95,1537925,2021-01-16 00:38:17 UTC,,,
0EMSB4MMWN2S74GYD9WPKAFVFR,95,1537925,2021-01-16 00:38:27 UTC,,,
0EMSB4QPGZ90HR5FFTD9BGP67K,95,1537925,2021-01-16 00:38:37 UTC,,,
0EMSB4TS4TDSYFGNXKBPN4Q5N1,95,1537925,2021-01-16 00:38:47 UTC,,,
0EMSB4XTK2BQZ5CE71CJ5326DY,94,1537925,2021-01-16 00:38:57 UTC,,,
0EMSB50W5SDRMZQZ9NPZQZCNS6,94,1537925,2021-01-16 00:39:07 UTC,,,
0EMSB53XHWTT8F1ZMQFD60GTZ9,94,1537925,2021-01-16 00:39:17 UTC,,,
0EMSB57007C651GF9MQHGP2B9Y,94,1537925,2021-01-16 00:39:27 UTC,,,
0EMSB5A1KJWHZZYX288ERGZCR5,94,1537925,2021-01-16 00:39:37 UTC,,,
0EMSB5D2NT48X9JAKKP0NMXDWM,94,1537925,2021-01-16 00:39:47 UTC,,,
0EMSB5G44Y0A2MW3ZGHD68TQ3A,94,1537925,2021-01-16 00:39:57 UTC,,,
0EMSB5K6KDZ8WR27Q4ZD3YKMPC,94,1537925,2021-01-16 00:40:07 UTC,,,
0EMSB5PFVXF6WXCJ42BFPYZ5M8,94,1537925,2021-01-16 00:40:18 UTC,,,
0EMSB5S9Q2B11MJAC3YZDSDW7J,94,1537925,2021-01-16 00:40:27 UTC,,,
0EMSB5WBWAYKMM2RQ3R6Y2T9PJ,94,1537925,2021-01-16 00:40:37 UTC,,,
0EMSB5ZCM78J1F7NKY3WXBJ2VF,94,1537925,2021-01-16 00:40:47 UTC,,,
0EMSB62EVJE17PG9MBMBA9WXYG,94,1537925,2021-01-16 00:40:57 UTC,,,
0EMSB65G6NEHXSHXCF965WASNC,94,1537925,2021-01-16 00:41:07 UTC,,,
0EMSB68J28PVYKN2NV008WR4JP,94,1537925,2021-01-16 00:41:17 UTC,,,
0EMSB6BJT53Y7A08Q27RYZ7VFA,94,1537925,2021-01-16 00:41:27 UTC,,,
0EMSB6EN3NJSKC6TSHQ56F7XM7,94,1537925,2021-01-16 00:41:37 UTC,,,
0EMSB6HPDEVJ4RB49AQXZHXMCT,94,1537925,2021-01-16 00:41:47 UTC,,,
0EMSB6MRFTQXSQCXYTH1ENNV95,94,1537925,2021-01-16 00:41:57 UTC,,,
0EMSB6QSCGS9XADM92F5PCVNM7,94,1537925,2021-01-16 00:42:07 UTC,,,
0EMSB6TV2MG8W58YNT6QE24W5B,94,1537925,2021-01-16 00:42:17 UTC,,,
0EMSB6XWTX6GW56V3ABSNR9WR0,94,1537925,2021-01-16 00:42:27 UTC,,,
0EMSB70ZC0K41N6WNXWT1N3T57,94,1537925,2021-01-16 00:42:37 UTC,,,
0EMSB7407KN3BQBFFS4MQ07MYR,94,1537925,2021-01-16 00:42:47 UTC,,,
0EMSB772H6HHV10MP26D292H6H,94,1537925,2021-01-16 00:42:57 UTC,,,
0EMSB7A4MJ4V0PXRKTTQC5M2C2,94,1537925,2021-01-16 00:43:07 UTC,,,
0EMSB7D5716Y25PWJTPW9BY93S,94,1537925,2021-01-16 00:43:17 UTC,,,
0EMSB7G75DNBE2EH6E3FJ2K9HE,94,1537925,2021-01-16 00:43:27 UTC,,,
0EMSB7K98WWDG7XZC9QKV78T06,93,1537925,2021-01-16 00:43:37 UTC,,,
0EMSB7PASSBT0BD3R6BYXSFRJT,93,1537925,2021-01-16 00:43:47 UTC,,,
0EMSB7SCT6WE7WA9A9CB81QCM8,93,1537925,2021-01-16 00:43:57 UTC,,,
0EMSB7WDNVRWYQEE1PA762RPDN,93,1537925,2021-01-16 00:44:07 UTC,,,
0EMSB7ZG5KHNSJKBWAFQZSMTPB,93,1537925,2021-01-16 00:44:17 UTC,,,
0EMSB82J3K3ZG9FHWB1F1YR153,93,1537925,2021-01-16 00:44:27 UTC,,,
0EMSB85KKMDM4CSCPX4VB5SVTA,93,1537925,2021-01-16 00:44:37 UTC,,,
0EMSB88MEVPFXG6TFDXVGGSNJV,93,1537925,2021-01-16 00:44:47 UTC,,,
0EMSB8BQ5YHYXZZA83HDJ3F5TF,93,1537925,2021-01-16 00:44:57 UTC,,,
0EMSB8ES0JK8JNTTBSXZSN5RED,93,1537925,2021-01-16 00:45:07 UTC,,,
0EMSB8HSTJV5EFE3MZ6ZYXEAK8,93,1537925,2021-01-16 00:45:17 UTC,,,
0EMSB8MTTMPQW6XAY4KX7JKGXY,93,1537925,2021-01-16 00:45:27 UTC,,,
0EMSB8WAWTBN7GMV4ZYTBZ1S8P,93,1537925,2021-01-16 00:45:51 UTC,,,
0EMSB8WGFJSSVAAJYCBVZDJ466,93,1537925,2021-01-16 00:45:52 UTC,,,
0EMSB8XZR2V4JND1XZXRGG7NAQ,93,1537925,2021-01-16 00:45:57 UTC,,,
0EMSB911776B2HSNVKR3BA7NDQ,93,1537925,2021-01-16 00:46:07 UTC,,,
0EMSB943W5WC72CMSPBFM81SNY,93,1537925,2021-01-16 00:46:17 UTC,,,
0EMSB9752FG25WGRP50HHN0GNT,93,1537925,2021-01-16 00:46:27 UTC,,,
0EMSB9A6C4V4HH1KYCANJ8XFXH,93,1537925,2021-01-16 00:46:37 UTC,,,
0EMSB9D7Y8RRE6F6Q1MSR7KNFR,93,1537925,2021-01-16 00:46:47 UTC,,,
0EMSB9GAA8S32RNWHKN9ZHDRQ9,93,1537925,2021-01-16 00:46:57 UTC,,,
0EMSB9KBQF8EQMM2TTAQ6MZS56,93,1537925,2021-01-16 00:47:07 UTC,,,
0EMSB9PD45D4VYWXBC7666S9FR,93,1537925,2021-01-16 00:47:17 UTC,,,
0EMSB9SF3JT9T6ACRGJS27YJWQ,93,1537925,2021-01-16 00:47:27 UTC,,,
0EMSB9WH1X7NYSVXSFBQ4WV3AB,93,1537925,2021-01-16 00:47:37 UTC,,,
0EMSB9ZJHJK05GNEDSGJWZ56DS,94,1537925,2021-01-16 00:47:47 UTC,,,
0EMSBA2MV4TPS92CW129QQVF1D,94,1537925,2021-01-16 00:47:57 UTC,,,
0EMSBA5PEGHVCSZTMFNKKQANK4,94,1537925,2021-01-16 00:48:07 UTC,,,
0EMSBA8QKTQDV9WCK539Q3E84X,94,1537925,2021-01-16 00:48:17 UTC,,,
0EMSBABS587T4CMRFWJY9RVCBB,94,1537925,2021-01-16 00:48:27 UTC,,,
0EMSBAETGR0Z77MTB35S4YTB2R,94,1537925,2021-01-16 00:48:37 UTC,,,
0EMSBAHWGYPHSFM96211DFS1BN,94,1537925,2021-01-16 00:48:47 UTC,,,
0EMSBAMYQV9C1DAQVFTFZFVWBS,94,1537925,2021-01-16 00:48:57 UTC,,,
0EMSBAQZZNDWMC887TS3KQ1773,94,1537925,2021-01-16 00:49:07 UTC,,,
0EMSBAV0ZTYZNDSFB285ZDX634,94,1537925,2021-01-16 00:49:17 UTC,,,
0EMSBAY33G296V6B4XY1SKS4S5,94,1537925,2021-01-16 00:49:27 UTC,,,
0EMSBB14DK7SJR8D65F2M31F8C,94,1537925,2021-01-16 00:49:37 UTC,,,
0EMSBB464NBSPEBB33BCV4P83V,94,1537925,2021-01-16 00:49:47 UTC,,,
0EMSBB77WPXNCJZAFVHNZF1FVR,94,1537925,2021-01-16 00:49:57 UTC,,,
0EMSBBAAH9BVV0JCB9B4DF6ZCY,94,1537925,2021-01-16 00:50:07 UTC,,,
0EMSBBDBBVQ4BFXVZ6H3VV3FG9,94,1537925,2021-01-16 00:50:17 UTC,,,
0EMSBBGCHD5NRK42894RYTYXEJ,94,1537925,2021-01-16 00:50:27 UTC,,,
0EMSBBKGBK1J4FD9209VZZH1P9,94,1537925,2021-01-16 00:50:37 UTC,,,
0EMSBBPFP63FSH0V4Q342X0ZXN,94,1537925,2021-01-16 00:50:47 UTC,,,
0EMSBBSHVGC0SEYKDZD7WXXBJ4,94,1537925,2021-01-16 00:50:57 UTC,,,
0EMSBBWM8ECF2EDTZRP8MMCDAB,94,1537925,2021-01-16 00:51:07 UTC,,,
0EMSBBZN5GRMC54MK9562ESWCR,94,1537925,2021-01-16 00:51:17 UTC,,,
0EMSBC2QVEJJFEHPZCESA0BEMM,94,1537925,2021-01-16 00:51:27 UTC,,,
0EMSBC5RGE6XJTKBZ3BM2GDJZJ,94,1537925,2021-01-16 00:51:37 UTC,,,
0EMSBC8T356VEAFWWXR9DY3GAG,93,1537925,2021-01-16 00:51:47 UTC,,,
0EMSBCBWDWZG392GS455MS7YPA,93,1537925,2021-01-16 00:51:57 UTC,,,
0EMSBCEXVM9WHABPDB1NPJRAHY,93,1537925,2021-01-16 00:52:07 UTC,,,
0EMSBCHYVMXQR6B30W4CN7R70P,93,1537925,2021-01-16 00:52:17 UTC,,,
0EMSBCN18M9WAM3G7PH9PYS85P,93,1537925,2021-01-16 00:52:27 UTC,,,
0EMSBCR2QC58M3V2D1FS3TDKX5,93,1537925,2021-01-16 00:52:37 UTC,,,
0EMSBCV3PC0RYHHQ6N3GZE9SGA,93,1537925,2021-01-16 00:52:47 UTC,,,
0EMSBCY6E61FTNGEZMBCA932CQ,93,1537925,2021-01-16 00:52:57 UTC,,,
0EMSBD17GF43Y58RT16JS8E0AS,93,1537925,2021-01-16 00:53:07 UTC,,,
0EMSBD49S36M8VH7BQWYMG6WX6,93,1537925,2021-01-16 00:53:17 UTC,,,
0EMSBD7BB657BE967E27H0BYTF,93,1537925,2021-01-16 00:53:27 UTC,,,
0EMSBDACN4H7DX7H18G5832MCT,93,1537925,2021-01-16 00:53:37 UTC,,,
0EMSBDDESGME48KFY055XM4PPK,93,1537925,2021-01-16 00:53:47 UTC,,,
0EMSBDGGGBABZT2Q0XQ4D8FXWD,93,1537925,2021-01-16 00:53:57 UTC,,,
0EMSBDKJ56EHTH2Q87NKG1NX4H,93,1537925,2021-01-16 00:54:07 UTC,,,
0EMSBDPKKX4QZ2CEDRB7RG423X,93,1537925,2021-01-16 00:54:17 UTC,,,
0EMSBDSMFAWDDE0BX2D3G3PD7M,93,1537925,2021-01-16 00:54:27 UTC,,,
0EMSBDWQ0FRQHNM7XDDRHD93ZQ,93,1537925,2021-01-16 00:54:37 UTC,,,
0EMSBDZRCAFEPYV02AK64FD6KJ,93,1537925,2021-01-16 00:54:47 UTC,,,
0EMSBE2STT73WXDP6EEVEJZT8J,93,1537925,2021-01-16 00:54:57 UTC,,,
0EMSBE5VMCHR1VPQTHXSD2G9M7,93,1537925,2021-01-16 00:55:07 UTC,,,
0EMSBE8YGKN50N0YR99YQ23HVD,93,1537925,2021-01-16 00:55:17 UTC,,,
0EMSBEBYPGNKM37BSVZ2HWZ854,94,1537925,2021-01-16 00:55:27 UTC,,,
0EMSBEF10WM0EHBCBBX82QJB9F,94,1537925,2021-01-16 00:55:37 UTC,,,
0EMSBEJ2F16CEFAY378NBE3YR6,94,1537925,2021-01-16 00:55:47 UTC,,,
0EMSBEN3WBD6V11448VNQJDAKB,94,1537925,2021-01-16 00:55:57 UTC,,,
0EMSBER5E70BX5GYGV7GMVGYXA,94,1537925,2021-01-16 00:56:07 UTC,,,
0EMSBEV6KN85N68PHZM4P6J6QG,94,1537925,2021-01-16 00:56:17 UTC,,,
0EMSBEY92ZQ64ENPSKF315TSZG,94,1537925,2021-01-16 00:56:27 UTC,,,
0EMSBF1AAGYM50TH0PM3Z6P7Z7,94,1537925,2021-01-16 00:56:37 UTC,,,
0EMSBF4CHRWEGCZM59AKJE9KRA,94,1537925,2021-01-16 00:56:47 UTC,,,
0EMSBF7E46RKJVVB38CNYJV6QT,94,1537925,2021-01-16 00:56:57 UTC,,,
0EMSBFAFJ8X6GER1NTX1KWVKSW,94,1537925,2021-01-16 00:57:07 UTC,,,
0EMSBFDH5WNB53BPH4MGXGGA9Y,94,1537925,2021-01-16 00:57:17 UTC,,,
0EMSBFGJ5QDGB59FKB8R1K2DDD,94,1537925,2021-01-16 00:57:27 UTC,,,
0EMSBFKKVQC2CDAQP23A64PG1R,94,1537925,2021-01-16 00:57:37 UTC,,,
0EMSBFPNMV9FDEMPPCNFMVDZ7T,94,1537925,2021-01-16 00:57:47 UTC,,,
0EMSBFSRBEE2TP72GD3A1Z93SV,94,1537925,2021-01-16 00:57:57 UTC,,,
0EMSBFWT4JBR96KYZ6V0JJSEM6,94,1537925,2021-01-16 00:58:07 UTC,,,
0EMSBFZW2B720YBRRX0GQP5A2W,94,1537925,2021-01-16 00:58:17 UTC,,,
0EMSBG2WX76GX3AR8CCHAPDY83,94,1537925,2021-01-16 00:58:27 UTC,,,
0EMSBG5YH42391V4N8J5KW3C37,94,1537925,2021-01-16 00:58:37 UTC,,,
0EMSBG8ZCTZYBSXF8K0JD699TX,94,1537925,2021-01-16 00:58:47 UTC,,,
0EMSBGC1X2491QQXK76Q0B32WB,94,1537925,2021-01-16 00:58:57 UTC,,,
0EMSBGF3BX43GJA662J1C8ZJT9,93,1537925,2021-01-16 00:59:07 UTC,,,
0EMSBGJ4RF99QM7307TNY417BA,93,1537925,2021-01-16 00:59:17 UTC,,,
0EMSBGN69BJJS189MHGJG4TQP5,93,1537925,2021-01-16 00:59:27 UTC,,,
0EMSBGR8FSJPDBZZ9T7ND6ZHSH,93,1537925,2021-01-16 00:59:37 UTC,,,
0EMSBGVA4B1SF2D7SEJFN8W45C,93,1537925,2021-01-16 00:59:47 UTC,,,
0EMSBGYBFG8MCDWEWMNJ78PG9D,93,1537925,2021-01-16 00:59:57 UTC,,,
0EMSBH1DMJ8MX3JRDD3MYKHVS7,93,1537925,2021-01-16 01:00:07 UTC,,,
0EMSBH4EVTJ1D87NZ083HWH293,93,1537925,2021-01-16 01:00:17 UTC,,,
0EMSBH7H9ZKK22Z56G6XT93GWG,93,1537925,2021-01-16 01:00:27 UTC,,,
0EMSBHAJWNKF4M7XYQJWAJ5QQX,93,1537925,2021-01-16 01:00:37 UTC,,,
0EMSBHDM3RNCR3D413S69VZ7EE,93,1537925,2021-01-16 01:00:47 UTC,,,
0EMSBHGNPJBZ5PV242TPAWXFQG,93,1537925,2021-01-16 01:00:57 UTC,,,
0EMSBHKTGJ14K83J7ZYHFGQAP9,93,1537925,2021-01-16 01:01:07 UTC,,,
0EMSBHPWS0ZBWEE87KHWRR528A,93,1537925,2021-01-16 01:01:17 UTC,,,
0EMSBHSTTATKEEF5J50D3XZ6FV,93,1537925,2021-01-16 01:01:27 UTC,,,
0EMSBHWWQVY44F3YWW8QCNZDA3,93,1537925,2021-01-16 01:01:37 UTC,,,
0EMSBHZXP529X3F902KM34MY5B,93,1537925,2021-01-16 01:01:47 UTC,,,
0EMSBJ2ZC0ZXN2V5M3R751V0ZR,93,1537925,2021-01-16 01:01:57 UTC,,,
0EMSBJ60MJHRC2Y2VQ9FWZPN3E,93,1537925,2021-01-16 01:02:07 UTC,,,
0EMSBJ98YB2H88HBC2STSS14N7,93,1537925,2021-01-16 01:02:17 UTC,,,
0EMSBJC4FKEBPT7MFG23MHJPM9,93,1537925,2021-01-16 01:02:27 UTC,,,
0EMSBJF5JEJNZK74DY7CR1KQX3,93,1537925,2021-01-16 01:02:37 UTC,,,
0EMSBJJ89PAET6DFH7CMTR8EJJ,93,1537925,2021-01-16 01:02:47 UTC,,,
0EMSBJN9Z48Y7VN1EWT92BVP1D,94,1537925,2021-01-16 01:02:57 UTC,,,
0EMSBJRARA12TZKWRES2BZTHZ0,94,1537925,2021-01-16 01:03:07 UTC,,,
0EMSBJVD2VVDAFB38JHY3X77FP,94,1537925,2021-01-16 01:03:17 UTC,,,
0EMSBJYEJJKVZWYJN55NG89YF0,94,1537925,2021-01-16 01:03:27 UTC,,,
0EMSBK1FZ1S95M2S414Y2XPZ4C,94,1537925,2021-01-16 01:03:37 UTC,,,
0EMSBK4TW4QN939G2GMFA87SR2,94,1537925,2021-01-16 01:03:48 UTC,,,
0EMSBK7SJGZS4P61FTMSAQ1T9J,94,1537925,2021-01-16 01:03:57 UTC,,,
0EMSBKARKXX50QT5A9JD13X0V2,94,1537925,2021-01-16 01:04:07 UTC,,,
0EMSBKDRSYNRJGSHPHXKQT2AVB,94,1537925,2021-01-16 01:04:17 UTC,,,
0EMSBKGZRGGVY06G40SB365R30,94,1537925,2021-01-16 01:04:28 UTC,,,
0EMSBKKW6Q8R3V6CWQJPSVHZRE,94,1537925,2021-01-16 01:04:37 UTC,,,
0EMSBKQ37DAGXN3CP54SQ5XE3B,94,1537925,2021-01-16 01:04:48 UTC,,,
0EMSBKSXGK8CAW3Z3A8K73NTKB,94,1537925,2021-01-16 01:04:57 UTC,,,
0EMSBKWZ2MZDZQTX9Z8TXFPXGY,94,1537925,2021-01-16 01:05:07 UTC,,,
0EMSBM06YCD91G5K104GMVKYNG,94,1537925,2021-01-16 01:05:17 UTC,,,
0EMSBM3CQMXM6VDHFNW9E9EXFW,94,1537925,2021-01-16 01:05:28 UTC,,,
0EMSBM6400EW54E9M48JH4AYR7,94,1537925,2021-01-16 01:05:37 UTC,,,
0EMSBM964B02JKS9C97P0M2FX0,94,1537925,2021-01-16 01:05:47 UTC,,,
0EMSBMC6QKY4PMCH6YADB6V80A,94,1537925,2021-01-16 01:05:57 UTC,,,
0EMSBMF92SMP7BHHAEZVBYZFWN,94,1537925,2021-01-16 01:06:07 UTC,,,
0EMSBMJHGG48BGAZ7ZE7BKKEEZ,94,1537925,2021-01-16 01:06:17 UTC,,,
0EMSBMNJN8T3YJMVHZJZXYAJ7A,94,1537925,2021-01-16 01:06:27 UTC,,,
0EMSBMRD9ARPSKNHA4F3EARP23,93,1537925,2021-01-16 01:06:37 UTC,,,
0EMSBMVF8Z21CV5KGDN8Z7QN5Z,93,1537925,2021-01-16 01:06:47 UTC,,,
0EMSBMYHVMDBRH0DPE3Z1XRYFQ,93,1537925,2021-01-16 01:06:57 UTC,,,
0EMSBN1KF390A190VDDXS69MT7,93,1537925,2021-01-16 01:07:07 UTC,,,
0EMSBN4V5MCGK6B3C28DTQH66J,93,1537925,2021-01-16 01:07:17 UTC,,,
0EMSBN7X9QDMZB2YZSJJGSKGFT,93,1537925,2021-01-16 01:07:28 UTC,,,
0EMSBNAX8EWTNS921C9AGXA2MT,93,1537925,2021-01-16 01:07:37 UTC,,,
0EMSBNDSTQ5D8E059T10J45TRF,93,1537925,2021-01-16 01:07:47 UTC,,,
0EMSBNGVG5NQ82WVSBWQY13B82,93,1537925,2021-01-16 01:07:57 UTC,,,
0EMSBNKWWGQNG08HPK8B1X90ST,93,1537925,2021-01-16 01:08:07 UTC,,,
0EMSBNPYN79R1XX3B8BJ71SPJK,93,1537925,2021-01-16 01:08:17 UTC,,,
0EMSBNSZMKWVBMQ26N4YH50GWM,93,1537925,2021-01-16 01:08:27 UTC,,,
0EMSBNX266SFN5XBFSC4YG48K5,93,1537925,2021-01-16 01:08:37 UTC,,,
0EMSBP030VHMMT5WW7TFD2MBQD,93,1537925,2021-01-16 01:08:47 UTC,,,
0EMSBP353M5WC4JKXNJ06KSNQC,93,1537925,2021-01-16 01:08:57 UTC,,,
0EMSBP66H1XTZ6YA6VF321YKKH,93,1537925,2021-01-16 01:09:07 UTC,,,
0EMSBP98961K7HRR2BQ687R1CA,93,1537925,2021-01-16 01:09:17 UTC,,,
0EMSBPC9ZW1W3PQAQ0N3XJND5B,93,1537925,2021-01-16 01:09:27 UTC,,,
0EMSBPFB0BHN4ETF5Q9NRS7XD2,93,1537925,2021-01-16 01:09:37 UTC,,,
0EMSBPJDMW2R6ZF3EKCJ4ZRKG5,93,1537925,2021-01-16 01:09:47 UTC,,,
0EMSBPNEAH145G1ZPHR6NCKEBV,93,1537925,2021-01-16 01:09:57 UTC,,,
0EMSBPRGMV004VZTTX9HYM1KRX,93,1537925,2021-01-16 01:10:07 UTC,,,
0EMSBPVS379T1PN7RHCDCW93XD,93,1537925,2021-01-16 01:10:17 UTC,,,
0EMSBPYPZ7T51A7EXEGMQBWE9G,93,1537925,2021-01-16 01:10:27 UTC,,,
0EMSBQ1NN6DYVZWSVYVHCAAJ74,93,1537925,2021-01-16 01:10:37 UTC,,,
0EMSBQ4QBST7PCATG2J66KD53N,93,1537925,2021-01-16 01:10:47 UTC,,,
0EMSBQ7SK5HJC7J5Y9EC8XPXAC,94,1537925,2021-01-16 01:10:57 UTC,,,
0EMSBQATT4JAGS52TQP4S3ABNE,94,1537925,2021-01-16 01:11:07 UTC,,,
0EMSBQDVNSD7JF5B9VRF46S9Z6,94,1537925,2021-01-16 01:11:17 UTC,,,
0EMSBQGXQFY0E5DG4WZBHVE2MS,94,1537925,2021-01-16 01:11:27 UTC,,,
0EMSBQKZE7J72AMZ8XCQMKGPXH,94,1537925,2021-01-16 01:11:37 UTC,,,
0EMSBQQ0JQ7NP73FDK5CWYQMTX,94,1537925,2021-01-16 01:11:47 UTC,,,
0EMSBQT37NKD6VZJ0VBX1PRTJ9,94,1537925,2021-01-16 01:11:57 UTC,,,
0EMSBQX43HCGKYJZ9S3XJ7JJWR,94,1537925,2021-01-16 01:12:07 UTC,,,
0EMSBR0622ASZAK132V9WVF8G3,94,1537925,2021-01-16 01:12:17 UTC,,,
0EMSBR377FJF4XPNAHZ7Q5BNP5,94,1537925,2021-01-16 01:12:27 UTC,,,
0EMSBR698CFS3ZHA0RCAS7J03E,94,1537925,2021-01-16 01:12:37 UTC,,,
0EMSBR9CMJSVC3S6H82Q035JBH,94,1537925,2021-01-16 01:12:47 UTC,,,
0EMSBRCCF9RBBPMN6JQ1ZA711T,94,1537925,2021-01-16 01:12:57 UTC,,,
0EMSBRFE9Z7YH806A84P3PTNF7,94,1537925,2021-01-16 01:13:07 UTC,,,
0EMSBRJGCQG8TRTZ21YPCJDVY6,94,1537925,2021-01-16 01:13:17 UTC,,,
0EMSBRNH6SYPPFCR6W8GPYPTKA,94,1537925,2021-01-16 01:13:27 UTC,,,
0EMSBRRJV1AQXYE43DBQCH5RWK,94,1537925,2021-01-16 01:13:37 UTC,,,
0EMSBRVN2BYR93W652JHY7XGTP,94,1537925,2021-01-16 01:13:47 UTC,,,
0EMSBRYPMT8ZW7RP92X0JATABB,94,1537925,2021-01-16 01:13:57 UTC,,,
0EMSBS1R2QHBSZJ9AWYXBGQFZN,94,1537925,2021-01-16 01:14:07 UTC,,,
0EMSBS4SGN0GSF4D3544VS6B1R,94,1537925,2021-01-16 01:14:17 UTC,,,
0EMSBS7VVJCXRKQ7R4R7BXMAE9,93,1537925,2021-01-16 01:14:27 UTC,,,
0EMSBSAXG2GWBNR3G9QF27VTN2,93,1537925,2021-01-16 01:14:37 UTC,,,
0EMSBSDYMA29BK8AZ2FFM2QKFZ,93,1537925,2021-01-16 01:14:47 UTC,,,
0EMSBSH15X256TRJH3WAPA3J6X,93,1537925,2021-01-16 01:14:57 UTC,,,
0EMSBSM26S7331GSAYR8ETBBJC,93,1537925,2021-01-16 01:15:07 UTC,,,
0EMSBSQ44BQ47GMZ9E6CSC7Z6T,93,1537925,2021-01-16 01:15:17 UTC,,,
0EMSBST5YWYZYEDMF2134GXNJW,93,1537925,2021-01-16 01:15:27 UTC,,,
0EMSBSX770493RHXX6HHR65MYC,93,1537925,2021-01-16 01:15:37 UTC,,,
0EMSBT09C5AYAP51T1XQT87ZME,93,1537925,2021-01-16 01:15:47 UTC,,,
0EMSBT3AYGDJQKERZFB2VTGHXY,93,1537925,2021-01-16 01:15:57 UTC,,,
0EMSBT6BX2BAV2DM0K4ANTCVM7,93,1537925,2021-01-16 01:16:07 UTC,,,
0EMSBT9EANAX16DTAPTNB41BE1,93,1537925,2021-01-16 01:16:17 UTC,,,
0EMSBTCFAAFDQDMFD1JNQ6SSKC,93,1537925,2021-01-16 01:16:27 UTC,,,
0EMSBTFGSV1VAY46K7QBWGV4V5,93,1537925,2021-01-16 01:16:37 UTC,,,
0EMSBTJJAKP73TH5AV2ZGEH2QA,93,1537925,2021-01-16 01:16:47 UTC,,,
0EMSBTNMSEN3NFQB3RAT3YQ9JB,93,1537925,2021-01-16 01:16:57 UTC,,,
0EMSBTRP9WECMN3P1S1ZB3GQWN,93,1537925,2021-01-16 01:17:07 UTC,,,
0EMSBTVQF414H0RQ42XHH0CS6H,93,1537925,2021-01-16 01:17:17 UTC,,,
0EMSBTYSVB8MXTKX34VPCQD7K4,93,1537925,2021-01-16 01:17:27 UTC,,,
0EMSBV1VCX1K27W7DJ3DY3QTJ1,93,1537925,2021-01-16 01:17:37 UTC,,,
0EMSBV4WFW60BMQCAX33RFEP5P,93,1537925,2021-01-16 01:17:47 UTC,,,
0EMSBV7YHNJCED4KCYAZAJQ2SX,93,1537925,2021-01-16 01:17:57 UTC,,,
0EMSBVB01SVY19RF7QB85F38VP,93,1537925,2021-01-16 01:18:07 UTC,,,
0EMSBVE1N7CZGGG820BVBEKH95,93,1537925,2021-01-16 01:18:17 UTC,,,
0EMSBVH3MW1R9245CYGB25NSNE,93,1537925,2021-01-16 01:18:27 UTC,,,
0EMSBVM4WFQZ2CQQ9Q3PQR9H9F,94,1537925,2021-01-16 01:18:37 UTC,,,
0EMSBVQ68RT0YY0ERP5S8QDHD1,94,1537925,2021-01-16 01:18:47 UTC,,,
0EMSBVT7NM62HBSM1WZ7TY00ZN,94,1537925,2021-01-16 01:18:57 UTC,,,
0EMSBVX9NS5P8NYYCMN48ESC8T,94,1537925,2021-01-16 01:19:07 UTC,,,
0EMSBW0C0W11ADJSZDYCS9B5A3,94,1537925,2021-01-16 01:19:17 UTC,,,
0EMSBW3D03RZM6XQTS48XVGZ4R,94,1537925,2021-01-16 01:19:27 UTC,,,
0EMSBW6EZQBA73TQY7M3FWZWYC,94,1537925,2021-01-16 01:19:37 UTC,,,
0EMSBW9GG3R4BTSVD84BMWMRW7,94,1537925,2021-01-16 01:19:47 UTC,,,
0EMSBWCKA73B8VC541132Z4XBZ,94,1537925,2021-01-16 01:19:57 UTC,,,
0EMSBWFME68YDW2Q7KAWC51N8T,94,1537925,2021-01-16 01:20:07 UTC,,,
0EMSBWJP027P0RE0K9H5CETGXH,94,1537925,2021-01-16 01:20:17 UTC,,,
0EMSBWNQ7WEB59M3SHCYS0VWCT,94,1537925,2021-01-16 01:20:27 UTC,,,
0EMSBWRSEZBSTR25JR12F8RT95,94,1537925,2021-01-16 01:20:37 UTC,,,
0EMSBWVTMWX4816N71TQ5EGR2E,94,1537925,2021-01-16 01:20:47 UTC,,,
0EMSBWYWGP6DH2RDEC7MV88K8H,94,1537925,2021-01-16 01:20:57 UTC,,,
0EMSBX1XB6ZYQQNQS1YR5SEX3E,94,1537925,2021-01-16 01:21:07 UTC,,,
0EMSBX4YWBBNMADP83N830WNHM,94,1537925,2021-01-16 01:21:17 UTC,,,
0EMSBX81AQNWRGVQ6RXDD23RVW,94,1537925,2021-01-16 01:21:27 UTC,,,
0EMSBXB2RKZ72MV5JD4TVFRNDQ,94,1537925,2021-01-16 01:21:37 UTC,,,
0EMSBXE5CAHT63TMBQJC8HS1Z4,94,1537925,2021-01-16 01:21:47 UTC,,,
0EMSBXH630H45J5MYZXHYJ0DSD,94,1537925,2021-01-16 01:21:57 UTC,,,
0EMSBXM7JEX60E0CMR58QGF29M,94,1537925,2021-01-16 01:22:07 UTC,,,
0EMSBXQ9YCQW8Q3HR2J872QXWE,94,1537925,2021-01-16 01:22:17 UTC,,,
0EMSBXTBJXTY6W0WT5NE7VZ4RN,94,1537925,2021-01-16 01:22:27 UTC,,,
0EMSBXXCNFWJESCZ46RFCGJ0H0,94,1537925,2021-01-16 01:22:37 UTC,,,
0EMSBY0ER0EFGHDRVKF7ZPAJFH,93,1537925,2021-01-16 01:22:47 UTC,,,
0EMSBY3G6EXEQW6Q88RYB4GEPQ,93,1537925,2021-01-16 01:22:57 UTC,,,
0EMSBY6HHA3PA2CCMJMQGDBF7V,93,1537925,2021-01-16 01:23:07 UTC,,,
0EMSBY9KGRXA2NXFQRG4HAWA2V,93,1537925,2021-01-16 01:23:17 UTC,,,
0EMSBYCNF22Y6Y6T2SKD3T27EK,94,1537925,2021-01-16 01:23:27 UTC,,,
0EMSBYFQ1998TKA7J0AP9X15M9,93,1537925,2021-01-16 01:23:37 UTC,,,
0EMSBYJR0R0ZQAEDNN9G85TR0V,93,1537925,2021-01-16 01:23:47 UTC,,,
0EMSBYNT9N6GXE2MA7FCQZE968,93,1537925,2021-01-16 01:23:57 UTC,,,
0EMSBYRVT4WK957DP3GPB0MVS6,93,1537925,2021-01-16 01:24:07 UTC,,,
0EMSBYVXBSPHT00C96S54RSADB,93,1537925,2021-01-16 01:24:17 UTC,,,
0EMSBYYZEK45PCDB15H7T4W80A,93,1537925,2021-01-16 01:24:27 UTC,,,
0EMSBZ20KNJTN4BZFFD14H8N8N,93,1537925,2021-01-16 01:24:37 UTC,,,
0EMSBZ51V1TDVZM2QGBC200JM2,93,1537925,2021-01-16 01:24:47 UTC,,,
0EMSBZ83YPZDN673K56WZ7Z363,93,1537925,2021-01-16 01:24:57 UTC,,,
0EMSBZB5DMAY4Q8KP5YQ52G1QP,93,1537925,2021-01-16 01:25:07 UTC,,,
0EMSBZE744KSTX74J8C28X5G1Q,93,1537925,2021-01-16 01:25:17 UTC,,,
0EMSBZH893Z9T052123F3ZAZQS,93,1537925,2021-01-16 01:25:27 UTC,,,
0EMSBZMAK7Q2DJ24GS6KZKSQTM,93,1537925,2021-01-16 01:25:37 UTC,,,
0EMSBZQBZY1GQM091T08NGQ8A6,93,1537925,2021-01-16 01:25:47 UTC,,,
0EMSBZTF0ZJ39V3XFA5SJQ1GH7,93,1537925,2021-01-16 01:25:57 UTC,,,
0EMSBZXFMSW1MVG9GX8X59NTER,93,1537925,2021-01-16 01:26:07 UTC,,,
0EMSC00HA6SXJYSJ09JJJ5Y063,93,1537925,2021-01-16 01:26:17 UTC,,,
0EMSC03JVYP8E1A6VP9QNCGSAJ,93,1537925,2021-01-16 01:26:27 UTC,,,
0EMSC06M78MG9C8DPEF36WF881,93,1537925,2021-01-16 01:26:37 UTC,,,
0EMSC09PVZ8DBE8G9M8978ENN1,93,1537925,2021-01-16 01:26:47 UTC,,,
0EMSC0CRNRZ2DSMYGCA4AGEGKK,93,1537925,2021-01-16 01:26:57 UTC,,,
0EMSC0FT6RAK4XH3JM6E5CHTS9,93,1537925,2021-01-16 01:27:07 UTC,,,
0EMSC0JTGQXWTAGEQ0MT573VQP,94,1537925,2021-01-16 01:27:17 UTC,,,
0EMSC0NX87DS2RW851BE0M52AD,94,1537925,2021-01-16 01:27:27 UTC,,,
0EMSC0RYHHNGQVHWT9F43Q7498,94,1537925,2021-01-16 01:27:37 UTC,,,
0EMSC0W0V6H8XWH15NGMNDRCXW,94,1537925,2021-01-16 01:27:47 UTC,,,
0EMSC0Z20HGXKMGYJ3Z6KS7SJ1,94,1537925,2021-01-16 01:27:57 UTC,,,
0EMSC123AEQN3E1XCMJ2DAW64B,94,1537925,2021-01-16 01:28:07 UTC,,,
0EMSC155NGER1VMVV6NCTQ9TAV,94,1537925,2021-01-16 01:28:17 UTC,,,
0EMSC1876ZDHXM8DVN7Z1M50A0,94,1537925,2021-01-16 01:28:27 UTC,,,
0EMSC1B83PY8EK2Z4NQCMQFPWV,94,1537925,2021-01-16 01:28:37 UTC,,,
0EMSC1EAEWX5DNMRRER4ET4CB8,94,1537925,2021-01-16 01:28:47 UTC,,,
0EMSC1HC0HMRPWYBD16DKX16TM,94,1537925,2021-01-16 01:28:57 UTC,,,
0EMSC1MCW44SYDSXRCSMXQA574,94,1537925,2021-01-16 01:29:07 UTC,,,
0EMSC1QFAFDPZF11WCZARQEMD3,94,1537925,2021-01-16 01:29:17 UTC,,,
0EMSC1TH5KZND8E1EJY10J0KGB,94,1537925,2021-01-16 01:29:27 UTC,,,
0EMSC1XJ7NY5ZCCEMZ838RNZ9X,94,1537925,2021-01-16 01:29:37 UTC,,,
0EMSC20KPN9SPDQM20396E91H8,94,1537925,2021-01-16 01:29:47 UTC,,,
0EMSC23NN75XHGNST3NKBQY5AZ,94,1537925,2021-01-16 01:29:57 UTC,,,
0EMSC26PYZN2GRS9QCYD2RVMAA,94,1537925,2021-01-16 01:30:07 UTC,,,
0EMSC29S1715HDYZVS6TB48GVT,94,1537925,2021-01-16 01:30:17 UTC,,,
0EMSC2CTEV8ZH1SH3DYN3W3CS9,93,1537925,2021-01-16 01:30:27 UTC,,,
0EMSC2FW544H4AWCYF4X0BJ8ZZ,93,1537925,2021-01-16 01:30:37 UTC,,,
0EMSC2JXA2FH2R6B0RRZB6HMYJ,93,1537925,2021-01-16 01:30:47 UTC,,,
0EMSC2P04G5NRV33TKS5NMTQ8J,93,1537925,2021-01-16 01:30:57 UTC,,,
0EMSC2S1P53CRSJNKFJTGSTG7K,93,1537925,2021-01-16 01:31:07 UTC,,,
0EMSC2W34QZASWDJWSSKP49K82,93,1537925,2021-01-16 01:31:17 UTC,,,
0EMSC2Z41C0NJY63SHJ46Z7YQH,93,1537925,2021-01-16 01:31:27 UTC,,,
0EMSC325TK7YWM3QSQ32ZNQG8Q,93,1537925,2021-01-16 01:31:37 UTC,,,
0EMSC358993TK1SMNZQK9WBR28,93,1537925,2021-01-16 01:31:47 UTC,,,
0EMSC389YW1G7VJ8Q4PY4JCN07,93,1537925,2021-01-16 01:31:57 UTC,,,
0EMSC3BBSV3AZMJ8DAK79CFEEF,93,1537925,2021-01-16 01:32:07 UTC,,,
0EMSC3ECVT4WM62FZHM18FWBTA,93,1537925,2021-01-16 01:32:17 UTC,,,
0EMSC3HF4B0DZ8STFDGFJ7PHS4,93,1537925,2021-01-16 01:32:27 UTC,,,
0EMSC3MGCSMTSJC0G6QMSYB6H8,93,1537925,2021-01-16 01:32:37 UTC,,,
0EMSC3QHNAHE3BTFBSD7XP6T7E,93,1537925,2021-01-16 01:32:47 UTC,,,
0EMSC3TKJ0WWSMXPWKWVK9H1YC,93,1537925,2021-01-16 01:32:57 UTC,,,
0EMSC3XNT4NP9V84NQXPEF57TR,93,1537925,2021-01-16 01:33:07 UTC,,,
0EMSC40Q5TY0MS0AFA0RMTHJE3,93,1537925,2021-01-16 01:33:17 UTC,,,
0EMSC43S7DGK4997NXNW6ZEQT6,93,1537925,2021-01-16 01:33:27 UTC,,,
0EMSC46TK17QC1EKZ9M7ZKRZT5,93,1537925,2021-01-16 01:33:37 UTC,,,
0EMSC49V99WRE9BD2FZNSK19K8,93,1537925,2021-01-16 01:33:47 UTC,,,
0EMSC4CY31PH21YXMR7EA5V8YH,93,1537925,2021-01-16 01:33:57 UTC,,,
0EMSC4FZ475V7PGKW0M1P29MMT,93,1537925,2021-01-16 01:34:07 UTC,,,
0EMSC4K1458WNP2E6DS96VPAEY,94,1537925,2021-01-16 01:34:17 UTC,,,
0EMSC4P2D2B9GEWQC517S8GA79,94,1537925,2021-01-16 01:34:27 UTC,,,
0EMSC4S3Y1WKHM7Q8BYM4F0663,94,1537925,2021-01-16 01:34:37 UTC,,,
0EMSC4W665RE0JK6BPSTWWKZY1,94,1537925,2021-01-16 01:34:47 UTC,,,
0EMSC4Z7SGJ22PS9DP8W83T27B,94,1537925,2021-01-16 01:34:57 UTC,,,
0EMSC528RZKQB3QDKEPPRE2SZW,94,1537925,2021-01-16 01:35:07 UTC,,,
0EMSC55B49KWM8W1HZEXZYEZD0,94,1537925,2021-01-16 01:35:17 UTC,,,
0EMSC58CGY5W9VYVCW8MEPYB5V,94,1537925,2021-01-16 01:35:27 UTC,,,
0EMSC5BE728V5J6Y524J87B5P5,94,1537925,2021-01-16 01:35:37 UTC,,,
0EMSC5EFG1G6ETV3W1DB8VMM4E,94,1537925,2021-01-16 01:35:47 UTC,,,
0EMSC5HHTC7CAQPP4QDETXW4BF,94,1537925,2021-01-16 01:35:57 UTC,,,
0EMSC5MJ9VA5VV2Q8MZJZSTXEM,94,1537925,2021-01-16 01:36:07 UTC,,,
0EMSC5QN2J282CRBPR67RJXN0J,93,1537925,2021-01-16 01:36:17 UTC,,,
0EMSC5TP6G85S49SJYVN8TKYJQ,94,1537925,2021-01-16 01:36:27 UTC,,,
0EMSC5XRG8RFN4KM2EDWHR7G7G,93,1537925,2021-01-16 01:36:37 UTC,,,
0EMSC60S14Z7Q5G0F1YB6WJB16,93,1537925,2021-01-16 01:36:47 UTC,,,
0EMSC63VQ3PBFQPGQD1HNDSPF8,94,1537925,2021-01-16 01:36:57 UTC,,,
0EMSC66XD2VXZDWYPQ7TKZR19R,93,1537925,2021-01-16 01:37:07 UTC,,,
0EMSC69YWCZD87NSGJ849RVD3F,93,1537925,2021-01-16 01:37:17 UTC,,,
0EMSC6CZTNSFB8SPHAF9NMS1W7,93,1537925,2021-01-16 01:37:27 UTC,,,
0EMSC6G1N6B9GS3G9XBT6R2MPB,93,1537925,2021-01-16 01:37:37 UTC,,,
0EMSC6K3S66G7XYC7MMHS3MVQ5,93,1537925,2021-01-16 01:37:47 UTC,,,
0EMSC6P4REKZYTVXF2WD946CP4,93,1537925,2021-01-16 01:37:57 UTC,,,
0EMSC6S6HDG9NQNJSSD94DN2TQ,93,1537925,2021-01-16 01:38:07 UTC,,,
0EMSC6W934CPQZQ2NKYZ4QHNEC,93,1537925,2021-01-16 01:38:17 UTC,,,
0EMSC6ZAFYF1Q0AFGWT9M8H2V5,93,1537925,2021-01-16 01:38:27 UTC,,,
0EMSC72C4WE4F4S47SVK660T9R,93,1537925,2021-01-16 01:38:37 UTC,,,
0EMSC75DATZTD2ZBY7WK8GNJXC,93,1537925,2021-01-16 01:38:47 UTC,,,
0EMSC78FHBBVP1S64T9XVAWW6E,93,1537925,2021-01-16 01:38:57 UTC,,,
0EMSC7BG6307YAA54QHS6X0PT4,93,1537925,2021-01-16 01:39:07 UTC,,,
0EMSC7EJSM3MJNTRD09GYYP0C5,93,1537925,2021-01-16 01:39:17 UTC,,,
0EMSC7HMEYBPEKFC99FS66XJDS,93,1537925,2021-01-16 01:39:27 UTC,,,
0EMSC7MP6H8WNVNC4QPFD3Y0QG,94,1537925,2021-01-16 01:39:37 UTC,,,
0EMSC7QPZHQKPT4TQAR3R4J6GG,94,1537925,2021-01-16 01:39:47 UTC,,,
0EMSC7TRPC905QRCBXAWA4EW48,94,1537925,2021-01-16 01:39:57 UTC,,,
0EMSC7XVPCZ5995PZ8QS2Q2WW6,94,1537925,2021-01-16 01:40:07 UTC,,,
0EMSC80WR02DWH6J00Q65KA9P5,94,1537925,2021-01-16 01:40:17 UTC,,,
0EMSC83Y8DJRYGBQACRGNYPHPP,94,1537925,2021-01-16 01:40:27 UTC,,,
0EMSC86Z2RP8Z2DRPEC2BCC4XH,94,1537925,2021-01-16 01:40:37 UTC,,,
0EMSC8A0RZNT4NQBQQ9NT2MJPY,94,1537925,2021-01-16 01:40:47 UTC,,,
0EMSC8D2HE3FQWT5DX3J2QRB2W,94,1537925,2021-01-16 01:40:57 UTC,,,
0EMSC8G50P8K875YGQGA2EHMN1,94,1537925,2021-01-16 01:41:07 UTC,,,
0EMSC8K6R2CWJDT80X99GQR2P7,93,1537925,2021-01-16 01:41:17 UTC,,,
0EMSC8P7YE5ZDXYXSGA2WK3NQV,93,1537925,2021-01-16 01:41:27 UTC,,,
0EMSC8S980XEN6W4K7ZSZPF8BA,94,1537925,2021-01-16 01:41:37 UTC,,,
0EMSC8WBJ2W9ARJDY3G9A3VB9D,93,1537925,2021-01-16 01:41:47 UTC,,,
0EMSC8ZD492PT7FA9RZBZ5K9KW,93,1537925,2021-01-16 01:41:57 UTC,,,
0EMSC92E4XCSYN2XD184TKPZAC,93,1537925,2021-01-16 01:42:07 UTC,,,
0EMSC95G6H7DZSZJ396V5B4BM8,93,1537925,2021-01-16 01:42:17 UTC,,,
0EMSC9B8XAA9K11N0EVPX5MJC9,94,1537925,2021-01-16 01:42:36 UTC,,,
0EMSC9BM3FGA21536G141TNKPC,94,1537925,2021-01-16 01:42:37 UTC,,,
0EMSC9ENCSHMNQ0DGA523YBVMY,94,1537925,2021-01-16 01:42:47 UTC,,,
0EMSC9HQD4R092EERBD8FN07T2,94,1537925,2021-01-16 01:42:57 UTC,,,
0EMSC9MRK4G16ERNJ2F796RZ4E,94,1537925,2021-01-16 01:43:07 UTC,,,
0EMSC9QSNSJ3Z01F05MDBNDVRN,94,1537925,2021-01-16 01:43:17 UTC,,,
0EMSC9TVW6CF6SH1C5A8BZW5FQ,94,1537925,2021-01-16 01:43:27 UTC,,,
0EMSC9XXBDM6G3WV48C6G0VAE0,94,1537925,2021-01-16 01:43:37 UTC,,,
0EMSCA107146GE9GF8EN24KQCZ,93,1537925,2021-01-16 01:43:47 UTC,,,
0EMSCA40KPSQ0SWVK48E30AMGN,94,1537925,2021-01-16 01:43:57 UTC,,,
0EMSCA738WM4G07KNFMEZWV3WQ,93,1537925,2021-01-16 01:44:07 UTC,,,
0EMSCAA4J8XG46AA343X4C0GZX,94,1537925,2021-01-16 01:44:17 UTC,,,
0EMSCAD7X278VZC4TGYXQ2A5VM,93,1537925,2021-01-16 01:44:27 UTC,,,
0EMSCAG860C2A6QR7CFR3YHMWX,93,1537925,2021-01-16 01:44:37 UTC,,,
0EMSCAK94X1EA1AHVAV820E4J7,94,1537925,2021-01-16 01:44:47 UTC,,,
0EMSCAPBJ0N5NAJRWKKB6MYQQ8,93,1537925,2021-01-16 01:44:57 UTC,,,
0EMSCASCKSJWRYS77QRRT0DMKJ,93,1537925,2021-01-16 01:45:07 UTC,,,
0EMSCAWE2TCQT8M43K1QRTKEPD,93,1537925,2021-01-16 01:45:17 UTC,,,
0EMSCAZFRA300S61WFW2N7ZEYX,93,1537925,2021-01-16 01:45:27 UTC,,,
0EMSCB2HM96CVD7BSS6JP8RZPF,93,1537925,2021-01-16 01:45:37 UTC,,,
0EMSCB5KANZA1G6BSCCECPYFCQ,93,1537925,2021-01-16 01:45:47 UTC,,,
0EMSCB8N5XCK0T2X2MQQ9KJ1D9,94,1537925,2021-01-16 01:45:57 UTC,,,
0EMSCBBPWAB55NDR7K4K8KQ56Z,94,1537925,2021-01-16 01:46:07 UTC,,,
0EMSCBES3TSZZK3JZEP1Q7HM0T,94,1537925,2021-01-16 01:46:17 UTC,,,
0EMSCBHSPG7HRHYESVV888HBSB,93,1537925,2021-01-16 01:46:27 UTC,,,
0EMSCBMW91A0YM1RT3EMJNGV3X,93,1537925,2021-01-16 01:46:37 UTC,,,
0EMSCBQX1ZGMEAS5JD0F3TEKCP,94,1537925,2021-01-16 01:46:47 UTC,,,
0EMSCBTYANCDE1F2N0QMGR60N8,94,1537925,2021-01-16 01:46:57 UTC,,,
0EMSCBY05HZYEEFG34JFFGN840,94,1537925,2021-01-16 01:47:07 UTC,,,
0EMSCC12JKDF5X7YK5A0WJBWGR,94,1537925,2021-01-16 01:47:17 UTC,,,
0EMSCC447JYQ2TTPXAMB7WTHSB,94,1537925,2021-01-16 01:47:27 UTC,,,
0EMSCC760XT17W87JXMER5RQHH,94,1537925,2021-01-16 01:47:37 UTC,,,
0EMSCCA73ZAY8M0RK1AG0WTBR8,93,1537925,2021-01-16 01:47:47 UTC,,,
0EMSCCD9878J5XSVZG7ZEWC4MN,93,1537925,2021-01-16 01:47:57 UTC,,,
0EMSCCGAN3H2QNKKQV7X4Q0GEZ,93,1537925,2021-01-16 01:48:07 UTC,,,
0EMSCCKBX6E76E1GVBVFNWAJEN,93,1537925,2021-01-16 01:48:17 UTC,,,
0EMSCCPEEQGTXAPTE02V06RQD0,94,1537925,2021-01-16 01:48:27 UTC,,,
0EMSCCSFV8A51GGD4JGS4A7K6P,93,1537925,2021-01-16 01:48:37 UTC,,,
0EMSCCWH4P7XX5KKKYJ9Z6G108,94,1537925,2021-01-16 01:48:47 UTC,,,
0EMSCCZJNC3J2RW2ATRVJA3H9F,94,1537925,2021-01-16 01:48:57 UTC,,,
0EMSCD2MP9D828TZC2M1HAKVMT,94,1537925,2021-01-16 01:49:07 UTC,,,
0EMSCD5NJ2GWSEDECZSBNB2EJV,93,1537925,2021-01-16 01:49:17 UTC,,,
0EMSCD8QFHAZ0MDRMB4B22W2X2,93,1537925,2021-01-16 01:49:27 UTC,,,
0EMSCDBSZT05ZR9SZRJWQREB2D,93,1537925,2021-01-16 01:49:37 UTC,,,
0EMSCDETQ0M3P2Z4EZR3WCFXF3,93,1537925,2021-01-16 01:49:47 UTC,,,
0EMSCDHWNCX3F3RJYS8SHNWS9W,93,1537925,2021-01-16 01:49:57 UTC,,,
0EMSCDMY8T1Y5PHYS8QNH0DB22,93,1537925,2021-01-16 01:50:07 UTC,,,
0EMSCDQZHNQFAEBWJA5C1PQASG,93,1537925,2021-01-16 01:50:17 UTC,,,
0EMSCDV14Q6Y1B4KQ98PJD9QBW,93,1537925,2021-01-16 01:50:27 UTC,,,
0EMSCDY2Z0037VY7NEQDAK4ASY,94,1537925,2021-01-16 01:50:37 UTC,,,
0EMSCE14A929SXG89RSB1CYY5P,94,1537925,2021-01-16 01:50:47 UTC,,,
0EMSCE479M4P1HM6M4RY9N7ACD,93,1537925,2021-01-16 01:50:57 UTC,,,
0EMSCE78V64KNPXDS5TFEJXQZC,94,1537925,2021-01-16 01:51:07 UTC,,,
0EMSCEAA2SV20DKEYDPEHZMXZ9,94,1537925,2021-01-16 01:51:17 UTC,,,
0EMSCEDBBK0JF7XKAKKHD91NT1,93,1537925,2021-01-16 01:51:27 UTC,,,
0EMSCEGD2DGQ7FZNH47HRN8ZB1,94,1537925,2021-01-16 01:51:37 UTC,,,
0EMSCEKFDSR3DWVB5MHZT1PPJ5,93,1537925,2021-01-16 01:51:47 UTC,,,
0EMSCEPGPPQEBC83EZ6N19C5VX,93,1537925,2021-01-16 01:51:57 UTC,,,
0EMSCESJFF691EQ1QWXZJ4R31W,94,1537925,2021-01-16 01:52:07 UTC,,,
0EMSCEWMB8A6P15W47C1VMZ61X,93,1537925,2021-01-16 01:52:17 UTC,,,
0EMSCEZNCWEP3PSPX5BF6400C8,93,1537925,2021-01-16 01:52:27 UTC,,,
0EMSCF2PS11QADDTSYSS1E7133,93,1537925,2021-01-16 01:52:37 UTC,,,
0EMSCF5S2P5EB1NT0V7XG39352,93,1537925,2021-01-16 01:52:47 UTC,,,
0EMSCF8TSJ37FSKGV8FH3ZQKQM,93,1537925,2021-01-16 01:52:57 UTC,,,
0EMSCFBW6PCENR2G5RY1ZT99NG,93,1537925,2021-01-16 01:53:07 UTC,,,
0EMSCFEXWRXW53E12NA8CHXQ2S,94,1537925,2021-01-16 01:53:17 UTC,,,
0EMSCFHZ0095C21JT2FQ7MDZ62,94,1537925,2021-01-16 01:53:27 UTC,,,
0EMSCFN17H1W4PDA1HFN2PRSKP,94,1537925,2021-01-16 01:53:37 UTC,,,
0EMSCFR38SCC9KM346DMSDJ1N8,93,1537925,2021-01-16 01:53:47 UTC,,,
0EMSCFV5B8RM64V8FFM5VS2N2P,94,1537925,2021-01-16 01:53:57 UTC,,,
0EMSCFY6TT1S5X6V098NPKHJBT,94,1537925,2021-01-16 01:54:07 UTC,,,
0EMSCG17ND3HDKX8V8YY7VH02P,94,1537925,2021-01-16 01:54:17 UTC,,,
0EMSCG49ZK4NTJ54YJPEM0YPGH,94,1537925,2021-01-16 01:54:27 UTC,,,
0EMSCG7BHCMN6EN2W64TG3JC5P,94,1537925,2021-01-16 01:54:37 UTC,,,
0EMSCGACF2TRD7NWYCQMSXR2PB,94,1537925,2021-01-16 01:54:47 UTC,,,
0EMSCGDEVK8Z2X3W5YJT6X4ZKN,93,1537925,2021-01-16 01:54:57 UTC,,,
0EMSCGGFQKF63RMJ35YD62ENJ2,93,1537925,2021-01-16 01:55:07 UTC,,,
0EMSCGKJ2G2KFQT5J43DK5REC3,93,1537925,2021-01-16 01:55:17 UTC,,,
0EMSCGPKJAZ2QRBHADW88JW2B0,93,1537925,2021-01-16 01:55:27 UTC,,,
0EMSCGSNGKGGCY0S7FKEJTAJCA,93,1537925,2021-01-16 01:55:37 UTC,,,
0EMSCGWQ75VFFHF2Q5ZWM93430,93,1537925,2021-01-16 01:55:47 UTC,,,
0EMSCGZR1TAR2TK7XSZ2GZJ2JZ,93,1537925,2021-01-16 01:55:57 UTC,,,
0EMSCH2TCGRSPDQD34KZTPGCNK,93,1537925,2021-01-16 01:56:07 UTC,,,
0EMSCH5WAGFE69ZPCD680534R2,93,1537925,2021-01-16 01:56:17 UTC,,,
0EMSCH8XJXH5524AG0VTTRMHB2,93,1537925,2021-01-16 01:56:27 UTC,,,
0EMSCHBYVBZTJ1FTK23WNYV93N,93,1537925,2021-01-16 01:56:37 UTC,,,
0EMSCHF14NV2XRP8RSJCJ42H4P,93,1537925,2021-01-16 01:56:47 UTC,,,
0EMSCHJ2N8S2CX7FGHKM2EWEQJ,93,1537925,2021-01-16 01:56:57 UTC,,,
0EMSCHN4ATTZKMG7C0ZJ5HT9WX,94,1537925,2021-01-16 01:57:07 UTC,,,
0EMSCHR5EQAA6GB72CRFWAJWN4,93,1537925,2021-01-16 01:57:17 UTC,,,
0EMSCHV78V664J6HEQ0H5XWGYD,93,1537925,2021-01-16 01:57:27 UTC,,,
0EMSCHY8SE459DD9P66Q7DG7SC,93,1537925,2021-01-16 01:57:37 UTC,,,
0EMSCJ19Z3DYCPZTHKZB2Q5GCT,93,1537925,2021-01-16 01:57:47 UTC,,,
0EMSCJ4CKXYCZFHX855BA20AHH,93,1537925,2021-01-16 01:57:57 UTC,,,
0EMSCJ7E7XNS7SBPGKDM80ZCZR,94,1537925,2021-01-16 01:58:07 UTC,,,
0EMSCJAF6HC8VHVF5K77EQJGB4,94,1537925,2021-01-16 01:58:17 UTC,,,
0EMSCJDHXHHQS50S5J14V95G07,94,1537925,2021-01-16 01:58:27 UTC,,,
0EMSCJGKH7W52B8JXM5QP28M1Z,94,1537925,2021-01-16 01:58:37 UTC,,,
0EMSCJKMSAKHA16ZZZX96S6THZ,94,1537925,2021-01-16 01:58:47 UTC,,,
0EMSCJPNWT5SCGXCF0TAEBYPKB,94,1537925,2021-01-16 01:58:57 UTC,,,
0EMSCJSRAJP8NKSH6YFHG14RT9,94,1537925,2021-01-16 01:59:07 UTC,,,
0EMSCJWSSTP7D18ACFC8D24M8A,94,1537925,2021-01-16 01:59:17 UTC,,,
0EMSCJZTRQS8Z4RCCHE7ENZ6G6,94,1537925,2021-01-16 01:59:27 UTC,,,
0EMSCK2X3HYSS0M4SF3XRZ64S0,93,1537925,2021-01-16 01:59:37 UTC,,,
0EMSCK5YCQPJ32NMVZSJHHS8P9,94,1537925,2021-01-16 01:59:47 UTC,,,
0EMSCK907X48FFKX05W2BXRC2C,94,1537925,2021-01-16 01:59:57 UTC,,,
0EMSCKC1M9X10RM01QQW3HCMZY,94,1537925,2021-01-16 02:00:07 UTC,,,
0EMSCKF3VES4Q60QSAMZCD5QQV,93,1537925,2021-01-16 02:00:17 UTC,,,
0EMSCKJ5EN4A51BMZCFT45YPD9,93,1537925,2021-01-16 02:00:27 UTC,,,
0EMSCKN6CBZ17109ZZYAFBCPR6,93,1537925,2021-01-16 02:00:37 UTC,,,
0EMSCKR80BF29QH2D5N2JS4PCZ,93,1537925,2021-01-16 02:00:47 UTC,,,
0EMSCKVAM0HNSJKM7GVY66KRSG,93,1537925,2021-01-16 02:00:57 UTC,,,
0EMSCKYC40WQ0GYA4JQAXQVZD4,93,1537925,2021-01-16 02:01:07 UTC,,,
0EMSCM1CZKB7GN4R6WBSFMRCDY,93,1537925,2021-01-16 02:01:17 UTC,,,
0EMSCM4FASHT2WVED4YFZX6E4H,93,1537925,2021-01-16 02:01:27 UTC,,,
0EMSCM7GAW0X8FQFRMHEXQ18PP,93,1537925,2021-01-16 02:01:37 UTC,,,
0EMSCMAHW9MX68VBGD178CZDXF,94,1537925,2021-01-16 02:01:47 UTC,,,
0EMSCMDM6JMFNSMCK2792ZT7TV,93,1537925,2021-01-16 02:01:57 UTC,,,
0EMSCMGPEW3Z302C03PY79TA2J,93,1537925,2021-01-16 02:02:07 UTC,,,
0EMSCMKR6B9CZ5BDCYXFTRY9CJ,93,1537925,2021-01-16 02:02:17 UTC,,,
0EMSCMPRJN72Y0045BE83AJF2Y,93,1537925,2021-01-16 02:02:27 UTC,,,
0EMSCMSV6H38CDXPKZ2HNBH6GZ,93,1537925,2021-01-16 02:02:37 UTC,,,
0EMSCMWWFZWZKC8VR58TC1V1FD,93,1537925,2021-01-16 02:02:47 UTC,,,
0EMSCMZXBKRBXBCRZV2024FP0S,93,1537925,2021-01-16 02:02:57 UTC,,,
0EMSCN2Z6JY65H7BDBNFM484H9,93,1537925,2021-01-16 02:03:07 UTC,,,
0EMSCN61Q63BASGV5CDAJH67TA,93,1537925,2021-01-16 02:03:17 UTC,,,
0EMSCN92VSKWY3RBB9P5521CAV,94,1537925,2021-01-16 02:03:27 UTC,,,
0EMSCNC4W7EEPJZ1X3343Y4P3N,94,1537925,2021-01-16 02:03:37 UTC,,,
0EMSCNF6596A0M4PKWWSPSR4R1,94,1537925,2021-01-16 02:03:47 UTC,,,
0EMSCNJ7XME3ZFAFFT6M8TB7S9,94,1537925,2021-01-16 02:03:57 UTC,,,
0EMSCNN9XSPAW9D2QZKGJK54TF,94,1537925,2021-01-16 02:04:07 UTC,,,
0EMSCNRAZ41WN4W3ABYNHWETVY,94,1537925,2021-01-16 02:04:17 UTC,,,
0EMSCNVDF80VT98D3EBWXW6YN7,94,1537925,2021-01-16 02:04:27 UTC,,,
0EMSCNYF9XT5WDAN15VPT47D0M,94,1537925,2021-01-16 02:04:37 UTC,,,
0EMSCP1G4GWDS5Z8RXT0QCK6RT,94,1537925,2021-01-16 02:04:47 UTC,,,
0EMSCP4HNFJ8XRBVAE3FYRMTDA,94,1537925,2021-01-16 02:04:57 UTC,,,
0EMSCP7KKDJWYTF0HCRX5R4QRY,94,1537925,2021-01-16 02:05:07 UTC,,,
0EMSCPAMK3SC0K4TKYWFEV6WA4,93,1537925,2021-01-16 02:05:17 UTC,,,
0EMSCPDQDXD8XB27K4DVKSHAQ3,93,1537925,2021-01-16 02:05:27 UTC,,,
0EMSCPGRWBPM0KQ95DN5AZH010,93,1537925,2021-01-16 02:05:37 UTC,,,
0EMSCPKTMTBRET4BKNAP2VRQX1,93,1537925,2021-01-16 02:05:47 UTC,,,
0EMSCPPW6EMSC5JDMWA807E3KK,93,1537925,2021-01-16 02:05:57 UTC,,,
0EMSCPSX8EV4YSG76EGWERGFAF,93,1537925,2021-01-16 02:06:07 UTC,,,
0EMSCPWYDV0QZZJG0M91YP6GXV,93,1537925,2021-01-16 02:06:17 UTC,,,
0EMSCQ00KP83AX1R1C4HGRM2EX,94,1537925,2021-01-16 02:06:27 UTC,,,
0EMSCQ32R0PQTWANBWY61DTE2Q,93,1537925,2021-01-16 02:06:37 UTC,,,
0EMSCQ640990BCCBQWW3EFH5BD,93,1537925,2021-01-16 02:06:47 UTC,,,
0EMSCQ96EHT8J3ZWBMBN10KAV0,94,1537925,2021-01-16 02:06:57 UTC,,,
0EMSCQC6TQPV995FFTGXVYPF6C,94,1537925,2021-01-16 02:07:07 UTC,,,
0EMSCQF8QH2CVPHK54N4124VAC,94,1537925,2021-01-16 02:07:17 UTC,,,
0EMSCQJAKV8BQMPAD03JB1EGNV,94,1537925,2021-01-16 02:07:27 UTC,,,
0EMSCQND4Q6B7A1X7ECQ81J4PZ,94,1537925,2021-01-16 02:07:37 UTC,,,
0EMSCQRETGN8EC3MPCJ0E05XMQ,94,1537925,2021-01-16 02:07:47 UTC,,,
0EMSCQVG463Z03FRP714NJY34B,94,1537925,2021-01-16 02:07:57 UTC,,,
0EMSCQYJ23P5N5FEWP971Q837R,93,1537925,2021-01-16 02:08:07 UTC,,,
0EMSCR1JGCDYHRHATD67ZPKA0Y,93,1537925,2021-01-16 02:08:17 UTC,,,
0EMSCR4MQ5P9R6DWD4ZSC1TWCN,93,1537925,2021-01-16 02:08:27 UTC,,,
0EMSCR7PC4D6SXW24R79GZAFZ8,93,1537925,2021-01-16 02:08:37 UTC,,,
0EMSCRARM466ZBEZWKX6FSWQK9,93,1537925,2021-01-16 02:08:47 UTC,,,
0EMSCRDTAFGSYYNM8S1NX4NMQT,93,1537925,2021-01-16 02:08:57 UTC,,,
0EMSCRGV7Z1M0TK81NACVF6PGK,93,1537925,2021-01-16 02:09:07 UTC,,,
0EMSCRKWKKQHD6P7GRNDTV1GMR,94,1537925,2021-01-16 02:09:17 UTC,,,
0EMSCRPY707ZFH0G899R25W4MD,93,1537925,2021-01-16 02:09:27 UTC,,,
0EMSCRT0411E0CEXDW37CWXXQC,93,1537925,2021-01-16 02:09:37 UTC,,,
0EMSCRX2161RDGBH6K71HQKJN4,93,1537925,2021-01-16 02:09:47 UTC,,,
0EMSCS03S9NCB8R6NSM5BM3Q2B,93,1537925,2021-01-16 02:09:57 UTC,,,
0EMSCS34SPGZDNGHRA5SEWJHWT,93,1537925,2021-01-16 02:10:07 UTC,,,
0EMSCS677FT9G4Z61YW97XGQM3,93,1537925,2021-01-16 02:10:17 UTC,,,
0EMSCS98WN1YRWSZ4H3Y09NQCK,93,1537925,2021-01-16 02:10:27 UTC,,,
0EMSCSC9N36AQ4BZWCJ72THJNS,94,1537925,2021-01-16 02:10:37 UTC,,,
0EMSCSFC2V8D3QJCD5P8F1B7X5,94,1537925,2021-01-16 02:10:47 UTC,,,
0EMSCSJDCECT5D4Z98XR8RGZBV,94,1537925,2021-01-16 02:10:57 UTC,,,
0EMSCSNG1AXDTXK1MHV0H81QTA,93,1537925,2021-01-16 02:11:07 UTC,,,
0EMSCSRHTZ91XJHR3PNHA8RMS1,93,1537925,2021-01-16 02:11:17 UTC,,,
0EMSCSVJ32KH1XZS0CCN1N2NS0,94,1537925,2021-01-16 02:11:27 UTC,,,
0EMSCSYKMTPY0WWBQ09RSFFH3K,94,1537925,2021-01-16 02:11:37 UTC,,,
0EMSCT1NMN0HFQBB3HZJYQE2Z9,94,1537925,2021-01-16 02:11:47 UTC,,,
0EMSCT4Q3803NANNKM2BNEHW90,93,1537925,2021-01-16 02:11:57 UTC,,,
0EMSCT7SB6F77XNTGZ705TVJJ0,94,1537925,2021-01-16 02:12:07 UTC,,,
0EMSCTATFVDANA5Z7W59DKTRAF,93,1537925,2021-01-16 02:12:17 UTC,,,
0EMSCTDVW71408210SE3NGY8EW,94,1537925,2021-01-16 02:12:27 UTC,,,
0EMSCTGXV5E6EVK97A9MFFWYM7,94,1537925,2021-01-16 02:12:37 UTC,,,
0EMSCTKZSP7RP286N7JHVWGKTG,94,1537925,2021-01-16 02:12:47 UTC,,,
0EMSCTQ205DJQ8QTQENQ5N8JCD,93,1537925,2021-01-16 02:12:57 UTC,,,
0EMSCTT2P2MQ117GW371HE6C2W,94,1537925,2021-01-16 02:13:07 UTC,,,
0EMSCTX4RT39YM3DTQJEP2PRRP,94,1537925,2021-01-16 02:13:17 UTC,,,
0EMSCV074CNJHCP2PT8BNH6FMC,94,1537925,2021-01-16 02:13:27 UTC,,,
0EMSCV37GHWHVVRHZZ3MBQ0EBQ,94,1537925,2021-01-16 02:13:37 UTC,,,
0EMSCV696RTWXMNVMXFHJ7XK1Y,94,1537925,2021-01-16 02:13:47 UTC,,,
0EMSCV9BKSEEBDMR3D1QM7VEA9,94,1537925,2021-01-16 02:13:57 UTC,,,
0EMSCVCDGW3Q9H5QRRHA80SYCV,94,1537925,2021-01-16 02:14:07 UTC,,,
0EMSCVFET8P4MMGJE27SPW1FQ6,93,1537925,2021-01-16 02:14:17 UTC,,,
0EMSCVJFM6GDVMYKAW6T6AP6YK,93,1537925,2021-01-16 02:14:27 UTC,,,
0EMSCVNJ94NM6JEB3P60J57KEJ,93,1537925,2021-01-16 02:14:37 UTC,,,
0EMSCVRKTSMH26KRD52CG83F04,93,1537925,2021-01-16 02:14:47 UTC,,,
0EMSCVVMV3QMPKWMQ0EM2T58P1,94,1537925,2021-01-16 02:14:57 UTC,,,
0EMSCVYQG6HDG724GRX6Q304JN,93,1537925,2021-01-16 02:15:07 UTC,,,
0EMSCW1RT3SBCDEQQR7QFNA6WX,93,1537925,2021-01-16 02:15:17 UTC,,,
0EMSCW4SZW173410XX44X026HM,93,1537925,2021-01-16 02:15:27 UTC,,,
0EMSCW7W824NAPWAGDVZ9TD8X2,93,1537925,2021-01-16 02:15:37 UTC,,,
0EMSCWAXWW2ZPA179W47EE82CV,93,1537925,2021-01-16 02:15:47 UTC,,,
0EMSCWDZKA4TKBR4D6ZKED7SRZ,93,1537925,2021-01-16 02:15:57 UTC,,,
0EMSCWH17ERSGRTFN467Y4S72Q,93,1537925,2021-01-16 02:16:07 UTC,,,
0EMSCWM2C9889NCVWPKBRX4D67,93,1537925,2021-01-16 02:16:17 UTC,,,
0EMSCWQ51AHDN4D682433BSH4Y,93,1537925,2021-01-16 02:16:27 UTC,,,
0EMSCWT6T4B09W8N5ED0DFKV88,93,1537925,2021-01-16 02:16:37 UTC,,,
0EMSCWX7RJVPGSAJ26XTVMXAV0,93,1537925,2021-01-16 02:16:47 UTC,,,
0EMSCX09EZVXFATKEJ9WT42ZA5,94,1537925,2021-01-16 02:16:57 UTC,,,
0EMSCX3B0DH3EC8BX71MW2NZ37,93,1537925,2021-01-16 02:17:07 UTC,,,
0EMSCX6BY3S7CA1BVPC5D7YGKK,94,1537925,2021-01-16 02:17:17 UTC,,,
0EMSCX9E7GJ84ZQ9Q16NQX8R5C,93,1537925,2021-01-16 02:17:27 UTC,,,
0EMSCXCGBE9TJSDNZEVBVF3YBK,93,1537925,2021-01-16 02:17:37 UTC,,,
0EMSCXFHTHXMNTA5P7JE6FPJWJ,93,1537925,2021-01-16 02:17:47 UTC,,,
0EMSCXJK7N9C2KB02X7VNEBS1F,94,1537925,2021-01-16 02:17:57 UTC,,,
0EMSCXNMCHH3R3P88G37JSGV83,94,1537925,2021-01-16 02:18:07 UTC,,,
0EMSCXRP4J1DR37K47KH09D486,94,1537925,2021-01-16 02:18:17 UTC,,,
0EMSCXVRQ8KKCDRHAQ1TKD6YGY,94,1537925,2021-01-16 02:18:27 UTC,,,
0EMSCXYT8EBRA66SHEQRZ1FZ7B,94,1537925,2021-01-16 02:18:37 UTC,,,
0EMSCY1VTJRXJQC9Q9DMGF8PCH,94,1537925,2021-01-16 02:18:47 UTC,,,
0EMSCY4WSGFWEVSJM4ZMF0X2AQ,94,1537925,2021-01-16 02:18:57 UTC,,,
0EMSCY7XYWPHZ7JTZ2WN2VVDC3,94,1537925,2021-01-16 02:19:07 UTC,,,
0EMSCYAZYG24S4EJJ1SPVJCE50,94,1537925,2021-01-16 02:19:17 UTC,,,
0EMSCYE1W7G4RTQJB7RK8X1GNY,94,1537925,2021-01-16 02:19:27 UTC,,,
0EMSCYH3T72RDCS9XE454AFY7Y,94,1537925,2021-01-16 02:19:37 UTC,,,
0EMSCYM4ZXAYCZKDRV5ACHW8DY,94,1537925,2021-01-16 02:19:47 UTC,,,
0EMSCYQ7B2Y8X27TYKCDFYYSP7,94,1537925,2021-01-16 02:19:57 UTC,,,
0EMSCYT802B7RJ70N09YTVAEK1,94,1537925,2021-01-16 02:20:07 UTC,,,
0EMSCYXACXTW8M44MQYCP7Q5HY,93,1537925,2021-01-16 02:20:17 UTC,,,
0EMSCZ0CPKD6Q7VD1C8AQ992QN,94,1537925,2021-01-16 02:20:27 UTC,,,
0EMSCZ3DV9YGQP8HAA5YF7RRSD,93,1537925,2021-01-16 02:20:37 UTC,,,
0EMSCZ6EWW2AN53KDQ8SKB643K,93,1537925,2021-01-16 02:20:47 UTC,,,
0EMSCZ9GBRZ290X1ZTFGRQ3ZH7,93,1537925,2021-01-16 02:20:57 UTC,,,
0EMSCZCJAMH39812JT2WCHMCBZ,93,1537925,2021-01-16 02:21:07 UTC,,,
0EMSCZFMCMBKVYA94198WP177T,93,1537925,2021-01-16 02:21:17 UTC,,,
0EMSCZJNFYYAM86DBYY5SQ3BKN,93,1537925,2021-01-16 02:21:27 UTC,,,
0EMSCZNR61MBS06YSYFR4E3F7J,93,1537925,2021-01-16 02:21:37 UTC,,,
0EMSCZRS7V4F8YK42WZ5WZ3HDC,93,1537925,2021-01-16 02:21:47 UTC,,,
0EMSCZVTEHREXVCVFWS93YMFKG,93,1537925,2021-01-16 02:21:57 UTC,,,
0EMSCZYWJV2608EWSTNQAP98Z8,93,1537925,2021-01-16 02:22:07 UTC,,,
0EMSD01XH0QJRZ9537YPDTEAVS,93,1537925,2021-01-16 02:22:17 UTC,,,
0EMSD04ZBZ487WDAVMA53A8F2W,93,1537925,2021-01-16 02:22:27 UTC,,,
0EMSD081BT1BKZEF2CQR6GHMAN,93,1537925,2021-01-16 02:22:37 UTC,,,
0EMSD0B43MN7NEHDRA4QCAR8RA,93,1537925,2021-01-16 02:22:47 UTC,,,
