id,value,feed_id,created_at,lat,lon,ele
0EMSS6SDM13119RQ5FFMQ0ZWDY,94,1537925,2021-01-16 13:45:08 UTC,,,
0EMSS6WEKA0KER3KM6EDZA206E,94,1537925,2021-01-16 13:45:18 UTC,,,
0EMSS6ZH2HGJ9YWNGY4WNTZJEK,94,1537925,2021-01-16 13:45:28 UTC,,,
0EMSS72J03AKSD3AHACCK0GHMP,94,1537925,2021-01-16 13:45:38 UTC,,,
0EMSS75KBMZECJQW9BTH00ATY7,94,1537925,2021-01-16 13:45:48 UTC,,,
0EMSS78NQA3V64VW2Y2CHSTK81,94,1537925,2021-01-16 13:45:58 UTC,,,
0EMSS7BQ7CD5ZBBF9CVW1CNEQH,94,1537925,2021-01-16 13:46:08 UTC,,,
0EMSS7ESMV15WHK53MNVQ8BNM3,94,1537925,2021-01-16 13:46:18 UTC,,,
0EMSS7HV4ECTR41H2PB80YXRFA,94,1537925,2021-01-16 13:46:28 UTC,,,
0EMSS7MW3QNT5B8SXW12K5VPDB,94,1537925,2021-01-16 13:46:38 UTC,,,
0EMSS7QY0C1JTET2K9JAGNAB1R,94,1537925,2021-01-16 13:46:48 UTC,,,
0EMSS7TYX94TJJF5R4TZMM8T27,94,1537925,2021-01-16 13:46:58 UTC,,,
0EMSS7Y1R0XTM90A50RQMHHE8R,94,1537925,2021-01-16 13:47:08 UTC,,,
0EMSS812YGBTH600NPNCZ3YSVW,94,1537925,2021-01-16 13:47:18 UTC,,,
0EMSS8459T3VT9BYDRP6NB1WP8,94,1537925,2021-01-16 13:47:28 UTC,,,
0EMSS876XXYM0A5GVN08F73YD7,94,1537925,2021-01-16 13:47:38 UTC,,,
0EMSS8A7PHSQEF3EPY3BCNS27A,94,1537925,2021-01-16 13:47:48 UTC,,,
0EMSS8DA2SKJZE7775Y3BAXNBS,94,1537925,2021-01-16 13:47:58 UTC,,,
0EMSS8GBKH7R3WEYT2SY56JEXT,94,1537925,2021-01-16 13:48:08 UTC,,,
0EMSS8KCJ4NRHKAWGN812807NA,94,1537925,2021-01-16 13:48:18 UTC,,,
0EMSS8PEVCEA6A7420Z2SM8P5V,94,1537925,2021-01-16 13:48:28 UTC,,,
0EMSS8SGF9ZNW2QC4VP79VC3K5,94,1537925,2021-01-16 13:48:38 UTC,,,
0EMSS8WHFB2CWRHSZPFKMG9QDX,94,1537925,2021-01-16 13:48:48 UTC,,,
0EMSS8ZM6N3N1MAJ6YTKZZ5V4N,94,1537925,2021-01-16 13:48:58 UTC,,,
0EMSS92MG9AAA1B125AASXFMEW,93,1537925,2021-01-16 13:49:08 UTC,,,
0EMSS95PDSJAH39CPEW2WX9DFH,93,1537925,2021-01-16 13:49:18 UTC,,,
0EMSS98RBP2X5BKNDCMSZ463RC,93,1537925,2021-01-16 13:49:28 UTC,,,
0EMSS9BT1BEBTNPK13DMERE9S7,93,1537925,2021-01-16 13:49:38 UTC,,,
0EMSS9EVRP9GBVYJV2SB250VJS,93,1537925,2021-01-16 13:49:48 UTC,,,
0EMSS9HXNXM5HWVYFTYRVWRJ9N,93,1537925,2021-01-16 13:49:58 UTC,,,
0EMSS9MYXEG71P4Y1HA0HNRMQM,93,1537925,2021-01-16 13:50:08 UTC,,,
0EMSS9R18FX695NWY3P9FF87YB,93,1537925,2021-01-16 13:50:18 UTC,,,
0EMSS9V22XW63A48MBE1MFNYGW,93,1537925,2021-01-16 13:50:28 UTC,,,
0EMSS9Y3YJ5ZSHXEGGSNRBAZXF,93,1537925,2021-01-16 13:50:38 UTC,,,
0EMSSA15G5CR7N6S3G1K93MS7V,93,1537925,2021-01-16 13:50:48 UTC,,,
0EMSSA47YWRTEG9XFQSYSNHMS5,93,1537925,2021-01-16 13:50:58 UTC,,,
0EMSSA79GFREKVFRMQH9FWVM33,93,1537925,2021-01-16 13:51:08 UTC,,,
0EMSSAAAAGEGZD65P9Y104QZMG,93,1537925,2021-01-16 13:51:18 UTC,,,
0EMSSADCH5R17MP643439B8B99,93,1537925,2021-01-16 13:51:28 UTC,,,
0EMSSAGDQ4A44Y7B1JC9F2WEEW,93,1537925,2021-01-16 13:51:38 UTC,,,
0EMSSAKF1W1JYVY6D4ZV890T83,93,1537925,2021-01-16 13:51:48 UTC,,,
0EMSSAPH0789FX1Z4519NZ2WHT,93,1537925,2021-01-16 13:51:58 UTC,,,
0EMSSASK02XT5PQAZKKHHHPJZH,93,1537925,2021-01-16 13:52:08 UTC,,,
0EMSSAWMF4JYSZ8TGSTAWJNPC4,93,1537925,2021-01-16 13:52:18 UTC,,,
0EMSSAZPADCR7SM3S2GCKFEP55,93,1537925,2021-01-16 13:52:28 UTC,,,
0EMSSB2QTY3K5HQHG1BQCDFREQ,93,1537925,2021-01-16 13:52:38 UTC,,,
0EMSSB5T2ZC8Y0DMGKN77KCAXQ,93,1537925,2021-01-16 13:52:48 UTC,,,
0EMSSB8TNTDE3SEY6ZW5VN3AW4,93,1537925,2021-01-16 13:52:58 UTC,,,
0EMSSBBWG2P45FJRAYC36XP9ZP,93,1537925,2021-01-16 13:53:08 UTC,,,
0EMSSBEZ20N0D9F1M8VJ35YR9T,93,1537925,2021-01-16 13:53:18 UTC,,,
0EMSSBJ0N0PBCQQS7D5NDGPYST,94,1537925,2021-01-16 13:53:28 UTC,,,
0EMSSBN1KA5JFBMGXMVT4575CY,94,1537925,2021-01-16 13:53:38 UTC,,,
0EMSSBR3SZSAKH225MDEN0TPXC,94,1537925,2021-01-16 13:53:48 UTC,,,
0EMSSBV59PX5KTGZH598K4HMFB,94,1537925,2021-01-16 13:53:58 UTC,,,
0EMSSBY6C8MVSFN2TYQA57Q42X,94,1537925,2021-01-16 13:54:08 UTC,,,
0EMSSC18KX8BJXNR36E9DY0X5X,94,1537925,2021-01-16 13:54:18 UTC,,,
0EMSSC4AGXTWB5BJ65B0VW7PM3,94,1537925,2021-01-16 13:54:28 UTC,,,
0EMSSC7C32F87KN6NZFE9DPFDR,94,1537925,2021-01-16 13:54:38 UTC,,,
0EMSSCADS4GPXKKBTB2RHJMND6,94,1537925,2021-01-16 13:54:48 UTC,,,
0EMSSCDFCJ1YPQYFH843Q7FBHA,94,1537925,2021-01-16 13:54:58 UTC,,,
0EMSSCGGTH97VK8N1R11GHSP0Z,101,1537925,2021-01-16 13:55:08 UTC,,,
0EMSSCKJK1BZ0TQHR0MEEJPHPN,98,1537925,2021-01-16 13:55:18 UTC,,,
0EMSSCPMNWD07SRJMJV47TR36D,97,1537925,2021-01-16 13:55:28 UTC,,,
0EMSSCSNR8Q29SZC6D5201WJQF,96,1537925,2021-01-16 13:55:38 UTC,,,
0EMSSCWR0RYXM269C0DZFQY59Y,95,1537925,2021-01-16 13:55:48 UTC,,,
0EMSSCZSNDPPKQA3T9276MQADM,94,1537925,2021-01-16 13:55:58 UTC,,,
0EMSSD2TGY5ZCEWTMM0C4F6WFN,93,1537925,2021-01-16 13:56:08 UTC,,,
0EMSSD5WSW6ECF9J33YX59DV3S,93,1537925,2021-01-16 13:56:18 UTC,,,
0EMSSD8YEQR5W0YGMF6G1ZVY0K,92,1537925,2021-01-16 13:56:28 UTC,,,
0EMSSDBZFHAHCDCXBJW87RT8XC,91,1537925,2021-01-16 13:56:38 UTC,,,
0EMSSDF1MMNKKNRD5GK2043T3B,91,1537925,2021-01-16 13:56:48 UTC,,,
0EMSSDJ36XXEW8QKG1W68NFHWA,91,1537925,2021-01-16 13:56:58 UTC,,,
0EMSSDN45F8ZB6S6CY49ZPQ8BE,92,1537925,2021-01-16 13:57:08 UTC,,,
0EMSSDR6E40QEMVPVNG9YWQS5N,92,1537925,2021-01-16 13:57:18 UTC,,,
0EMSSDV81J87RE8266K2VXVY7V,93,1537925,2021-01-16 13:57:28 UTC,,,
0EMSSDYA1BKXV9KQGN0GFP75RQ,93,1537925,2021-01-16 13:57:38 UTC,,,
0EMSSE1AVP9YZB9PKVSYZXTCJP,105,1537925,2021-01-16 13:57:48 UTC,,,
0EMSSE4DNCXWT2X9DPC0H2QC5T,106,1537925,2021-01-16 13:57:58 UTC,,,
0EMSSE7ERSNGZT4BG3MD6MBC6R,102,1537925,2021-01-16 13:58:08 UTC,,,
0EMSSEAFSVW5E93S644QKFC1VG,101,1537925,2021-01-16 13:58:18 UTC,,,
0EMSSEDJ1BS28Y5JGSESP7K32B,100,1537925,2021-01-16 13:58:28 UTC,,,
0EMSSEGM5YSZC29CMX70JFCB89,98,1537925,2021-01-16 13:58:38 UTC,,,
0EMSSEKNGKXSD8QNRV2EF801D5,96,1537925,2021-01-16 13:58:48 UTC,,,
0EMSSEPPXT93S7NT0SQFE0GMM5,95,1537925,2021-01-16 13:58:58 UTC,,,
0EMSSESRQSHS283ZK2D1M0HKDY,93,1537925,2021-01-16 13:59:08 UTC,,,
0EMSSEWTWAXX0WAZ68AWDKGKBF,93,1537925,2021-01-16 13:59:18 UTC,,,
0EMSSEZW6JHVAF8VDFM5FS1A19,92,1537925,2021-01-16 13:59:28 UTC,,,
0EMSSF2X7CMKVYCEFPZ1FWF3DQ,93,1537925,2021-01-16 13:59:38 UTC,,,
0EMSSF5ZH2RSWFR0PKYMK1ZPZ9,93,1537925,2021-01-16 13:59:48 UTC,,,
0EMSSF915XTR3QKAA6RYZFFDGS,94,1537925,2021-01-16 13:59:58 UTC,,,
0EMSSFC242T849MFYKXN7F590J,94,1537925,2021-01-16 14:00:08 UTC,,,
0EMSSFF4CSPVVT2TJAWT60JZ4P,94,1537925,2021-01-16 14:00:18 UTC,,,
0EMSSFJ60PGVMYJ6H1PR5RGZQS,95,1537925,2021-01-16 14:00:28 UTC,,,
0EMSSFN8DP4VYPSCVT5K8NCPTF,95,1537925,2021-01-16 14:00:38 UTC,,,
0EMSSFR9TDYF3FQDQCHQEB4VQ8,96,1537925,2021-01-16 14:00:48 UTC,,,
0EMSSFVBGSCMGN3CZMDFR2Z9PA,96,1537925,2021-01-16 14:00:58 UTC,,,
0EMSSFYCKV1ZRQ3SXYR6XBZVA7,96,1537925,2021-01-16 14:01:08 UTC,,,
0EMSSG1DGSDVKEB952AW33C2BN,97,1537925,2021-01-16 14:01:18 UTC,,,
0EMSSG4FZ7GPA961Y6GWP6PFMC,97,1537925,2021-01-16 14:01:28 UTC,,,
0EMSSG7HCWN5Z2AMTCTJPNJ109,97,1537925,2021-01-16 14:01:38 UTC,,,
0EMSSGAKQRRFKG5ZCTNZ40DHRF,97,1537925,2021-01-16 14:01:48 UTC,,,
0EMSSGDNE0EM0B6032KQ6ZPAZR,98,1537925,2021-01-16 14:01:58 UTC,,,
0EMSSGGP8PHASZ5B3ENTTEZ9RX,98,1537925,2021-01-16 14:02:08 UTC,,,
0EMSSGKRMJP32YPYW2QEQW3MT1,98,1537925,2021-01-16 14:02:18 UTC,,,
0EMSSGPS66XPFMS3Y355MP3204,98,1537925,2021-01-16 14:02:28 UTC,,,
0EMSSGSVCPSHQMKDB2W4MNCRC7,98,1537925,2021-01-16 14:02:38 UTC,,,
0EMSSGWX027PR09JRN5EEKBAXN,98,1537925,2021-01-16 14:02:48 UTC,,,
0EMSSGZYTSJ7CCTFMM5W703F4B,99,1537925,2021-01-16 14:02:58 UTC,,,
0EMSSH2ZVP1V51TCKYR22K638Y,99,1537925,2021-01-16 14:03:08 UTC,,,
0EMSSH629RJKJQF0H47590VWGN,99,1537925,2021-01-16 14:03:18 UTC,,,
0EMSSH93RW7HG2CX6TGPWDXC2M,99,1537925,2021-01-16 14:03:28 UTC,,,
0EMSSHC4Q8E0JF6SNNZRMWRJCS,99,1537925,2021-01-16 14:03:38 UTC,,,
0EMSSHF6ZTNND2DRPSZPZNFPN2,99,1537925,2021-01-16 14:03:48 UTC,,,
0EMSSHJ8M2JZ91ASWF1G23A8DK,99,1537925,2021-01-16 14:03:58 UTC,,,
0EMSSHNAXVCTD3820Q8B9D6ENQ,99,1537925,2021-01-16 14:04:08 UTC,,,
0EMSSHRCEFWVTHWN3Y6X9SD30R,99,1537925,2021-01-16 14:04:18 UTC,,,
0EMSSHVE4R30584QTRAKNVA9AB,99,1537925,2021-01-16 14:04:28 UTC,,,
0EMSSHYF88JC75161CSP23PSWP,99,1537925,2021-01-16 14:04:38 UTC,,,
0EMSSJ1HQ1P8KEDDSFTNQBAQK4,99,1537925,2021-01-16 14:04:48 UTC,,,
0EMSSJ4K5J74Q085EBY9YMRPPT,99,1537925,2021-01-16 14:04:58 UTC,,,
0EMSSJ7M4PEV35NH6EYD1M1YF0,99,1537925,2021-01-16 14:05:08 UTC,,,
0EMSSJAPH9YGYD0MYMS3FGC36M,99,1537925,2021-01-16 14:05:18 UTC,,,
0EMSSJDQYV8DVYQ1EFYWBVYW3G,99,1537925,2021-01-16 14:05:28 UTC,,,
0EMSSJGS4PMBDEGWT3BBH54M6V,99,1537925,2021-01-16 14:05:38 UTC,,,
0EMSSJKVBEAWK0Y091BJKYXBBG,99,1537925,2021-01-16 14:05:48 UTC,,,
0EMSSJPWSV46NS2ERZF6GW675T,99,1537925,2021-01-16 14:05:58 UTC,,,
0EMSSJSYN7MXBDXMQRNH64AWQC,99,1537925,2021-01-16 14:06:08 UTC,,,
0EMSSJX01NAC6D2TZ8RTJFD8ZX,99,1537925,2021-01-16 14:06:18 UTC,,,
0EMSSK021PAGCSZP9EF8XSCC4X,99,1537925,2021-01-16 14:06:28 UTC,,,
0EMSSK33NCPNTPDNA9Y5SPPM0W,99,1537925,2021-01-16 14:06:38 UTC,,,
0EMSSK64K86GXF4AGB1D1MCRCN,99,1537925,2021-01-16 14:06:48 UTC,,,
0EMSSK96XC95Y0SRB9A9TF2V5G,98,1537925,2021-01-16 14:06:58 UTC,,,
0EMSSKC8QG8TG6PNAXRQXF7BXN,98,1537925,2021-01-16 14:07:08 UTC,,,
0EMSSKFA94MAJMSH5H0G3P2434,98,1537925,2021-01-16 14:07:18 UTC,,,
0EMSSKJB7B2ZGYJ3S45S16N8SD,98,1537925,2021-01-16 14:07:28 UTC,,,
0EMSSKNDEBTS47VSETGBFRGMKP,98,1537925,2021-01-16 14:07:38 UTC,,,
0EMSSKREE9NT7ET14A3C4B1DVN,98,1537925,2021-01-16 14:07:48 UTC,,,
0EMSSKVG327T5NF53TKZM2KMCR,98,1537925,2021-01-16 14:07:58 UTC,,,
0EMSSKYK11B0QDBYZT9G46P6EF,98,1537925,2021-01-16 14:08:08 UTC,,,
0EMSSM1M1EKQWF55C80KV8EAPM,98,1537925,2021-01-16 14:08:18 UTC,,,
0EMSSM4N1Y425VMR58V02MBAY5,98,1537925,2021-01-16 14:08:28 UTC,,,
0EMSSM7Q5VB7246J70184QQNJ1,98,1537925,2021-01-16 14:08:38 UTC,,,
0EMSSMARZNS8D7A6MSD28JV0FP,98,1537925,2021-01-16 14:08:48 UTC,,,
0EMSSMDTA6426BV1ACD64344PQ,97,1537925,2021-01-16 14:08:58 UTC,,,
0EMSSMGVJ1GE840EX4FVW3H7QB,97,1537925,2021-01-16 14:09:08 UTC,,,
0EMSSMKY06G647QT7ZQGCZ3YAS,97,1537925,2021-01-16 14:09:18 UTC,,,
0EMSSMPYWBPB95FFHP4DF335W2,97,1537925,2021-01-16 14:09:28 UTC,,,
0EMSSMT0FVFZHQG52AWTRVANEA,97,1537925,2021-01-16 14:09:38 UTC,,,
0EMSSMX2CSGJHEPX6GR6PQ6SJG,97,1537925,2021-01-16 14:09:48 UTC,,,
0EMSSN03R8QNVRR7X1PMME13MS,97,1537925,2021-01-16 14:09:58 UTC,,,
0EMSSN35C0WR7HBZ2ZE8CHW4K8,97,1537925,2021-01-16 14:10:08 UTC,,,
0EMSSN67ZEYC95FB7VYS4C1528,97,1537925,2021-01-16 14:10:18 UTC,,,
0EMSSN99JDJ1WMVN663TQ07FSF,97,1537925,2021-01-16 14:10:28 UTC,,,
0EMSSNCB4NGYNNQ1E0S57C401M,97,1537925,2021-01-16 14:10:38 UTC,,,
0EMSSNFBYA9NJPQG10EE2XBXV2,97,1537925,2021-01-16 14:10:48 UTC,,,
0EMSSNJEADW67VXFAFT3Y2DVV6,96,1537925,2021-01-16 14:10:58 UTC,,,
0EMSSNNGDJ4VBHE5DCF94PRR54,96,1537925,2021-01-16 14:11:08 UTC,,,
0EMSSNRHSSBHVAF2KSZ8ZXDJR4,96,1537925,2021-01-16 14:11:18 UTC,,,
0EMSSNVJR56AGHXYZJ4PNDTNT5,96,1537925,2021-01-16 14:11:28 UTC,,,
0EMSSNYN34H5A5EY5JW3A8ZF5W,96,1537925,2021-01-16 14:11:38 UTC,,,
0EMSSP1PYRTXV0E59WA1NRAB2W,96,1537925,2021-01-16 14:11:48 UTC,,,
0EMSSP4RXB3B32TPRFHMPFX7CM,96,1537925,2021-01-16 14:11:58 UTC,,,
0EMSSP7SF247W09399RSRYEF9P,96,1537925,2021-01-16 14:12:08 UTC,,,
0EMSSPAVSM482PJJRXJ8Q82KFF,96,1537925,2021-01-16 14:12:18 UTC,,,
0EMSSPDXAESVNHSR2VMEH7659K,96,1537925,2021-01-16 14:12:28 UTC,,,
0EMSSPGY8JS2X0TF2DPEXVJ1E1,95,1537925,2021-01-16 14:12:38 UTC,,,
0EMSSPM0JTT8TQ4DP70DQ7NKM2,95,1537925,2021-01-16 14:12:48 UTC,,,
0EMSSPQ2KPHSX9T89F93T3F42C,95,1537925,2021-01-16 14:12:58 UTC,,,
0EMSSPT44Q6EGEQ5FSH8YADQCE,95,1537925,2021-01-16 14:13:08 UTC,,,
0EMSSPX629E9382120QX6C4SS6,95,1537925,2021-01-16 14:13:18 UTC,,,
0EMSSQ07HD15EVHMWZ14Y3G6EG,95,1537925,2021-01-16 14:13:28 UTC,,,
0EMSSQ391CED8N89WSH4CPD0P0,95,1537925,2021-01-16 14:13:38 UTC,,,
0EMSSQ69XKRH1951KHE8NDFZ2H,95,1537925,2021-01-16 14:13:48 UTC,,,
0EMSSQ9CB2NJ0M1ZVAFR3W3XJ7,95,1537925,2021-01-16 14:13:58 UTC,,,
0EMSSQCDNS19BCK69019NM03J4,95,1537925,2021-01-16 14:14:08 UTC,,,
0EMSSQFG0SNAHY5TZBC6NAQSBT,95,1537925,2021-01-16 14:14:18 UTC,,,
0EMSSQJH5BXKMD9MVRAXKZ565D,94,1537925,2021-01-16 14:14:28 UTC,,,
0EMSSQNK17NR6V6T305H542CTR,94,1537925,2021-01-16 14:14:38 UTC,,,
0EMSSQRMMJJA1NCY7QB96Y3D15,94,1537925,2021-01-16 14:14:48 UTC,,,
0EMSSQVNFNMB7H1ZRN0JSRSDFT,94,1537925,2021-01-16 14:14:58 UTC,,,
0EMSSQYQTMR9MMQXSSB9EZZ81K,94,1537925,2021-01-16 14:15:08 UTC,,,
0EMSSR1SBJA5NNWJ88FBBK1HYA,94,1537925,2021-01-16 14:15:18 UTC,,,
0EMSSR4VNC3Z56T13XPAX950CE,94,1537925,2021-01-16 14:15:28 UTC,,,
0EMSSR7X83G8N91BYKR3XDGB9K,94,1537925,2021-01-16 14:15:38 UTC,,,
0EMSSRAYTYRS22XPVHV36MAKKY,94,1537925,2021-01-16 14:15:48 UTC,,,
0EMSSRE0484DS3D9WEJH5FGTTH,94,1537925,2021-01-16 14:15:58 UTC,,,
0EMSSRH18EGD297BX0ZEW6QF71,94,1537925,2021-01-16 14:16:08 UTC,,,
0EMSSRM2PSXZWDH3BBP64EHP5V,94,1537925,2021-01-16 14:16:18 UTC,,,
0EMSSRQ59Z36NRHAZ2QE9PWYZH,94,1537925,2021-01-16 14:16:28 UTC,,,
0EMSSRT6VW2STHW3M0273NN5KG,93,1537925,2021-01-16 14:16:38 UTC,,,
0EMSSRX8GXAV0XM5SK1JDY64J5,93,1537925,2021-01-16 14:16:48 UTC,,,
0EMSSS097KCMC1J8N8ST8M6M2K,93,1537925,2021-01-16 14:16:58 UTC,,,
0EMSSS3B7QK9S9MS5740AAQ3WD,93,1537925,2021-01-16 14:17:08 UTC,,,
0EMSSS6CY260A0AKVX6F8VZ71V,93,1537925,2021-01-16 14:17:18 UTC,,,
0EMSSS9F7BXK895RXK7Z9DPBPT,93,1537925,2021-01-16 14:17:28 UTC,,,
0EMSSSCFZKPC5ENWXXZ7GYK632,93,1537925,2021-01-16 14:17:38 UTC,,,
0EMSSSFJVXTVTT1D75579QYRYQ,93,1537925,2021-01-16 14:17:48 UTC,,,
0EMSSSJMBKDC19SECD4YT14FHT,93,1537925,2021-01-16 14:17:58 UTC,,,
0EMSSSNNC3N6883EMGYJZ2QDJD,93,1537925,2021-01-16 14:18:08 UTC,,,
0EMSSSRPKKB9ADJ46G3WQZ21VJ,93,1537925,2021-01-16 14:18:18 UTC,,,
0EMSSSVSMMQH82SYQ2DFVNVW86,93,1537925,2021-01-16 14:18:28 UTC,,,
0EMSSSYTFEGT3QBMVK3T63ZET4,93,1537925,2021-01-16 14:18:38 UTC,,,
0EMSST1WFXPQMGHSRSCPQD8KYR,93,1537925,2021-01-16 14:18:48 UTC,,,
0EMSST4YBB0DR4WKC2DK4QC9TM,93,1537925,2021-01-16 14:18:58 UTC,,,
0EMSST7Z8NX9C52VPVE6EMZ67T,93,1537925,2021-01-16 14:19:08 UTC,,,
0EMSSTB0Y5ATWVGNX3V4EQB95F,93,1537925,2021-01-16 14:19:18 UTC,,,
0EMSSTE2FV5ZANWPY0P2CJXR91,93,1537925,2021-01-16 14:19:28 UTC,,,
0EMSSTH50BRE3WEPB1MF8YQAVQ,93,1537925,2021-01-16 14:19:38 UTC,,,
0EMSSTM6KEV02PFQ10SJ7HFW63,93,1537925,2021-01-16 14:19:48 UTC,,,
0EMSSTQ7MNWRG7N6NF4GY6EQHH,93,1537925,2021-01-16 14:19:58 UTC,,,
0EMSSTT9VQBAWW7SD9S4FNQPRX,93,1537925,2021-01-16 14:20:08 UTC,,,
0EMSSTXAD5G6RR3N8PR1PWHTD6,93,1537925,2021-01-16 14:20:18 UTC,,,
0EMSSV0CPWWRZ2TF47NZJ177HW,94,1537925,2021-01-16 14:20:28 UTC,,,
0EMSSV3EAKS49B6NN00SN2WMF0,94,1537925,2021-01-16 14:20:38 UTC,,,
0EMSSV6G2X4V7E5Q0SMESFS7QR,94,1537925,2021-01-16 14:20:48 UTC,,,
0EMSSV9HAC9683MQYNBAH9PPX0,94,1537925,2021-01-16 14:20:58 UTC,,,
0EMSSVCKMDET14AY0XJ3GH49N0,94,1537925,2021-01-16 14:21:08 UTC,,,
0EMSSVFN4X52CGJVYB865C7K9R,94,1537925,2021-01-16 14:21:18 UTC,,,
0EMSSVJNZV9YVE8RE7XTS93AG3,94,1537925,2021-01-16 14:21:28 UTC,,,
0EMSSVNR9PMT8XA0QBYG2FASNK,94,1537925,2021-01-16 14:21:38 UTC,,,
0EMSSVRT9P41ZT4MD38YNAZ9B3,94,1537925,2021-01-16 14:21:48 UTC,,,
0EMSSVVVVMPF8T1RSB3DV34P5M,94,1537925,2021-01-16 14:21:58 UTC,,,
0EMSSVYWYDZTVS06J8H2GTE5S4,94,1537925,2021-01-16 14:22:08 UTC,,,
0EMSSW1Z4CT6E810YMK9AQM6N5,94,1537925,2021-01-16 14:22:18 UTC,,,
0EMSSW510CG6VXHAEYM319VDRZ,94,1537925,2021-01-16 14:22:28 UTC,,,
0EMSSW82Y0HC7SVT48W38Z27V8,94,1537925,2021-01-16 14:22:38 UTC,,,
0EMSSWB4HFCDBW5JVQKX0H3KP5,94,1537925,2021-01-16 14:22:48 UTC,,,
0EMSSWE634DMY94KYBFMA1438Q,94,1537925,2021-01-16 14:22:58 UTC,,,
0EMSSWH6VCP6YY81X5W54A1SDY,94,1537925,2021-01-16 14:23:08 UTC,,,
0EMSSWM8AWHG0G58CRCEKDVYGF,94,1537925,2021-01-16 14:23:18 UTC,,,
0EMSSWQAW9ZQ9QKMZXX93HQGN5,94,1537925,2021-01-16 14:23:28 UTC,,,
0EMSSWTCM02GZTTFJMQ8AWKS67,94,1537925,2021-01-16 14:23:38 UTC,,,
0EMSSWXDGEVGQ8NSCN9FKXS12N,94,1537925,2021-01-16 14:23:48 UTC,,,
0EMSSX0FW2FC43402DRGZDAS2T,94,1537925,2021-01-16 14:23:58 UTC,,,
0EMSSX3H9D9QCH92FANVEKFQ94,93,1537925,2021-01-16 14:24:08 UTC,,,
0EMSSX6JXP0F64E49E0XSVS4MP,93,1537925,2021-01-16 14:24:18 UTC,,,
0EMSSX9KYKP7WQFXHBAW0WW202,93,1537925,2021-01-16 14:24:28 UTC,,,
0EMSSXCPRK4N6YSQ80JEEM4WG0,93,1537925,2021-01-16 14:24:38 UTC,,,
0EMSSXFR7AN9XR7P6R9MQV0H5Q,93,1537925,2021-01-16 14:24:48 UTC,,,
0EMSSXJT2V05YMB9YFDN0HNCBC,93,1537925,2021-01-16 14:24:58 UTC,,,
0EMSSXNTTEJW468B7TB30T5AJ2,93,1537925,2021-01-16 14:25:08 UTC,,,
0EMSSXRWBGJ9PGHYFREFM3AEED,93,1537925,2021-01-16 14:25:18 UTC,,,
0EMSSXVYTFK4VY4SQ910EDJGEX,93,1537925,2021-01-16 14:25:28 UTC,,,
0EMSSXYZCRGMXWNQ8X49DBV1N6,93,1537925,2021-01-16 14:25:38 UTC,,,
0EMSSY21R0R3XYW8VX4BRQ5BHW,93,1537925,2021-01-16 14:25:48 UTC,,,
0EMSSY53PFGD5VDF9YV7R4AMX2,93,1537925,2021-01-16 14:25:58 UTC,,,
0EMSSY855621XXQZBCVNBATXA5,93,1537925,2021-01-16 14:26:08 UTC,,,
0EMSSYB67163BKHCE0ERF9T59Q,93,1537925,2021-01-16 14:26:18 UTC,,,
0EMSSYE832K5TZCTNKFAS1BXY7,93,1537925,2021-01-16 14:26:28 UTC,,,
0EMSSYH9X2Q2SYFYQCGR40EQ0G,93,1537925,2021-01-16 14:26:38 UTC,,,
0EMSSYMC09S4RFXN3C2MY24A44,93,1537925,2021-01-16 14:26:48 UTC,,,
0EMSSYQD2DWV53V7GYADBC8MJT,93,1537925,2021-01-16 14:26:58 UTC,,,
0EMSSYTFG050GR2493E1AC7RRA,93,1537925,2021-01-16 14:27:08 UTC,,,
0EMSSYXGYS5D2QTXGMVN28SH9R,93,1537925,2021-01-16 14:27:18 UTC,,,
0EMSSZ0HZEVTWFWAZJJQFYP295,93,1537925,2021-01-16 14:27:28 UTC,,,
0EMSSZ3M0E0GCDAZZ2765V1KRH,93,1537925,2021-01-16 14:27:38 UTC,,,
0EMSSZ6P22KW0NJZ209JP0J7PX,93,1537925,2021-01-16 14:27:48 UTC,,,
0EMSSZ9Q095B28WJ2GJ3W5WTTW,93,1537925,2021-01-16 14:27:58 UTC,,,
0EMSSZCSAW0WJ3085X1J9BAHY4,93,1537925,2021-01-16 14:28:08 UTC,,,
0EMSSZFTGDAEYN624YRZVE4VKM,94,1537925,2021-01-16 14:28:18 UTC,,,
0EMSSZJWRD530F59MZRB0H73YG,94,1537925,2021-01-16 14:28:28 UTC,,,
0EMSSZNY96BYDJRWR9AYYYJ2H8,94,1537925,2021-01-16 14:28:38 UTC,,,
0EMSSZRZDD8H7YW42B7ND5BGA3,94,1537925,2021-01-16 14:28:48 UTC,,,
0EMSSZW1J7W1TTZ6W10CZKY3YG,94,1537925,2021-01-16 14:28:58 UTC,,,
0EMSSZZ37A5HTZ302WMM898X3V,94,1537925,2021-01-16 14:29:08 UTC,,,
0EMST02426QXFC7TBH4BCDSXQM,94,1537925,2021-01-16 14:29:18 UTC,,,
0EMST056E8KE4NEGGV72V6YBFQ,94,1537925,2021-01-16 14:29:28 UTC,,,
0EMST087Y0HSA1WZ0V90FDMW8T,94,1537925,2021-01-16 14:29:38 UTC,,,
0EMST0B8YF4HCCPWD0Q6WT8S8J,94,1537925,2021-01-16 14:29:48 UTC,,,
0EMST0EBMM3P8HYZYN3E6KDWAM,94,1537925,2021-01-16 14:29:58 UTC,,,
0EMST0HCQ7BA3K8RG20F20EFN4,94,1537925,2021-01-16 14:30:08 UTC,,,
0EMST0MF1M5KJFC41GQ4VEC9KQ,94,1537925,2021-01-16 14:30:18 UTC,,,
0EMST0QGMRAHXP9WWZSE12C4GY,94,1537925,2021-01-16 14:30:28 UTC,,,
0EMST0TP9Q8W1H16VJ3MYEWXJB,94,1537925,2021-01-16 14:30:39 UTC,,,
0EMST0XK6JXVKPJ4D3M19956BK,94,1537925,2021-01-16 14:30:48 UTC,,,
0EMST10NHCXFJJY2JJ6W7571F3,94,1537925,2021-01-16 14:30:58 UTC,,,
0EMST13PC9MS12SN5A7Z3ZA79Q,94,1537925,2021-01-16 14:31:08 UTC,,,
0EMST16RNF7H0F85W94HAH7P1H,94,1537925,2021-01-16 14:31:18 UTC,,,
0EMST19T7HVTFQM23VSW4WERHE,94,1537925,2021-01-16 14:31:28 UTC,,,
0EMST1CV6NXXRGXYHBBGJ68Z70,94,1537925,2021-01-16 14:31:38 UTC,,,
0EMST1FYE5PY0BDY5MSVNGBVDH,94,1537925,2021-01-16 14:31:48 UTC,,,
0EMST1JZ2EP9K3R3DQWN0PC7TS,94,1537925,2021-01-16 14:31:58 UTC,,,
0EMST1P0CFXF72AXA4GQYEVFSH,94,1537925,2021-01-16 14:32:08 UTC,,,
0EMST1S1YY1WZ8E1ESAYNQYEFR,94,1537925,2021-01-16 14:32:18 UTC,,,
0EMST1W3QEBM5XE6Q57W10RT4J,94,1537925,2021-01-16 14:32:28 UTC,,,
0EMST1Z6B1BV9Y40EB8F6G2SEW,94,1537925,2021-01-16 14:32:38 UTC,,,
0EMST227TTZ0FNWQQ3Q2J9P6BX,93,1537925,2021-01-16 14:32:48 UTC,,,
0EMST25940CWWX21H3MK6G7C8E,93,1537925,2021-01-16 14:32:58 UTC,,,
0EMST28AJTWEYGA514P77NR7HN,93,1537925,2021-01-16 14:33:08 UTC,,,
0EMST2BCZK7KMENCKJT7JNSTF8,93,1537925,2021-01-16 14:33:18 UTC,,,
0EMST2EEJYF9FP0FBRX9C88MSB,93,1537925,2021-01-16 14:33:28 UTC,,,
0EMST2HG9N8H8EKT143MZDG5N3,93,1537925,2021-01-16 14:33:38 UTC,,,
0EMST2MHTK3R424C8VDNKYWFWB,93,1537925,2021-01-16 14:33:48 UTC,,,
0EMST2QKCTMPKEANQPGC1K0JKF,93,1537925,2021-01-16 14:33:58 UTC,,,
0EMST2TM8FQ5XY0EP5ZNZ3JBNP,93,1537925,2021-01-16 14:34:08 UTC,,,
0EMST2XP2YVHCMA2FR30VPKQGE,93,1537925,2021-01-16 14:34:18 UTC,,,
0EMST30RN7ZJWBSW7FP1SV5DKC,93,1537925,2021-01-16 14:34:28 UTC,,,
0EMST33S6X36GBS209Q9JYJJR2,93,1537925,2021-01-16 14:34:38 UTC,,,
0EMST36VDVYSCK2G4S228JDTYV,93,1537925,2021-01-16 14:34:48 UTC,,,
0EMST39WENNPE50THYGEESNSK1,93,1537925,2021-01-16 14:34:58 UTC,,,
0EMST3CZ9WQQMVP272FZWJJDST,93,1537925,2021-01-16 14:35:08 UTC,,,
0EMST3G0SNFYAD28BP2RRZ609C,93,1537925,2021-01-16 14:35:18 UTC,,,
0EMST3K1SWA4CVV3ME4VTDGVRS,93,1537925,2021-01-16 14:35:28 UTC,,,
0EMST3P449BK37RPG2KCKR3Q8W,93,1537925,2021-01-16 14:35:38 UTC,,,
0EMST3S54T1EFTK27K5FC7DMN8,93,1537925,2021-01-16 14:35:48 UTC,,,
0EMST3W6NC0WE4V0YFNYCFQT79,93,1537925,2021-01-16 14:35:58 UTC,,,
0EMST3Z8MNPYYCPA8RTEDBTKBB,93,1537925,2021-01-16 14:36:08 UTC,,,
0EMST42AWD448Z4CW8FDFTTBQD,93,1537925,2021-01-16 14:36:18 UTC,,,
0EMST45CFWGJHADPKHJK0RJZ99,93,1537925,2021-01-16 14:36:28 UTC,,,
0EMST48D8ZEN8YG7NCZ2FKPW5E,93,1537925,2021-01-16 14:36:38 UTC,,,
0EMST4BFP7WHAR64FHZ3THK2A0,94,1537925,2021-01-16 14:36:48 UTC,,,
0EMST4EH6SFM8TD5DHY6SXWRQ8,94,1537925,2021-01-16 14:36:58 UTC,,,
0EMST4HJD573G1MP1DKBFAS3W2,94,1537925,2021-01-16 14:37:08 UTC,,,
0EMST4MMDWQEXYSDGES3E30P51,94,1537925,2021-01-16 14:37:18 UTC,,,
0EMST4QP491TFXRRJRF3VBPR42,94,1537925,2021-01-16 14:37:28 UTC,,,
0EMST4TQVKYD7ENES41BYT3156,94,1537925,2021-01-16 14:37:38 UTC,,,
0EMST4XS0SQBMA49WYMCG150X8,94,1537925,2021-01-16 14:37:48 UTC,,,
0EMST50TVHP9P436JQ9TAA34N5,94,1537925,2021-01-16 14:37:58 UTC,,,
0EMST53WPQZZVXTQV83M4M0TWY,94,1537925,2021-01-16 14:38:08 UTC,,,
0EMST56XQQFKE2T3PGN5BP819Z,94,1537925,2021-01-16 14:38:18 UTC,,,
0EMST59ZFF0AGZM4F0E91Y53GT,94,1537925,2021-01-16 14:38:28 UTC,,,
0EMST5D233J5FPGX2CEG3M5QPM,94,1537925,2021-01-16 14:38:38 UTC,,,
0EMST5G3N7TVHSV030AC2YM45B,94,1537925,2021-01-16 14:38:48 UTC,,,
0EMST5K57KB1HZEM0HARESZTXG,94,1537925,2021-01-16 14:38:58 UTC,,,
0EMST5P6TBDFTWRYW27KHQX8CC,94,1537925,2021-01-16 14:39:08 UTC,,,
0EMST5S7RXE1Y29PJ9QVZ62DQV,94,1537925,2021-01-16 14:39:18 UTC,,,
0EMST5W9AEJKP8ZJV8S64JF9HF,94,1537925,2021-01-16 14:39:28 UTC,,,
0EMST5ZAZ48HT998VDQEJ1MTVS,94,1537925,2021-01-16 14:39:38 UTC,,,
0EMST62DF38Z8GGBEYNKYTF1EW,94,1537925,2021-01-16 14:39:48 UTC,,,
0EMST65E3CASETRFWMCN07E89W,94,1537925,2021-01-16 14:39:58 UTC,,,
0EMST68FT9G4ZAZHSRZEEZNWQZ,94,1537925,2021-01-16 14:40:08 UTC,,,
