id,value,feed_id,created_at,lat,lon,ele
0EMSS6SFNT3922Q66CP7K3W4X0,117,1537980,2021-01-16 13:45:08 UTC,,,
0EMSS6WGKSNH0NX9X3YE3NBRA6,117,1537980,2021-01-16 13:45:18 UTC,,,
0EMSS6ZKK68KEHC7AMMEWM5J6C,117,1537980,2021-01-16 13:45:28 UTC,,,
0EMSS72ME0QFS7GBQWB9GHJTCM,117,1537980,2021-01-16 13:45:38 UTC,,,
0EMSS75NDAZ7VD6PJRHDSA504E,117,1537980,2021-01-16 13:45:48 UTC,,,
0EMSS78RE695EQZWZXQSYEP53H,117,1537980,2021-01-16 13:45:58 UTC,,,
0EMSS7BS8NSNVW36T3F46JT2AA,117,1537980,2021-01-16 13:46:08 UTC,,,
0EMSS7EW94ND6GZ1ZX4QT6GJ2H,117,1537980,2021-01-16 13:46:19 UTC,,,
0EMSS7HX2DXMS5S95DZXFFWPKE,116,1537980,2021-01-16 13:46:28 UTC,,,
0EMSS7MYEK2MCMDCHZMD7E2KHN,116,1537980,2021-01-16 13:46:38 UTC,,,
0EMSS7R07EC5J7RPZR7EJMR1K8,116,1537980,2021-01-16 13:46:48 UTC,,,
0EMSS7V1Z86C9YQB2QFWBXB0RK,116,1537980,2021-01-16 13:46:58 UTC,,,
0EMSS7Y412MYTEBJAT2PGZG0PW,116,1537980,2021-01-16 13:47:08 UTC,,,
0EMSS814Y4JK1VHP08GE801QX1,116,1537980,2021-01-16 13:47:18 UTC,,,
0EMSS8480DXYJ2GX7RPGZR3JD5,116,1537980,2021-01-16 13:47:29 UTC,,,
0EMSS878V2E810RDNDS98GVS5B,115,1537980,2021-01-16 13:47:38 UTC,,,
0EMSS8A9S1980RZHT6YV2AMHT4,115,1537980,2021-01-16 13:47:48 UTC,,,
0EMSS8DCRKBET2T4H9WK3KZ0A1,115,1537980,2021-01-16 13:47:59 UTC,,,
0EMSS8GDGEK8YAKNSB477ZVN99,115,1537980,2021-01-16 13:48:08 UTC,,,
0EMSS8KEJ54ZSA3EGH00ANZR8P,115,1537980,2021-01-16 13:48:18 UTC,,,
0EMSS8PHGWRFKJ75X8SJYDT5CQ,114,1537980,2021-01-16 13:48:29 UTC,,,
0EMSS8SJFXZ2QEW5BWY4Q1D51K,114,1537980,2021-01-16 13:48:38 UTC,,,
0EMSS8WNBARXTZMHQBR80QPRHY,114,1537980,2021-01-16 13:48:49 UTC,,,
0EMSS8ZPBP3WFVS83VWX7VAYRH,114,1537980,2021-01-16 13:48:58 UTC,,,
0EMSS92P57W4PMYSKWKFTR05EH,114,1537980,2021-01-16 13:49:08 UTC,,,
0EMSS95R41ZEQVG9SCHHZ243YK,114,1537980,2021-01-16 13:49:18 UTC,,,
0EMSS98V0HQYW1C0AQ2QM3TWCG,114,1537980,2021-01-16 13:49:28 UTC,,,
0EMSS9BW8G8RXT5YWGBJDAK56M,114,1537980,2021-01-16 13:49:38 UTC,,,
0EMSS9EY97TPGEN7FPP4FVC3T6,114,1537980,2021-01-16 13:49:48 UTC,,,
0EMSS9HZTVKME42E1QANGB5HDF,114,1537980,2021-01-16 13:49:58 UTC,,,
0EMSS9N0Z7PY0CG3ZPC4185HJZ,114,1537980,2021-01-16 13:50:08 UTC,,,
0EMSS9R3NYKST17DP1T0WDVC2J,114,1537980,2021-01-16 13:50:19 UTC,,,
0EMSS9V3XG69XFJ12YXX6DEDNA,115,1537980,2021-01-16 13:50:28 UTC,,,
0EMSS9Y6GW5R47PZRY75DX3WJT,115,1537980,2021-01-16 13:50:38 UTC,,,
0EMSSA17F57EB249S1J3D8HN3C,115,1537980,2021-01-16 13:50:48 UTC,,,
0EMSSA4ACPRVE0A7ZTDQV1W383,115,1537980,2021-01-16 13:50:59 UTC,,,
0EMSSA7BF6BSVMKHG6WC07Y1XK,116,1537980,2021-01-16 13:51:08 UTC,,,
0EMSSADE5GBSADNQKCRBHV3KDD,116,1537980,2021-01-16 13:51:28 UTC,,,
0EMSSAGF63WHY9CWFVJQN2AF8Z,116,1537980,2021-01-16 13:51:38 UTC,,,
0EMSSAKJ47NF3XS87W2RFBDA8T,116,1537980,2021-01-16 13:51:48 UTC,,,
0EMSSAPK1Q3NBKZ35XPG9RQDV7,117,1537980,2021-01-16 13:51:58 UTC,,,
0EMSSASN0XG3Y2MSEH7HK2TS7D,117,1537980,2021-01-16 13:52:08 UTC,,,
0EMSSAWPBJYX0ZXD25CR28588H,117,1537980,2021-01-16 13:52:18 UTC,,,
0EMSSAZRXQ1BVBPBNHKEHDEN3T,117,1537980,2021-01-16 13:52:28 UTC,,,
0EMSSB2SF2XGSGFV7EDACG0846,118,1537980,2021-01-16 13:52:38 UTC,,,
0EMSSB5VRB7N2DTVVG5KSG011G,118,1537980,2021-01-16 13:52:48 UTC,,,
0EMSSB8XQ37VVB6KPE9Y9Y0CYE,118,1537980,2021-01-16 13:52:58 UTC,,,
0EMSSBBYKX19XA86SWZ5BKPAWS,118,1537980,2021-01-16 13:53:08 UTC,,,
0EMSSBF1KEZSRB5CBSQYA11WVW,118,1537980,2021-01-16 13:53:19 UTC,,,
0EMSSBJ2N1HEA586T04VVA1P0P,118,1537980,2021-01-16 13:53:28 UTC,,,
0EMSSBN3JNX9NZWNH4NYGP6RYV,118,1537980,2021-01-16 13:53:38 UTC,,,
0EMSSBR59YXX138F6Z84AGRBJX,118,1537980,2021-01-16 13:53:48 UTC,,,
0EMSSBV6SDQ7ZKX5TVVQM7HF1Q,118,1537980,2021-01-16 13:53:58 UTC,,,
0EMSSBY886F934VTT2VHDE7YTG,118,1537980,2021-01-16 13:54:08 UTC,,,
0EMSSC1A4E9X4BW3H9HEH9A5X0,117,1537980,2021-01-16 13:54:18 UTC,,,
0EMSSC4D3G1Q6YTJD7J889C5A5,117,1537980,2021-01-16 13:54:29 UTC,,,
0EMSSC7F1RKBFPTY5X4QT4TC3Y,117,1537980,2021-01-16 13:54:39 UTC,,,
0EMSSCAFA2WY4V3DJ99YEN97QP,117,1537980,2021-01-16 13:54:48 UTC,,,
0EMSSCDHWRY1FHJVBXNSHFR7AV,117,1537980,2021-01-16 13:54:58 UTC,,,
0EMSSCGKTZWY85ZMDDFV7GAAB3,117,1537980,2021-01-16 13:55:09 UTC,,,
0EMSSCKMVB8413XZV6J5JMKCMD,117,1537980,2021-01-16 13:55:18 UTC,,,
0EMSSCPP5PNJ7SWP5KVSBMNGY6,118,1537980,2021-01-16 13:55:28 UTC,,,
0EMSSCSQMYAW857YSVMR2CMTGN,119,1537980,2021-01-16 13:55:38 UTC,,,
0EMSSCWTMBMP3NFGDJ9ZGWQAY1,120,1537980,2021-01-16 13:55:49 UTC,,,
0EMSSCZVKA1YH61S751X0KVY3T,122,1537980,2021-01-16 13:55:58 UTC,,,
0EMSSD2WFJTKZWJE9346J595F9,124,1537980,2021-01-16 13:56:08 UTC,,,
0EMSSD5ZCM5TKCJDFTJTX7CF9P,124,1537980,2021-01-16 13:56:19 UTC,,,
0EMSSD90B5JMBC93W307SM4HE5,125,1537980,2021-01-16 13:56:28 UTC,,,
0EMSSDC19DX9YFNXANVN3F30GR,126,1537980,2021-01-16 13:56:38 UTC,,,
0EMSSDF476W6SGMRBEB5SXGKBS,126,1537980,2021-01-16 13:56:48 UTC,,,
0EMSSDJ568QQK8KXMSP7148VT8,125,1537980,2021-01-16 13:56:58 UTC,,,
0EMSSDN5RTE0E4DPPA1M55G488,126,1537980,2021-01-16 13:57:08 UTC,,,
0EMSSDR8B5Q8RXJRV5DYDED1J2,126,1537980,2021-01-16 13:57:18 UTC,,,
0EMSSDVA0YDS3Z1K20GA2F96XQ,125,1537980,2021-01-16 13:57:28 UTC,,,
0EMSSDYBX8249WCB7DJTNG3XYF,126,1537980,2021-01-16 13:57:38 UTC,,,
0EMSSE1DWMCG8AEMY1S7PPNNZQ,128,1537980,2021-01-16 13:57:48 UTC,,,
0EMSSE4FVRCD6EKK4QNBGJW5WM,128,1537980,2021-01-16 13:57:59 UTC,,,
0EMSSE7GQSK9HS5X4T84Z9QKVB,130,1537980,2021-01-16 13:58:08 UTC,,,
0EMSSEAJNDRTDE6HW53QVR6XRP,129,1537980,2021-01-16 13:58:18 UTC,,,
0EMSSEDKNGX93Y326TJRR4NW1F,127,1537980,2021-01-16 13:58:28 UTC,,,
0EMSSEGPHHZVFG4X2JACC5HE9N,125,1537980,2021-01-16 13:58:39 UTC,,,
0EMSSEKRF845HDN3VNF2G1KJ37,127,1537980,2021-01-16 13:58:49 UTC,,,
0EMSSEPRE0CWZN32VH7AW17SKV,126,1537980,2021-01-16 13:58:58 UTC,,,
0EMSSESTAB7ZAMSY5DFX1TQT34,126,1537980,2021-01-16 13:59:08 UTC,,,
0EMSSEWX9CNWRWW6JQ6PZRYQP2,124,1537980,2021-01-16 13:59:19 UTC,,,
0EMSSEZY82QAWHF5AGEWH6WCVX,124,1537980,2021-01-16 13:59:28 UTC,,,
0EMSSF2Z630MF8052CJ46N03H9,124,1537980,2021-01-16 13:59:38 UTC,,,
0EMSSF623C3X9GVC58SJ6KBA3G,124,1537980,2021-01-16 13:59:49 UTC,,,
0EMSSF93125K1KA4W78B5J27NW,126,1537980,2021-01-16 13:59:58 UTC,,,
0EMSSFC43A2J6S6VJY2SP5J9QD,125,1537980,2021-01-16 14:00:08 UTC,,,
0EMSSFF704HZPWE7Z0J7YD5JZM,127,1537980,2021-01-16 14:00:18 UTC,,,
0EMSSFJ7VYG33ZH4GNJ1T61HMV,126,1537980,2021-01-16 14:00:28 UTC,,,
0EMSSFNATM7938008PHCAPJ7YP,126,1537980,2021-01-16 14:00:39 UTC,,,
0EMSSFRCSNMQPPAEMVJBDZEAG8,126,1537980,2021-01-16 14:00:49 UTC,,,
0EMSSFVDNXESN8HHJWFD72AT9P,127,1537980,2021-01-16 14:00:59 UTC,,,
0EMSSFYEKCJDEGK17KGD7CJVSN,126,1537980,2021-01-16 14:01:08 UTC,,,
0EMSSG1FKF3QP7F30RZFEYQ1DS,126,1537980,2021-01-16 14:01:18 UTC,,,
0EMSSG4JFVVN9Z50PS91BSQBKB,126,1537980,2021-01-16 14:01:28 UTC,,,
0EMSSG7KD9TH1CVV68HYJ6GJ92,126,1537980,2021-01-16 14:01:38 UTC,,,
0EMSSGAPC6PZ7YA29QE7DZZZ2Q,126,1537980,2021-01-16 14:01:49 UTC,,,
0EMSSGDQCJHAGQSA455R8G2CGP,126,1537980,2021-01-16 14:01:58 UTC,,,
0EMSSGGR87F3R6SZHA4JZXYW5V,126,1537980,2021-01-16 14:02:08 UTC,,,
0EMSSGKTFXV6X3DWX08FAS4ZN7,126,1537980,2021-01-16 14:02:18 UTC,,,
0EMSSGPV412C3GX11H04RG503E,125,1537980,2021-01-16 14:02:28 UTC,,,
0EMSSGSY1MFRJM5JN68RRNSV1N,125,1537980,2021-01-16 14:02:38 UTC,,,
0EMSSGX06M9NWPMXD84NQXMZRN,125,1537980,2021-01-16 14:02:49 UTC,,,
0EMSSH00Y0ZM7NGCJ5QCG9Z4Q5,125,1537980,2021-01-16 14:02:58 UTC,,,
0EMSSH31YVBRPHZ9521366MYF1,125,1537980,2021-01-16 14:03:08 UTC,,,
0EMSSH64TZ9KC5YEX4YZQJ0YK4,124,1537980,2021-01-16 14:03:18 UTC,,,
0EMSSH95V7TTQQK3W3GQTJ0JVW,124,1537980,2021-01-16 14:03:28 UTC,,,
0EMSSHC6PWZ7FC3VJT9MQDXRRZ,124,1537980,2021-01-16 14:03:38 UTC,,,
0EMSSHF9MV84EH3MXEZ9J8D9P3,124,1537980,2021-01-16 14:03:48 UTC,,,
0EMSSHJAJYTT8Y84YGPTFD1WTQ,124,1537980,2021-01-16 14:03:58 UTC,,,
0EMSSHNDFWQ3PX39G6GS5PDVYA,123,1537980,2021-01-16 14:04:09 UTC,,,
0EMSSHRFG7B8Y2Z1TYV0R05SAN,123,1537980,2021-01-16 14:04:19 UTC,,,
0EMSSHVGBP0W32RN5GG81KZC3K,123,1537980,2021-01-16 14:04:28 UTC,,,
0EMSSHYH9Z7YN03D0KXHGK49ZC,123,1537980,2021-01-16 14:04:38 UTC,,,
0EMSSJ1MAYNBZSHZCPB5BNQ501,123,1537980,2021-01-16 14:04:49 UTC,,,
0EMSSJ4NFVN4Y0ZXGRJG94JR40,123,1537980,2021-01-16 14:04:59 UTC,,,
0EMSSJ7P4FWXJN99QJNVNWZEBW,122,1537980,2021-01-16 14:05:08 UTC,,,
0EMSSJAS2Y36VGGKXTX3YR2MSH,122,1537980,2021-01-16 14:05:19 UTC,,,
0EMSSJDT08RE09KQ9MBGVX0A11,122,1537980,2021-01-16 14:05:28 UTC,,,
0EMSSJGTNNMSTD3RXBYTVRW5B1,122,1537980,2021-01-16 14:05:38 UTC,,,
0EMSSJKX9QEDFW1NYMC86E0WA8,121,1537980,2021-01-16 14:05:48 UTC,,,
0EMSSJPYS9Z34YCFCVPY5HFKV0,121,1537980,2021-01-16 14:05:58 UTC,,,
0EMSSJT01XVA9S458ZYTC5QG8A,121,1537980,2021-01-16 14:06:08 UTC,,,
0EMSSJX1NSH8VYWC3XWZ7M4T68,121,1537980,2021-01-16 14:06:18 UTC,,,
0EMSSK03M0TDVGS4ECHJDZFWAD,121,1537980,2021-01-16 14:06:28 UTC,,,
0EMSSK35JB5S165N9XDG7RRT53,120,1537980,2021-01-16 14:06:38 UTC,,,
0EMSSK65ZQ84C66G1DD4TF2DMZ,120,1537980,2021-01-16 14:06:48 UTC,,,
0EMSSK98EW0FP92XWRAB5EP7T9,120,1537980,2021-01-16 14:06:58 UTC,,,
0EMSSKCBCHY8TFRH6RWWVW35RN,120,1537980,2021-01-16 14:07:09 UTC,,,
0EMSSKFC9J8GXJHS87H57FDR1E,120,1537980,2021-01-16 14:07:18 UTC,,,
0EMSSKJDMWEXFGEQF2655WEWD7,120,1537980,2021-01-16 14:07:28 UTC,,,
0EMSSKNG5GR1PQR7WPH37CSFTH,120,1537980,2021-01-16 14:07:39 UTC,,,
0EMSSKRHD76DJZCS0MK5EBCSX5,119,1537980,2021-01-16 14:07:48 UTC,,,
0EMSSKVJ1YR50Q4CZTXRTHZV4G,119,1537980,2021-01-16 14:07:58 UTC,,,
0EMSSKYN09GH9ZT0T900Y1B04P,119,1537980,2021-01-16 14:08:09 UTC,,,
0EMSSM1PESJJB9WJSZ9A9SP7CF,119,1537980,2021-01-16 14:08:18 UTC,,,
0EMSSM4PX3TTXNX2Q61K19DC4N,119,1537980,2021-01-16 14:08:28 UTC,,,
0EMSSM7ST3G1EA4CFVD8AMASAG,119,1537980,2021-01-16 14:08:38 UTC,,,
0EMSSMAVX85T1AR5QCW7712EWH,118,1537980,2021-01-16 14:08:49 UTC,,,
0EMSSMDVNY4K4FZ3D8RRE0PVAW,118,1537980,2021-01-16 14:08:58 UTC,,,
0EMSSMGXM5R04K2M7E7MDJJ2N9,118,1537980,2021-01-16 14:09:08 UTC,,,
0EMSSMM0HSE2VF0PDGSQ2JVYET,118,1537980,2021-01-16 14:09:19 UTC,,,
0EMSSMQ1GDH2462X8HXBWHG5WZ,118,1537980,2021-01-16 14:09:28 UTC,,,
0EMSSMT2JSGA8X2WP5ZETD0MW5,117,1537980,2021-01-16 14:09:38 UTC,,,
0EMSSMX5YFMECG6CV3ZEE7TY0E,117,1537980,2021-01-16 14:09:49 UTC,,,
0EMSSN06CMCNT2MGF7Q78A56M3,117,1537980,2021-01-16 14:09:58 UTC,,,
0EMSSN3893VM3QSRJNKXW5RS9B,117,1537980,2021-01-16 14:10:08 UTC,,,
0EMSSN69G4Q8AN76S4H2M2BXQK,117,1537980,2021-01-16 14:10:18 UTC,,,
0EMSSN9C4R60VD30M6175PAZ2G,117,1537980,2021-01-16 14:10:29 UTC,,,
0EMSSNCD19CV3MV8VCF82H22JJ,116,1537980,2021-01-16 14:10:38 UTC,,,
0EMSSNFE1NDZ5ZAQKACYWAZXVY,116,1537980,2021-01-16 14:10:48 UTC,,,
0EMSSNJFX0VWDRS8449ESPAH4F,116,1537980,2021-01-16 14:10:58 UTC,,,
0EMSSNNJV9GKGBJM4AENFYFRZZ,116,1537980,2021-01-16 14:11:09 UTC,,,
0EMSSNRKQRTAKA9FZHS660599E,116,1537980,2021-01-16 14:11:18 UTC,,,
0EMSSNVMT65GGDJ9WQPH8S9FF2,116,1537980,2021-01-16 14:11:28 UTC,,,
0EMSSNYPQHPSN5DSMW6GNE5BJ8,116,1537980,2021-01-16 14:11:38 UTC,,,
0EMSSP1SM2ZB2WVFE16WGSJDCT,115,1537980,2021-01-16 14:11:49 UTC,,,
0EMSSP4TH23RHEJA8VPASB316E,115,1537980,2021-01-16 14:11:58 UTC,,,
0EMSSP7VH8H4Z68YHAE3RTG4F2,115,1537980,2021-01-16 14:12:08 UTC,,,
0EMSSPAYQAXVT33AVE4FVTHDFA,115,1537980,2021-01-16 14:12:19 UTC,,,
0EMSSPDZDBEYD8FA2BYNHKDKZZ,115,1537980,2021-01-16 14:12:28 UTC,,,
0EMSSPH0AZ1JZZF6KYTEPGB1YJ,115,1537980,2021-01-16 14:12:38 UTC,,,
0EMSSPM3H8WZ25QN1C75QN49AP,115,1537980,2021-01-16 14:12:49 UTC,,,
0EMSSPQ57MJAJHVHGBJWAPKVCB,114,1537980,2021-01-16 14:12:59 UTC,,,
0EMSSPT66CKQ70AGM2B0FJQ95Q,114,1537980,2021-01-16 14:13:08 UTC,,,
0EMSSPX923QPM25WMTM4K3N96W,114,1537980,2021-01-16 14:13:19 UTC,,,
0EMSSQ0A0PBKVZX28BW3CEWQ43,114,1537980,2021-01-16 14:13:29 UTC,,,
0EMSSQ3AZ8P31P3SBEEKTCNX56,114,1537980,2021-01-16 14:13:38 UTC,,,
0EMSSQ6C3XY249ZKSA5JVDSPRP,114,1537980,2021-01-16 14:13:48 UTC,,,
0EMSSQ9ESJ06PZZZRY9J1QEWME,113,1537980,2021-01-16 14:13:58 UTC,,,
0EMSSQCFR7MT59NKGJYW90FWR4,113,1537980,2021-01-16 14:14:08 UTC,,,
0EMSSQFJQXVB7DRN9121WZT5M5,113,1537980,2021-01-16 14:14:19 UTC,,,
0EMSSQJKKNBZGND5AZXZZMBAQY,113,1537980,2021-01-16 14:14:28 UTC,,,
0EMSSQNNK5Z115M1B9F6DQZTR8,113,1537980,2021-01-16 14:14:39 UTC,,,
0EMSSQRPKYJZSW307ZKK3H3SZH,113,1537980,2021-01-16 14:14:48 UTC,,,
0EMSSQVQG6BY5RPRFF7B6R37PY,113,1537980,2021-01-16 14:14:58 UTC,,,
0EMSSQYTCY6TBRR2C11X0A5EE3,112,1537980,2021-01-16 14:15:08 UTC,,,
0EMSSR1VD5N0CP52AWD77ENPB9,112,1537980,2021-01-16 14:15:18 UTC,,,
0EMSSR4Y8FZZ8J9GA7FK088AJH,112,1537980,2021-01-16 14:15:29 UTC,,,
0EMSSR806TS39GT33GZRE4WPZX,112,1537980,2021-01-16 14:15:39 UTC,,,
0EMSSRB13S8PCK12E0CJZAWV3S,112,1537980,2021-01-16 14:15:49 UTC,,,
0EMSSRE22KF5SESY2SHMJ30KSH,112,1537980,2021-01-16 14:15:58 UTC,,,
0EMSSRH3ZAETNNN2KW79ZR4NYG,112,1537980,2021-01-16 14:16:08 UTC,,,
0EMSSRM4XCE0VYK3EXQCEW4AP6,112,1537980,2021-01-16 14:16:18 UTC,,,
0EMSSRQ7WCZG26HB4A9K5RGKS7,112,1537980,2021-01-16 14:16:29 UTC,,,
0EMSSRT9RZ0DXAPNM3BJ8AX3MZ,112,1537980,2021-01-16 14:16:39 UTC,,,
0EMSSRXASGGZWXG6N9BYQEYT62,112,1537980,2021-01-16 14:16:48 UTC,,,
0EMSSS0AZ7DXFVHD86W13M6ZF8,112,1537980,2021-01-16 14:16:58 UTC,,,
0EMSSS3DKFA054KYCS7C42ERSX,112,1537980,2021-01-16 14:17:08 UTC,,,
0EMSSS6EJ1MBH7TFYNG4NDHYNV,113,1537980,2021-01-16 14:17:18 UTC,,,
0EMSSS9HJH2YG3S4N2P9FMVV8J,113,1537980,2021-01-16 14:17:28 UTC,,,
0EMSSSCK8FG3GDM4PB7916WSDS,113,1537980,2021-01-16 14:17:38 UTC,,,
0EMSSSFNCRK6ZT1D4Q974Q799R,113,1537980,2021-01-16 14:17:49 UTC,,,
0EMSSSJPHG4J3CQ585EPPV1536,113,1537980,2021-01-16 14:17:58 UTC,,,
0EMSSSNRF4XBXYTXDKB6GTJ956,114,1537980,2021-01-16 14:18:09 UTC,,,
0EMSSSRSAEJ0QNT4CY0NPD1KXD,114,1537980,2021-01-16 14:18:18 UTC,,,
0EMSSSVW5NNJH34HGNKNZXJ7H6,114,1537980,2021-01-16 14:18:29 UTC,,,
0EMSSSYW422SS9RAMD68NFKMZ3,114,1537980,2021-01-16 14:18:38 UTC,,,
0EMSST1Y66BW6MH25HTEXJM7WC,115,1537980,2021-01-16 14:18:48 UTC,,,
0EMSST51YSG2CRB7QA11NNPYE4,115,1537980,2021-01-16 14:18:59 UTC,,,
0EMSST81TY7DTGRCBK1RZ2XN25,115,1537980,2021-01-16 14:19:08 UTC,,,
0EMSSTB2S2XRQFG1DW58WP8W0X,115,1537980,2021-01-16 14:19:18 UTC,,,
0EMSSTE4PZXJKJS19P0XWCM5MQ,115,1537980,2021-01-16 14:19:28 UTC,,,
0EMSSTH6NMZ6NRRAVNH2PEC2DJ,116,1537980,2021-01-16 14:19:38 UTC,,,
0EMSSTM8M0J53ZQBNBQWXHYS6C,116,1537980,2021-01-16 14:19:48 UTC,,,
0EMSSTQ9HM9BB9JD3MNEYY5K2S,116,1537980,2021-01-16 14:19:58 UTC,,,
0EMSSTTBJZKFDYV5CNJ24NX934,116,1537980,2021-01-16 14:20:08 UTC,,,
0EMSSTXCFVTAYVSVY2BPTQ8CND,116,1537980,2021-01-16 14:20:18 UTC,,,
0EMSSV0FC72GN63V52RDAZRNKZ,116,1537980,2021-01-16 14:20:28 UTC,,,
0EMSSV3H9H7YGP4E5PPMPASQ87,116,1537980,2021-01-16 14:20:39 UTC,,,
0EMSSV6JD8RRNNB0R7EHN55WHN,116,1537980,2021-01-16 14:20:48 UTC,,,
0EMSSV9K736J7AVC8CFE7FP729,116,1537980,2021-01-16 14:20:58 UTC,,,
0EMSSVCP6AD99RBT37V2QFTH53,116,1537980,2021-01-16 14:21:09 UTC,,,
0EMSSVFQ32CG24C56M30VHYQT1,116,1537980,2021-01-16 14:21:18 UTC,,,
0EMSSVJR0BZ1CM33WFEFD7RNAX,116,1537980,2021-01-16 14:21:28 UTC,,,
0EMSSVNSZJ3P6Z4BYH56VNFB4M,116,1537980,2021-01-16 14:21:38 UTC,,,
0EMSSVRX10J8MRD3A7AHGVCAD9,116,1537980,2021-01-16 14:21:49 UTC,,,
0EMSSVVXTATR99PPEWG1QF7600,115,1537980,2021-01-16 14:21:58 UTC,,,
0EMSSVYYMP323D7MW0P3BVN8WQ,115,1537980,2021-01-16 14:22:08 UTC,,,
0EMSSW212ECKZ1KZW7CN45B5CG,115,1537980,2021-01-16 14:22:18 UTC,,,
0EMSSW52MK8A2Y7RMVT5D6AA94,115,1537980,2021-01-16 14:22:28 UTC,,,
0EMSSW84HTXGBNQMCNSDR2WMNQ,114,1537980,2021-01-16 14:22:38 UTC,,,
0EMSSWB7G6YZ9V6NCHNAAKZP5F,114,1537980,2021-01-16 14:22:49 UTC,,,
0EMSSWE9F352HZPBJ5825K79ZY,114,1537980,2021-01-16 14:22:59 UTC,,,
0EMSSWH9CJZZFQTPP9DR8NHFAX,114,1537980,2021-01-16 14:23:08 UTC,,,
0EMSSWMAMN8F8K8RX522Z4Z5K9,114,1537980,2021-01-16 14:23:18 UTC,,,
0EMSSWQCA0R3YGCZ24GP9JAV2E,113,1537980,2021-01-16 14:23:28 UTC,,,
0EMSSWTFA1T70GGTD9BMX46R9G,114,1537980,2021-01-16 14:23:39 UTC,,,
0EMSSWXH48MJYHNS1RE1YDEVW3,114,1537980,2021-01-16 14:23:49 UTC,,,
0EMSSX0J2H5CME7P1K2RPZZQ6K,113,1537980,2021-01-16 14:23:58 UTC,,,
0EMSSX3K2Q92YR7FZXMQQF1NDK,114,1537980,2021-01-16 14:24:08 UTC,,,
0EMSSX6MZHN7ZYVV8SF68BDY3X,114,1537980,2021-01-16 14:24:18 UTC,,,
0EMSSX9PWE7CB3654K5NEAE9S5,114,1537980,2021-01-16 14:24:28 UTC,,,
0EMSSXCRYFAM84W2KTFZWC0JQC,114,1537980,2021-01-16 14:24:39 UTC,,,
0EMSSXFSSGQMD8DB2Z10VMF3VZ,114,1537980,2021-01-16 14:24:48 UTC,,,
0EMSSXJVMGBTCQDMW1F1D9186M,114,1537980,2021-01-16 14:24:58 UTC,,,
0EMSSXNXKK5KQ37DCYYZSXD9E6,114,1537980,2021-01-16 14:25:08 UTC,,,
0EMSSXRYJVQFMXDW1EQ3VV9YAA,115,1537980,2021-01-16 14:25:18 UTC,,,
0EMSSXW0GKJA8NFPW9XKDFFZAZ,115,1537980,2021-01-16 14:25:28 UTC,,,
0EMSSXZ1DXAPK099T9VXDQQVJW,115,1537980,2021-01-16 14:25:38 UTC,,,
0EMSSY24BY3E126VYMPP85KHRY,115,1537980,2021-01-16 14:25:48 UTC,,,
0EMSSY56BJHMFMSD799FHRY211,116,1537980,2021-01-16 14:25:59 UTC,,,
0EMSSY8781Z0KE8412T8MPMBM8,116,1537980,2021-01-16 14:26:08 UTC,,,
0EMSSYB97T1CMQTNFJQD1TMQSS,116,1537980,2021-01-16 14:26:18 UTC,,,
0EMSSYEB4GHXNJ07CP7Z98TMTP,116,1537980,2021-01-16 14:26:29 UTC,,,
0EMSSYHCJ6NMKHX9H0RKC23DDX,116,1537980,2021-01-16 14:26:38 UTC,,,
0EMSSYME48P212E8HSVMBQZ8A7,117,1537980,2021-01-16 14:26:48 UTC,,,
0EMSSYQF2MGCNNDDZDQJJM7K0F,117,1537980,2021-01-16 14:26:58 UTC,,,
0EMSSYTJ15ARXPH10MSKDBGMK1,117,1537980,2021-01-16 14:27:09 UTC,,,
0EMSSYXK4TZHQPZ40JABBSP31W,117,1537980,2021-01-16 14:27:18 UTC,,,
0EMSSZ0KWMYMHSD389J425EFX0,117,1537980,2021-01-16 14:27:28 UTC,,,
0EMSSZ3NSPWSKRMF0T2MMG5GE1,117,1537980,2021-01-16 14:27:38 UTC,,,
0EMSSZ6RS32ZZX1PZPSEP9NA3K,118,1537980,2021-01-16 14:27:49 UTC,,,
0EMSSZ9TJEB5VX0H8DVCD007WA,118,1537980,2021-01-16 14:27:59 UTC,,,
0EMSSZCVN7Q38FZGFV3QBBC41S,118,1537980,2021-01-16 14:28:09 UTC,,,
0EMSSZFWEC4DSPBTYWDT48NHGQ,118,1537980,2021-01-16 14:28:18 UTC,,,
0EMSSZJZDCJEA13GHKB21W9SKN,118,1537980,2021-01-16 14:28:29 UTC,,,
0EMSSZP0AAFD0TYKVZE8WFRAVR,117,1537980,2021-01-16 14:28:38 UTC,,,
0EMSSZS17NSS3AG7A7N81HTCPS,117,1537980,2021-01-16 14:28:48 UTC,,,
0EMSSZW3EJZFG2PVJPDD7JTJXY,117,1537980,2021-01-16 14:28:58 UTC,,,
0EMSSZZ541EM34SZWEKKZT3DYK,117,1537980,2021-01-16 14:29:08 UTC,,,
0EMST0261C805N6CAN8KEW7AW8,117,1537980,2021-01-16 14:29:18 UTC,,,
0EMST058ZPXWV3E8X1BW8W821Y,117,1537980,2021-01-16 14:29:29 UTC,,,
0EMST089Y7NSPPMAZ2TNDC180P,117,1537980,2021-01-16 14:29:38 UTC,,,
0EMST0BAXEN0RZDAGAXZTY35QP,117,1537980,2021-01-16 14:29:48 UTC,,,
0EMST0EDTT5GMPXZSZNR764P61,117,1537980,2021-01-16 14:29:58 UTC,,,
0EMST0HESDY469S28TQWB3XA1R,116,1537980,2021-01-16 14:30:08 UTC,,,
0EMST0MHSVFVRE3CHD3Z6YR1X3,116,1537980,2021-01-16 14:30:19 UTC,,,
0EMST0QJNXEBEXD6HJM3V50KGF,116,1537980,2021-01-16 14:30:28 UTC,,,
0EMST0XNYCXMRS7DHNXSG2MJ0B,115,1537980,2021-01-16 14:30:48 UTC,,,
0EMST10QEFZ58PJ1XZRVHCR74S,115,1537980,2021-01-16 14:30:58 UTC,,,
0EMST13RDBVMR7J7JKH76KMKMB,115,1537980,2021-01-16 14:31:08 UTC,,,
0EMST16VHY7BT0Q9FZY7CA00FC,115,1537980,2021-01-16 14:31:19 UTC,,,
0EMST19W76JMYH16QGKNJV1WF0,115,1537980,2021-01-16 14:31:28 UTC,,,
0EMST1CX72ZW82EME33Y18ESMR,115,1537980,2021-01-16 14:31:38 UTC,,,
0EMST1G04BPR5SK1X3Y7PJM52R,114,1537980,2021-01-16 14:31:49 UTC,,,
0EMST1K16Z6JM8SD6GB5YWX4KZ,114,1537980,2021-01-16 14:31:58 UTC,,,
0EMST1P3CJQQN379FZCC0EYBT5,114,1537980,2021-01-16 14:32:09 UTC,,,
0EMST1S4Y8FE8NTZMM6FPBX3HZ,114,1537980,2021-01-16 14:32:18 UTC,,,
0EMST1W5WD1EZ7NJQVGPH84GG3,114,1537980,2021-01-16 14:32:28 UTC,,,
0EMST1Z8V9WDE9DFRY8T848G52,114,1537980,2021-01-16 14:32:39 UTC,,,
0EMST229V28WMRT35AVX789N1T,114,1537980,2021-01-16 14:32:48 UTC,,,
0EMST25BQW52TVJ6MSSNQ0KP54,114,1537980,2021-01-16 14:32:59 UTC,,,
0EMST28CP5EWW4DAW8RTJQ9DD3,114,1537980,2021-01-16 14:33:08 UTC,,,
0EMST2BFJ5D2JQA0ZABDY62Z05,114,1537980,2021-01-16 14:33:19 UTC,,,
0EMST2EHH7468WPK87F6YM74MW,114,1537980,2021-01-16 14:33:29 UTC,,,
0EMST2HHQG2Q1VRRDKZ13NFSHK,114,1537980,2021-01-16 14:33:38 UTC,,,
0EMST2MKDFPPEKJ6ECY4N0ZCAS,114,1537980,2021-01-16 14:33:48 UTC,,,
0EMST2QNKQST6Y4GJMVWTQR1FV,114,1537980,2021-01-16 14:33:59 UTC,,,
0EMST2TQ7E14M2DPN9N93K13BB,115,1537980,2021-01-16 14:34:08 UTC,,,
0EMST2XR71FHTVWPQ1854B2ZSQ,115,1537980,2021-01-16 14:34:18 UTC,,,
0EMST30T4RA5TG7E842721P9E2,115,1537980,2021-01-16 14:34:28 UTC,,,
0EMST33WCFDPNKNZ9PN2YYTPRY,115,1537980,2021-01-16 14:34:39 UTC,,,
0EMST36YGD3E2FYJW7X8H147ZP,115,1537980,2021-01-16 14:34:49 UTC,,,
0EMST39YZ0XBCFH18R43AQBPZ0,116,1537980,2021-01-16 14:34:58 UTC,,,
0EMST3D1WA5ZN46EGV054WGW21,116,1537980,2021-01-16 14:35:09 UTC,,,
0EMST3G2XEE9QCAASMBVT99QH9,116,1537980,2021-01-16 14:35:19 UTC,,,
0EMST3K3TQG74QHJQB0C3ZFRFB,116,1537980,2021-01-16 14:35:28 UTC,,,
0EMST3P6Q52XPRSDFWVCS7E10S,116,1537980,2021-01-16 14:35:39 UTC,,,
0EMST3S7XNB5SAWMQ0VJY0J7ZB,117,1537980,2021-01-16 14:35:49 UTC,,,
0EMST3W8TWSEHA9DX1ERATKNEE,117,1537980,2021-01-16 14:35:58 UTC,,,
0EMST3ZAPF66TZAXXZRW074C0F,117,1537980,2021-01-16 14:36:08 UTC,,,
0EMST42DE850YCQN6M43BAKFX2,117,1537980,2021-01-16 14:36:19 UTC,,,
0EMST45EFQRFHMGER4PBK6CDSJ,117,1537980,2021-01-16 14:36:29 UTC,,,
0EMST48FCBBACM09QK9W5XRRAS,117,1537980,2021-01-16 14:36:38 UTC,,,
0EMST4BJ882W20ZCYRD4MKVTCH,117,1537980,2021-01-16 14:36:49 UTC,,,
0EMST4EK7MDGVSBA65KDYP1DS4,117,1537980,2021-01-16 14:36:58 UTC,,,
0EMST4HM6MDQA7QN5AM23KCRBH,117,1537980,2021-01-16 14:37:08 UTC,,,
0EMST4MQ2F1VPAXW1ETGYZ9N6K,117,1537980,2021-01-16 14:37:19 UTC,,,
0EMST4QR0SSW8BYJ998QHWZQFV,117,1537980,2021-01-16 14:37:28 UTC,,,
0EMST4TT0B8H0KG5R4JX9MHRKR,116,1537980,2021-01-16 14:37:38 UTC,,,
0EMST4XTX53FFP4XYR9QQGYG9Z,116,1537980,2021-01-16 14:37:48 UTC,,,
0EMST50XVH9R7KJ6ACY4EN3NKV,116,1537980,2021-01-16 14:37:59 UTC,,,
0EMST53YS58TNJYYWN21S7XC4Z,116,1537980,2021-01-16 14:38:08 UTC,,,
0EMST570Q6S1TP2RWMVY2WMQTP,116,1537980,2021-01-16 14:38:19 UTC,,,
0EMST5A1KHAY5HS1C33SFE50YN,116,1537980,2021-01-16 14:38:28 UTC,,,
0EMST5D4MZBGYDHBD7VPNV9CAD,115,1537980,2021-01-16 14:38:39 UTC,,,
0EMST5G6GRNJ2AAAJS34MH7BFE,115,1537980,2021-01-16 14:38:49 UTC,,,
0EMST5K6QXPWQWWKAD51W793M7,115,1537980,2021-01-16 14:38:58 UTC,,,
0EMST5P9CK2HZ0JY0074F1NJK8,115,1537980,2021-01-16 14:39:09 UTC,,,
0EMST5SAAA9WM9F68JB1F0V674,115,1537980,2021-01-16 14:39:18 UTC,,,
0EMST5WCESK9F32R1ZREC1XXGJ,114,1537980,2021-01-16 14:39:29 UTC,,,
0EMST5ZD9JGGY2TX1KVTC832E3,114,1537980,2021-01-16 14:39:38 UTC,,,
0EMST62F22Q2PG0M15JHVRRNR6,114,1537980,2021-01-16 14:39:48 UTC,,,
0EMST65HEQHCVJ310MZQ1PVCCV,114,1537980,2021-01-16 14:39:59 UTC,,,
0EMST68HZ1GNQZQ33K3S192MHP,114,1537980,2021-01-16 14:40:08 UTC,,,
0EMST6BM1J2YXN0EQQAEQ2XQAV,114,1537980,2021-01-16 14:40:18 UTC,,,
0EMST6EPYYKX5XBG33RFVV1N69,114,1537980,2021-01-16 14:40:29 UTC,,,
0EMST6HR5GZ68G2MEM48JD8HYP,114,1537980,2021-01-16 14:40:39 UTC,,,
0EMST6MRQB5CWEPJ5BQ4KCEEPH,114,1537980,2021-01-16 14:40:48 UTC,,,
0EMST6QWVWMBZXK2AWG09HN2PZ,114,1537980,2021-01-16 14:40:59 UTC,,,
0EMST6TVNEA13JSANK9SR5FNXY,114,1537980,2021-01-16 14:41:08 UTC,,,
0EMST6XYR8Z1H9SGCSE8NMQNXA,114,1537980,2021-01-16 14:41:19 UTC,,,
0EMST710HZ06NA6WC232ZVEWF0,114,1537980,2021-01-16 14:41:29 UTC,,,
0EMST741F9T5VX9G81JHHC5297,114,1537980,2021-01-16 14:41:38 UTC,,,
0EMST772C7J1FJPM00XWGYM67B,114,1537980,2021-01-16 14:41:48 UTC,,,
