id,value,feed_id,created_at,lat,lon,ele
0EMSA4118GR6FR3YZBYG4G8EMN,116,1537980,2021-01-15 23:41:27 UTC,,,
0EMSA442216Q0TQT61JTSJ22QE,116,1537980,2021-01-15 23:41:37 UTC,,,
0EMSA4757M5JC87YEH5KM3A3YE,116,1537980,2021-01-15 23:41:47 UTC,,,
0EMSA4A5Z3GXA8TFRA84JTRT2Z,116,1537980,2021-01-15 23:41:57 UTC,,,
0EMSA4D6TAKVSEMJR440NC3HAQ,116,1537980,2021-01-15 23:42:07 UTC,,,
0EMSA4GA4GH1C1XQ4N972ZTTT5,116,1537980,2021-01-15 23:42:17 UTC,,,
0EMSA4KAPPTNSVQCKDW5BRM1Y1,116,1537980,2021-01-15 23:42:27 UTC,,,
0EMSA4PBPQ2BVJ45MPJNF90VBG,116,1537980,2021-01-15 23:42:37 UTC,,,
0EMSA4SEJN8RA4EV19W0QA7B3Q,115,1537980,2021-01-15 23:42:47 UTC,,,
0EMSA4WGGETVFJAS502CT4AN5B,116,1537980,2021-01-15 23:42:57 UTC,,,
0EMSA4ZHFG1TXF648XSMC8NYVS,116,1537980,2021-01-15 23:43:07 UTC,,,
0EMSA52JCQS1VT3NR0RMDYWKBS,116,1537980,2021-01-15 23:43:17 UTC,,,
0EMSA55ME8KEQ925J02E90ZAJC,116,1537980,2021-01-15 23:43:27 UTC,,,
0EMSA58PM6QC5J425082P6A4VP,116,1537980,2021-01-15 23:43:37 UTC,,,
0EMSA5BSDWJKCSXRKGH5WWK9G2,116,1537980,2021-01-15 23:43:47 UTC,,,
0EMSA5HV4GD8M7X1RX0S1KWB2Q,116,1537980,2021-01-15 23:44:07 UTC,,,
0EMSA5MY388WABCF50TXB1F4K0,116,1537980,2021-01-15 23:44:17 UTC,,,
0EMSA5QYZWER876J1MSE09T529,116,1537980,2021-01-15 23:44:27 UTC,,,
0EMSA5V20P25BR6X0XKWEEXNQX,116,1537980,2021-01-15 23:44:37 UTC,,,
0EMSA5Y1W2GNJZ6DXEAS1E2P3C,116,1537980,2021-01-15 23:44:47 UTC,,,
0EMSA613TGHX2R26HSD1REPBVD,116,1537980,2021-01-15 23:44:57 UTC,,,
0EMSA645V6H3ZC5Q62RW6BJGJQ,116,1537980,2021-01-15 23:45:07 UTC,,,
0EMSA676PY8AB2V723KC7WW30P,116,1537980,2021-01-15 23:45:17 UTC,,,
0EMSA6A8V30BCQ8Y4MPZPEYRBK,116,1537980,2021-01-15 23:45:27 UTC,,,
0EMSA6DBKPD9D63NJM92YGS04H,116,1537980,2021-01-15 23:45:37 UTC,,,
0EMSA6GDFXDR0XQCBKKY3RDBEA,116,1537980,2021-01-15 23:45:47 UTC,,,
0EMSA6KEE0BQYA4PN9MWEKC1Z3,116,1537980,2021-01-15 23:45:57 UTC,,,
0EMSA6PFD6ENZ9SMNJXKTS7FM4,116,1537980,2021-01-15 23:46:07 UTC,,,
0EMSA6SJADNP7F98ERDZ356SDZ,116,1537980,2021-01-15 23:46:17 UTC,,,
0EMSA6WJGWWK78XDVCPQNCAJD7,116,1537980,2021-01-15 23:46:27 UTC,,,
0EMSA6ZNCKYC5EE8FMNMAMJ56G,116,1537980,2021-01-15 23:46:37 UTC,,,
0EMSA72P4WWDK0GKB5NGG3BGT7,116,1537980,2021-01-15 23:46:47 UTC,,,
0EMSA75R2RKAJX1PWW342DWE87,116,1537980,2021-01-15 23:46:57 UTC,,,
0EMSA78S4RPKQ4JB9XB2P8V4QD,116,1537980,2021-01-15 23:47:07 UTC,,,
0EMSA7BVXZ1AV6455FEW8PE30A,116,1537980,2021-01-15 23:47:17 UTC,,,
0EMSA7EX08466GDX5Q6VCTDR8Y,116,1537980,2021-01-15 23:47:27 UTC,,,
0EMSA7HYWNGSP0N3B1F9126NXF,115,1537980,2021-01-15 23:47:37 UTC,,,
0EMSA7N0S7E6WSE8WT4HG1A5N5,115,1537980,2021-01-15 23:47:47 UTC,,,
0EMSA7R239HWZ4TDZ4SFXAPPWS,115,1537980,2021-01-15 23:47:57 UTC,,,
0EMSA7V3WKNCS1G2WQX1K7S064,115,1537980,2021-01-15 23:48:07 UTC,,,
0EMSA7Y4H2Q9ESFXMS3MJWWBR4,115,1537980,2021-01-15 23:48:17 UTC,,,
0EMSA817FWYG8HNZV2QDJ54X0G,115,1537980,2021-01-15 23:48:27 UTC,,,
0EMSA847EXVRXBTD433904195M,115,1537980,2021-01-15 23:48:37 UTC,,,
0EMSA879BKF3F78HEEJ319N8AY,115,1537980,2021-01-15 23:48:47 UTC,,,
0EMSA8ACECWF51FRS8P37NCMMY,115,1537980,2021-01-15 23:48:57 UTC,,,
0EMSA8DFCBN561A06PQDEJTVXQ,116,1537980,2021-01-15 23:49:07 UTC,,,
0EMSA8GF74HFFG0FT005V77J32,116,1537980,2021-01-15 23:49:17 UTC,,,
0EMSA8KG4BH68W8998J9QMY86F,116,1537980,2021-01-15 23:49:27 UTC,,,
0EMSA8PJ2087RXRC058MW4JZSC,116,1537980,2021-01-15 23:49:37 UTC,,,
0EMSA8SM3312ZKGV6ZQNRVY9HJ,116,1537980,2021-01-15 23:49:47 UTC,,,
0EMSA8WN114A6C1V1X9B5ZRV4P,116,1537980,2021-01-15 23:49:57 UTC,,,
0EMSA8ZQWVNMF7MY19PQ1FZCAQ,116,1537980,2021-01-15 23:50:07 UTC,,,
0EMSA92SSS3Y9TQKBKZJP28WN8,116,1537980,2021-01-15 23:50:17 UTC,,,
0EMSA95TQWYY4M6DJ3SM0R3QMK,116,1537980,2021-01-15 23:50:27 UTC,,,
0EMSA98VNMDNSRYN21HQJPD5EG,116,1537980,2021-01-15 23:50:37 UTC,,,
0EMSA9BYQ49BPJ8VSECJXMF50Y,116,1537980,2021-01-15 23:50:47 UTC,,,
0EMSA9EZM69P6GRJKQGQMQPDR4,116,1537980,2021-01-15 23:50:57 UTC,,,
0EMSA9J0JE9WFTM2P12CVBG4ZB,116,1537980,2021-01-15 23:51:07 UTC,,,
0EMSA9N3DNNZJVY267SQSVWV0A,116,1537980,2021-01-15 23:51:17 UTC,,,
0EMSA9R4BBERQTG66AYSH0W977,116,1537980,2021-01-15 23:51:27 UTC,,,
0EMSA9V5AYE6P27PGEG2WGVHC6,116,1537980,2021-01-15 23:51:37 UTC,,,
0EMSA9Y7GMM64P3AF0P2WBXM91,116,1537980,2021-01-15 23:51:47 UTC,,,
0EMSAA198BFW1YDXSH9RQ8SFRD,116,1537980,2021-01-15 23:51:57 UTC,,,
0EMSAA4E75CDRWGT68QWYGCCHA,116,1537980,2021-01-15 23:52:07 UTC,,,
0EMSAA7D4VF0X4YQ9RH566SGDR,116,1537980,2021-01-15 23:52:17 UTC,,,
0EMSAAADZE277P00D0KEGXNNGV,116,1537980,2021-01-15 23:52:27 UTC,,,
0EMSAADH1EAJXHCN9AZXXFE99P,116,1537980,2021-01-15 23:52:37 UTC,,,
0EMSAAGHY6REJJ84S7WX44EQFW,116,1537980,2021-01-15 23:52:47 UTC,,,
0EMSAAKJYPC7DN8YBNJ15XXAVW,116,1537980,2021-01-15 23:52:57 UTC,,,
0EMSAAPNR57BK1001J29BEMSGW,116,1537980,2021-01-15 23:53:07 UTC,,,
0EMSAASNSH9W7CFY4ZE5A1X63T,116,1537980,2021-01-15 23:53:17 UTC,,,
0EMSAAWRXPM702R9DPBXJZAX79,116,1537980,2021-01-15 23:53:27 UTC,,,
0EMSAAZTKMMVKY2JPF0BRNG2B7,116,1537980,2021-01-15 23:53:37 UTC,,,
0EMSAB2VM44VYDFE3YHZBSV445,116,1537980,2021-01-15 23:53:47 UTC,,,
0EMSAB5WGM9RG5SDQRN6YMAFYT,115,1537980,2021-01-15 23:53:57 UTC,,,
0EMSAB8ZEBCJXDKHT7BFCMYRZ9,115,1537980,2021-01-15 23:54:07 UTC,,,
0EMSABC1F0GME8RJCJAECK4GZX,115,1537980,2021-01-15 23:54:17 UTC,,,
0EMSABF1G9SZQ1CXTGYNZ6ZCBK,115,1537980,2021-01-15 23:54:27 UTC,,,
0EMSABJ34ZE4W8HGF8SMDA226T,115,1537980,2021-01-15 23:54:37 UTC,,,
0EMSABN6HDFFPA89FGWB918P3S,116,1537980,2021-01-15 23:54:47 UTC,,,
0EMSABR72P3MRDCA1ZDGYKNGAA,116,1537980,2021-01-15 23:54:57 UTC,,,
0EMSABV81P916JAMAN3ZFGBXQC,116,1537980,2021-01-15 23:55:07 UTC,,,
0EMSABY9HAZB10D6H07V4SGTNN,116,1537980,2021-01-15 23:55:17 UTC,,,
0EMSAC1BYKJ74N6N48TCR884XD,116,1537980,2021-01-15 23:55:27 UTC,,,
0EMSAC4FFM7VY26QPM8KTP4YEJ,116,1537980,2021-01-15 23:55:37 UTC,,,
0EMSAC7ES5A1ZEMWCPFQ4B7WB0,116,1537980,2021-01-15 23:55:47 UTC,,,
0EMSACAHPJ04WGRQWMRE0B55T8,116,1537980,2021-01-15 23:55:57 UTC,,,
0EMSACDJQ1WSFMQ0XBSNWTFT9K,116,1537980,2021-01-15 23:56:07 UTC,,,
0EMSACGMJM3VGFHT2W0DMYSN25,116,1537980,2021-01-15 23:56:17 UTC,,,
0EMSACKNJ9N4PY44XJJ2KJ71PT,116,1537980,2021-01-15 23:56:27 UTC,,,
0EMSACPR4DDQG9XMDYN9XBM8ER,116,1537980,2021-01-15 23:56:37 UTC,,,
0EMSACSSETSDEGYWB1BV3Z2CST,116,1537980,2021-01-15 23:56:47 UTC,,,
0EMSACWTWX6ZAYF65Z731NFAQ5,116,1537980,2021-01-15 23:56:57 UTC,,,
0EMSACZYAJFYBG4D3R18HZ2TC9,116,1537980,2021-01-15 23:57:07 UTC,,,
0EMSADAB3YD8RGE6ZR7WW6PMZH,116,1537980,2021-01-15 23:57:41 UTC,,,
0EMSADAP28V0M1RHVKVRD5AGZS,116,1537980,2021-01-15 23:57:42 UTC,,,
0EMSADC32YPWHFN21XZ852HA89,116,1537980,2021-01-15 23:57:47 UTC,,,
0EMSADF6YSFQE649CK7TPFB789,116,1537980,2021-01-15 23:57:57 UTC,,,
0EMSADJ65JHKCPMM6HNB6K2JXN,116,1537980,2021-01-15 23:58:07 UTC,,,
0EMSADN7W9RJT84D8KM5P2JAMP,116,1537980,2021-01-15 23:58:17 UTC,,,
0EMSADRBR3MVGK1Q6YQVWN33F0,116,1537980,2021-01-15 23:58:27 UTC,,,
0EMSADVBPBY3A10FYKHAXDNQY2,116,1537980,2021-01-15 23:58:37 UTC,,,
0EMSADYCPYDPAJZB8882R39SAS,116,1537980,2021-01-15 23:58:47 UTC,,,
0EMSAE1FM6CRQFNPGGZTEQMA62,116,1537980,2021-01-15 23:58:57 UTC,,,
0EMSAE4HGPBGJZHFWGFRH49130,116,1537980,2021-01-15 23:59:07 UTC,,,
0EMSAE7JF116F96EHR5XRMG9WV,115,1537980,2021-01-15 23:59:17 UTC,,,
0EMSAEAKFVNGNK21BBQKJNS512,115,1537980,2021-01-15 23:59:27 UTC,,,
0EMSAEDN98E3379GJ695FTD521,115,1537980,2021-01-15 23:59:37 UTC,,,
0EMSAEGR9PKQYXQ5BX7QKWG6S1,116,1537980,2021-01-15 23:59:47 UTC,,,
0EMSAEKRVA3NANVDC3FNKRKZJW,116,1537980,2021-01-15 23:59:57 UTC,,,
0EMSAEPV4ENTRD2HGDAT8DCZQK,116,1537980,2021-01-16 00:00:07 UTC,,,
0EMSAESWH399VVKWX1W203TR77,116,1537980,2021-01-16 00:00:17 UTC,,,
0EMSAEWY9RGH5G6FJFRNRCRK91,116,1537980,2021-01-16 00:00:27 UTC,,,
0EMSAF002VK84SFETJK2GW9HY4,116,1537980,2021-01-16 00:00:37 UTC,,,
0EMSAF30Y3ZHPVRMF8W78TCW4N,116,1537980,2021-01-16 00:00:47 UTC,,,
0EMSAF63W27V0BBWC7YMGHRWGQ,116,1537980,2021-01-16 00:00:57 UTC,,,
0EMSAF95EFKFNX9J2R6SZSG057,116,1537980,2021-01-16 00:01:07 UTC,,,
0EMSAFC7RM3T0R1KQ8FWE2DN3P,116,1537980,2021-01-16 00:01:17 UTC,,,
0EMSAFF9266ZBFJWS432N10B9F,116,1537980,2021-01-16 00:01:27 UTC,,,
0EMSAFJAY6Q76S3TCCCK3YRJ5D,116,1537980,2021-01-16 00:01:37 UTC,,,
0EMSAFNBGN7VTW4QAZ5CGJQ7VQ,116,1537980,2021-01-16 00:01:47 UTC,,,
0EMSAFRFECGBXGCDWDNJVA6JF1,116,1537980,2021-01-16 00:01:57 UTC,,,
0EMSAFVG1TTG3MXQ3GBHDFMEJ7,116,1537980,2021-01-16 00:02:07 UTC,,,
0EMSAFYGF91STQC26HCBA36PXN,116,1537980,2021-01-16 00:02:17 UTC,,,
0EMSAG4N0JN13GZP6BN1Z4BWC1,116,1537980,2021-01-16 00:02:37 UTC,,,
0EMSAG7P4YD33NBDF98TES2HTS,116,1537980,2021-01-16 00:02:47 UTC,,,
0EMSAGAR38V4M0TEYS5ZHAMYQ5,116,1537980,2021-01-16 00:02:57 UTC,,,
0EMSAGDS1BFRGFCH1Q1EK0KZNX,116,1537980,2021-01-16 00:03:07 UTC,,,
0EMSAGGSWXZ7CAXY97Y2NV25FE,116,1537980,2021-01-16 00:03:17 UTC,,,
0EMSAGKVVDW7SDCAAYE1388651,116,1537980,2021-01-16 00:03:27 UTC,,,
0EMSAGPXT5B9CWJAWG6JZW8GDN,116,1537980,2021-01-16 00:03:37 UTC,,,
0EMSAGSZRCES80Y57C2GQDB9Z9,116,1537980,2021-01-16 00:03:47 UTC,,,
0EMSAGX1SQA0NC9HQRRJXV4NT0,116,1537980,2021-01-16 00:03:57 UTC,,,
0EMSAH02PMQ4CF05P9S1NYXE62,116,1537980,2021-01-16 00:04:07 UTC,,,
0EMSAH34PAMXW950T0ENABTXXN,116,1537980,2021-01-16 00:04:17 UTC,,,
0EMSAH65GBZWG7F4AK3AHWPDQS,115,1537980,2021-01-16 00:04:27 UTC,,,
0EMSAH96EFR7MVNB7AE8ENC4MF,115,1537980,2021-01-16 00:04:37 UTC,,,
0EMSAHC8FGEC3MMJGD7YQ4NCPV,115,1537980,2021-01-16 00:04:47 UTC,,,
0EMSAHFAMFVE4KC3TTHFXETJ97,115,1537980,2021-01-16 00:04:57 UTC,,,
0EMSAHJDE19MQGJEY36F5AFK9J,115,1537980,2021-01-16 00:05:07 UTC,,,
0EMSAHNEA81MDAVC2F0QHMTPE6,115,1537980,2021-01-16 00:05:17 UTC,,,
0EMSAHRFA42JTY8A8WR5SETXEQ,115,1537980,2021-01-16 00:05:27 UTC,,,
0EMSAHVJ3YCH2MNQG7FJ57DQ9Y,115,1537980,2021-01-16 00:05:37 UTC,,,
0EMSAHYM25D7H6N62JMAT008JY,115,1537980,2021-01-16 00:05:47 UTC,,,
0EMSAJ1P1W810WR7D42WV118FZ,115,1537980,2021-01-16 00:05:57 UTC,,,
0EMSAJ4PZP1DBKDHZXFC94ZM7P,115,1537980,2021-01-16 00:06:07 UTC,,,
0EMSAJ7RXF12S9QBER7ANV1J3B,115,1537980,2021-01-16 00:06:17 UTC,,,
0EMSAJATSFN57R4EEWVCGCE3MT,115,1537980,2021-01-16 00:06:27 UTC,,,
0EMSAJDVRKWQD0V5CSEWYAWJNZ,115,1537980,2021-01-16 00:06:37 UTC,,,
0EMSAJGXQN91YNX167JBZ9PJJY,116,1537980,2021-01-16 00:06:47 UTC,,,
0EMSAJKZYRS8R83ZAT0Q8RKAAY,116,1537980,2021-01-16 00:06:57 UTC,,,
0EMSAJQ10T8CGS0KHSC0RTVX63,116,1537980,2021-01-16 00:07:07 UTC,,,
0EMSAJT2MWCPSDFM1X8H6E5Y39,116,1537980,2021-01-16 00:07:17 UTC,,,
0EMSAJX6KV3HZ8WBGZB931XF48,116,1537980,2021-01-16 00:07:27 UTC,,,
0EMSAK377Z5EFD5SZCRRG2Z5ZQ,116,1537980,2021-01-16 00:07:47 UTC,,,
0EMSAK6A0SVAT46J03P8HE31EX,116,1537980,2021-01-16 00:07:57 UTC,,,
0EMSAK9A7X09W16K9JN9MHGWC9,116,1537980,2021-01-16 00:08:07 UTC,,,
0EMSAKCB4TEPHMXCP03A7HPHN0,116,1537980,2021-01-16 00:08:17 UTC,,,
0EMSAKFE10G3C2FE52QNR9CDW2,116,1537980,2021-01-16 00:08:27 UTC,,,
0EMSAKJF0EKC64CARFN6Z6MQS3,116,1537980,2021-01-16 00:08:37 UTC,,,
0EMSAKNGYPRTYMR5DHMM7DJ21X,116,1537980,2021-01-16 00:08:47 UTC,,,
0EMSAKRJ7HSED433YRW6YA2EW3,116,1537980,2021-01-16 00:08:57 UTC,,,
0EMSAKVMVHP028EHGFANK5YM3W,115,1537980,2021-01-16 00:09:07 UTC,,,
0EMSAKYNRWD6006A1WWEA337E3,115,1537980,2021-01-16 00:09:17 UTC,,,
0EMSAM1QMX9BEQ79YMRK29BBMP,116,1537980,2021-01-16 00:09:27 UTC,,,
0EMSAM4SK3YDSAPWQ3K94WBYKG,116,1537980,2021-01-16 00:09:37 UTC,,,
0EMSAM7SZVGEW3XB13WT38WY0P,117,1537980,2021-01-16 00:09:47 UTC,,,
0EMSAMAWJ0XW4TS2NX8XQCZV0H,117,1537980,2021-01-16 00:09:57 UTC,,,
0EMSAMM1C40JKC7MGEDFAF6GBC,116,1537980,2021-01-16 00:10:27 UTC,,,
0EMSAMQ21P0QK5DS77WTVA3GMR,117,1537980,2021-01-16 00:10:37 UTC,,,
0EMSAMT5BT27T9ENE5E87H3AZ6,117,1537980,2021-01-16 00:10:47 UTC,,,
0EMSAMX7APZEYP3WJ8RAKTER2W,115,1537980,2021-01-16 00:10:57 UTC,,,
0EMSAN081XWAR5SMNRQJZJFR9R,116,1537980,2021-01-16 00:11:07 UTC,,,
0EMSAN3A07EJ8YA5FE1SAZ1KBG,116,1537980,2021-01-16 00:11:17 UTC,,,
0EMSAN6C1K6WTDSRWRJHXFS797,117,1537980,2021-01-16 00:11:27 UTC,,,
0EMSAN9DWXPSEFRTCHYK86ZRBT,118,1537980,2021-01-16 00:11:37 UTC,,,
0EMSANCEV5MHBS4S5M1KVMHSRT,118,1537980,2021-01-16 00:11:47 UTC,,,
0EMSANFGQC9BQFZWHGYHZH9HTE,119,1537980,2021-01-16 00:11:57 UTC,,,
0EMSANJJTCCMXFKVSHY2PP9Q3Q,120,1537980,2021-01-16 00:12:07 UTC,,,
0EMSANNMREAEE11WVSBBXYNP9C,120,1537980,2021-01-16 00:12:17 UTC,,,
0EMSANRNQJJY1E7NB1MGQVA3F3,121,1537980,2021-01-16 00:12:27 UTC,,,
0EMSANVQH6DFEB4G9EYBE6CCHJ,121,1537980,2021-01-16 00:12:37 UTC,,,
0EMSANYRJBZZPDQFX6175RJSQ4,121,1537980,2021-01-16 00:12:47 UTC,,,
0EMSAP1S990ZHAJM0B37MM4607,121,1537980,2021-01-16 00:12:57 UTC,,,
0EMSAP4VGG7H1WX0KM8JJFABCB,121,1537980,2021-01-16 00:13:07 UTC,,,
0EMSAP7YRVWXXVVVCAKV0B31JM,120,1537980,2021-01-16 00:13:17 UTC,,,
0EMSAPB0FKKCGRN333A8MVVGP7,120,1537980,2021-01-16 00:13:27 UTC,,,
0EMSAPE07NDKCZN7HXJDHX8ED3,120,1537980,2021-01-16 00:13:37 UTC,,,
0EMSAPH45NYWB9KM7KF8XQ323P,120,1537980,2021-01-16 00:13:47 UTC,,,
0EMSAPM41X255M971R0FMC3E7P,120,1537980,2021-01-16 00:13:57 UTC,,,
0EMSAPQ4X19G2TQ7AXJW6CJR2Z,119,1537980,2021-01-16 00:14:07 UTC,,,
0EMSAPT7TP0WH2RNYD8NQKR4ZD,119,1537980,2021-01-16 00:14:17 UTC,,,
0EMSAPX905CED6QYYQHPFNBD8M,119,1537980,2021-01-16 00:14:27 UTC,,,
0EMSAQ0BSQMCXTPJ5PG2H7ZB6S,119,1537980,2021-01-16 00:14:37 UTC,,,
0EMSAQ3CP5JSH4BPRFHEN1XGCD,119,1537980,2021-01-16 00:14:47 UTC,,,
0EMSAQ6DQM59049ST49P91JC2D,119,1537980,2021-01-16 00:14:57 UTC,,,
0EMSAQ9HH23AR9HN4J59MK6T1V,119,1537980,2021-01-16 00:15:07 UTC,,,
0EMSAQCKNQ9SMNJ38FE3YE850V,118,1537980,2021-01-16 00:15:17 UTC,,,
0EMSAQFKHWT71V0NM07AS1E56B,118,1537980,2021-01-16 00:15:27 UTC,,,
0EMSAQJPMNBXECJGYP4MKDV2TX,118,1537980,2021-01-16 00:15:37 UTC,,,
0EMSAQNQ9RSQ66E6DZBZM6QRYX,118,1537980,2021-01-16 00:15:47 UTC,,,
0EMSAQRS7SKVZEV79C2BDC9RWQ,117,1537980,2021-01-16 00:15:57 UTC,,,
0EMSAQVV6KAEZEY20CVXKKE29W,117,1537980,2021-01-16 00:16:07 UTC,,,
0EMSAQYW7DKKTQFW0PRW2QHE34,117,1537980,2021-01-16 00:16:17 UTC,,,
0EMSAR1XG414X2AN2AQY5Q79JS,117,1537980,2021-01-16 00:16:27 UTC,,,
0EMSAR4Z29NKR85JXNERRW4A38,117,1537980,2021-01-16 00:16:37 UTC,,,
0EMSAR81X5BZENFCBZPZWTVHCZ,117,1537980,2021-01-16 00:16:47 UTC,,,
0EMSARB1XABDY5G1XNCQHGWKMQ,116,1537980,2021-01-16 00:16:57 UTC,,,
0EMSARE2MR9VWAWN7P93J34P5Q,116,1537980,2021-01-16 00:17:07 UTC,,,
0EMSARH5Q4QZXMTD8FQZEMH4TM,116,1537980,2021-01-16 00:17:17 UTC,,,
0EMSARM7NAR4J97CBF1GS79S30,116,1537980,2021-01-16 00:17:27 UTC,,,
0EMSARQ9140X9RQEVBC5PM3G3V,116,1537980,2021-01-16 00:17:37 UTC,,,
0EMSARTBHSN0TEKNY86HS8V6MS,116,1537980,2021-01-16 00:17:47 UTC,,,
0EMSARXBPDM13JMA1462PN85JX,115,1537980,2021-01-16 00:17:57 UTC,,,
0EMSAS0CWZPJN94JNZH045JH97,115,1537980,2021-01-16 00:18:07 UTC,,,
0EMSAS3FEH6A8M5WNS4C9V6ZR1,115,1537980,2021-01-16 00:18:17 UTC,,,
0EMSAS6GAMPD6065RBZGGZSGNY,115,1537980,2021-01-16 00:18:27 UTC,,,
0EMSAS9JAKKYNWQ8VPGDDKCE7H,115,1537980,2021-01-16 00:18:37 UTC,,,
0EMSASCN7Z7YMAXTXDAMBG5E17,115,1537980,2021-01-16 00:18:47 UTC,,,
0EMSASFQ7A6E07YHZCE6S7KXCH,114,1537980,2021-01-16 00:18:57 UTC,,,
0EMSASJR1PFZ5Z0EPTSZT42H8F,114,1537980,2021-01-16 00:19:07 UTC,,,
0EMSASNT3G8VRRJDMHZKKZXJ9D,114,1537980,2021-01-16 00:19:17 UTC,,,
0EMSASRVZ8DGMSZVMDCAEXJE8T,114,1537980,2021-01-16 00:19:27 UTC,,,
0EMSASVWXQ0M9J1EVN06XKNE0T,114,1537980,2021-01-16 00:19:37 UTC,,,
0EMSASYXRTDZ817PXKY5CG828Y,114,1537980,2021-01-16 00:19:47 UTC,,,
0EMSAT20R8SR9N9Z2VQYCSKAED,113,1537980,2021-01-16 00:19:57 UTC,,,
0EMSAT51RSD18JKQKKEKJ08KK7,113,1537980,2021-01-16 00:20:07 UTC,,,
0EMSAT83N34EPJJK38G68D07KC,113,1537980,2021-01-16 00:20:17 UTC,,,
0EMSATB5H444RSH5ANC11CC18P,113,1537980,2021-01-16 00:20:27 UTC,,,
0EMSATE7DE2XW9YPVXWBPN3AGA,113,1537980,2021-01-16 00:20:37 UTC,,,
0EMSATH9EVHHQF8SEK069NVFCG,113,1537980,2021-01-16 00:20:47 UTC,,,
0EMSATM8Z782ZDGW0MYZ0NFG8W,112,1537980,2021-01-16 00:20:57 UTC,,,
0EMSATQD5VR3HNABRE3NN3GT81,112,1537980,2021-01-16 00:21:07 UTC,,,
0EMSATTE93FGPH19JKYMF8CM05,114,1537980,2021-01-16 00:21:17 UTC,,,
0EMSATXE5W796AF9X9V6YTTAVT,115,1537980,2021-01-16 00:21:27 UTC,,,
0EMSAV0H7BQBXY7Q2ZRJFZC8G4,116,1537980,2021-01-16 00:21:37 UTC,,,
0EMSAV3K1DHJGBMKQVEZQ2GHTX,118,1537980,2021-01-16 00:21:47 UTC,,,
0EMSAV6M8GYZR9DASMKTVFHDTH,119,1537980,2021-01-16 00:21:57 UTC,,,
0EMSAV9NYV2V9NCFRDMWG6MKYK,121,1537980,2021-01-16 00:22:07 UTC,,,
0EMSAVCPVPNR1E1V1NG70B5QMT,123,1537980,2021-01-16 00:22:17 UTC,,,
0EMSAVFQV1592T63Q7NT7PMA60,125,1537980,2021-01-16 00:22:27 UTC,,,
0EMSAVJT6R75PPJ6921BVBGHZZ,124,1537980,2021-01-16 00:22:37 UTC,,,
0EMSAVNWMYMSHTHRHSQP0HRBZ0,124,1537980,2021-01-16 00:22:47 UTC,,,
0EMSAVRXP5Y4DW9D3H68WWSYBF,126,1537980,2021-01-16 00:22:57 UTC,,,
0EMSAVVYK72N7S3QJBZJ2NR2TE,126,1537980,2021-01-16 00:23:07 UTC,,,
0EMSAVZ1G3XGJ4X0RXB8Y5WWD0,125,1537980,2021-01-16 00:23:17 UTC,,,
0EMSAW55DZW41YC2Y4QQYZ7AT2,126,1537980,2021-01-16 00:23:37 UTC,,,
0EMSAW86AMBH7ZXTAATAV3D2JQ,126,1537980,2021-01-16 00:23:47 UTC,,,
0EMSAWB79Y0QKDCMTFX0BY2YFP,126,1537980,2021-01-16 00:23:57 UTC,,,
0EMSAWEAEXMYGQT5X2BWY2472Z,126,1537980,2021-01-16 00:24:07 UTC,,,
0EMSAWHB56SG9YASY07NV2QPE8,126,1537980,2021-01-16 00:24:17 UTC,,,
0EMSAWMC0Q265VE7QGBB1GAQS3,126,1537980,2021-01-16 00:24:27 UTC,,,
0EMSAWQF5DV6CV3KC31KYSS3S9,125,1537980,2021-01-16 00:24:37 UTC,,,
0EMSAWTFZQKWW5V22CX0N8854D,125,1537980,2021-01-16 00:24:47 UTC,,,
0EMSAWXGWR7FR3154PM97RENWZ,125,1537980,2021-01-16 00:24:57 UTC,,,
0EMSAX0KTTZ7KCQWYRCGJJ1GWT,125,1537980,2021-01-16 00:25:07 UTC,,,
0EMSAX3NQANXK6RQFRQMQH437J,125,1537980,2021-01-16 00:25:17 UTC,,,
0EMSAX6PR0M3BJHNPMG14YH8E4,125,1537980,2021-01-16 00:25:27 UTC,,,
0EMSAX9RSB65Y58VQ4V918446Z,124,1537980,2021-01-16 00:25:37 UTC,,,
0EMSAXCTJWGR2T66ZAC6X92312,124,1537980,2021-01-16 00:25:47 UTC,,,
0EMSAXFVGYEM7GJW15KQJRXH7W,124,1537980,2021-01-16 00:25:57 UTC,,,
0EMSAXJXDT8HJEZ4XVV1688G1S,124,1537980,2021-01-16 00:26:07 UTC,,,
0EMSAXNYC6C6T2P37WEV46HGYZ,124,1537980,2021-01-16 00:26:17 UTC,,,
0EMSAXS1D72ZV014BKDEN8D3SF,123,1537980,2021-01-16 00:26:27 UTC,,,
0EMSAXW3C2YC16XBHT0KWJMNZ7,123,1537980,2021-01-16 00:26:37 UTC,,,
0EMSAXZ589JH93MCBQ51Y1B6SX,123,1537980,2021-01-16 00:26:47 UTC,,,
0EMSAY264YS9DCX088YRJHF9WR,123,1537980,2021-01-16 00:26:57 UTC,,,
0EMSAY572BTJZ1TJ71CBE8N1CB,123,1537980,2021-01-16 00:27:07 UTC,,,
0EMSAY89XRC59G8945T5FXCDTP,123,1537980,2021-01-16 00:27:17 UTC,,,
0EMSAYBAYG0EXK8FX0C5M309YM,122,1537980,2021-01-16 00:27:27 UTC,,,
0EMSAYEC37N3ZKVPEWD84KENT0,122,1537980,2021-01-16 00:27:37 UTC,,,
0EMSAYHEVBTZW1MW344T06DDGB,122,1537980,2021-01-16 00:27:47 UTC,,,
0EMSAYMG8P585KGBMK7Y6HPBCV,122,1537980,2021-01-16 00:27:57 UTC,,,
0EMSAYQHNY73D13RQHTVCPNQF9,122,1537980,2021-01-16 00:28:07 UTC,,,
0EMSAYTJKX81XW6AKR33M1X8E3,121,1537980,2021-01-16 00:28:17 UTC,,,
0EMSAYXNJ2EQQY2FKAHXNFQTNE,121,1537980,2021-01-16 00:28:27 UTC,,,
0EMSAZ0NHVDC2XB918FEMH2XPP,121,1537980,2021-01-16 00:28:37 UTC,,,
0EMSAZ3RDWT1NFS6T4AWX5F2DR,121,1537980,2021-01-16 00:28:47 UTC,,,
0EMSAZ6TCWFRVK4PXX14J6P0XX,121,1537980,2021-01-16 00:28:57 UTC,,,
0EMSAZ9VA61QKGESZ1PVWBVZW7,120,1537980,2021-01-16 00:29:07 UTC,,,
0EMSAZCW8HS5PSPTDRCMVJTVVT,120,1537980,2021-01-16 00:29:17 UTC,,,
0EMSAZFZH8WA16AAGFE91XR9NH,120,1537980,2021-01-16 00:29:27 UTC,,,
0EMSAZK05F4HG847CNWNJQTB2N,120,1537980,2021-01-16 00:29:37 UTC,,,
0EMSAZP150M9X1JFYGQBQ0K3P6,120,1537980,2021-01-16 00:29:47 UTC,,,
0EMSAZS546EEA32A1PES3RG0VP,120,1537980,2021-01-16 00:29:57 UTC,,,
0EMSAZW4YJZ9NH8T60SWYWH4E3,120,1537980,2021-01-16 00:30:07 UTC,,,
0EMSAZZ5XSSHV5M7S3MFCEYSWT,119,1537980,2021-01-16 00:30:17 UTC,,,
0EMSB028XNECZX5E51DF4ZZF3S,119,1537980,2021-01-16 00:30:27 UTC,,,
0EMSB05AQT9DPZ08VGTX3HBMBA,119,1537980,2021-01-16 00:30:37 UTC,,,
0EMSB08BMVP7BJ78HZEABCBEQ0,119,1537980,2021-01-16 00:30:47 UTC,,,
0EMSB0BEKX8V800SFP01KVBDD3,119,1537980,2021-01-16 00:30:57 UTC,,,
0EMSB0EEGAVDDPGBPYXXY8E7AH,119,1537980,2021-01-16 00:31:07 UTC,,,
0EMSB0MJJJVXCY7J8C02P41YX7,118,1537980,2021-01-16 00:31:27 UTC,,,
0EMSB0QKKY1DR71EWDK7A2KTPC,118,1537980,2021-01-16 00:31:37 UTC,,,
0EMSB0TREJRE43H38WJMGZQZS8,118,1537980,2021-01-16 00:31:47 UTC,,,
0EMSB0XPB47D76ZCT5KF35MS7X,118,1537980,2021-01-16 00:31:57 UTC,,,
0EMSB10SBY5HJXTQTZBE56GEWD,118,1537980,2021-01-16 00:32:07 UTC,,,
0EMSB13W78DDV6ZS9JTAWV0E4B,117,1537980,2021-01-16 00:32:17 UTC,,,
0EMSB16W3NM7DRZH1BWVRXD2BV,117,1537980,2021-01-16 00:32:27 UTC,,,
0EMSB19X5G8HGCY1CAZ3ENNPF6,117,1537980,2021-01-16 00:32:37 UTC,,,
0EMSB1CZZ79Z2NDX5D8JTD0G0M,117,1537980,2021-01-16 00:32:47 UTC,,,
0EMSB1G0XY9R5N1B75GAWGHVGB,117,1537980,2021-01-16 00:32:57 UTC,,,
0EMSB1K2Y5SY14MB3QPK808YKP,117,1537980,2021-01-16 00:33:07 UTC,,,
0EMSB1P497G5C4W4SJ2S12N136,117,1537980,2021-01-16 00:33:17 UTC,,,
0EMSB1S6PHAX53ZQ3B1CH6RM7Z,116,1537980,2021-01-16 00:33:27 UTC,,,
0EMSB1W7MY0MWGGTR1DJJ95VAZ,116,1537980,2021-01-16 00:33:37 UTC,,,
0EMSB1Z9HZ7NSXGFTRNFRCH9JK,116,1537980,2021-01-16 00:33:47 UTC,,,
0EMSB22BFXNQJZ55NDQ0E2CYZD,116,1537980,2021-01-16 00:33:57 UTC,,,
0EMSB25CRCHWHFKN97VHDW9YBD,116,1537980,2021-01-16 00:34:07 UTC,,,
0EMSB28EKZWZF2B9RVNNFHMQ22,116,1537980,2021-01-16 00:34:17 UTC,,,
0EMSB2BGQ7H023PGZ06THJHHS3,116,1537980,2021-01-16 00:34:27 UTC,,,
0EMSB2EH8K8EWTT6A672SS029P,115,1537980,2021-01-16 00:34:37 UTC,,,
0EMSB2HK7P3YR1WVNS6BTQKG92,115,1537980,2021-01-16 00:34:47 UTC,,,
0EMSB2MM5FRHMBHSKJW5KF6VJX,115,1537980,2021-01-16 00:34:57 UTC,,,
0EMSB2QQCQEQ1K6WZQ8CFKCTP3,115,1537980,2021-01-16 00:35:07 UTC,,,
0EMSB33XQHZDANQQV2JYHHJKX1,114,1537980,2021-01-16 00:35:47 UTC,,,
0EMSB36YR3714Y8AC6N19N3XPB,114,1537980,2021-01-16 00:35:57 UTC,,,
0EMSB3A25KDKA6KKWQ5ZYMEFW7,114,1537980,2021-01-16 00:36:07 UTC,,,
0EMSB3D4KAQEM2M89V726C0YXE,114,1537980,2021-01-16 00:36:17 UTC,,,
0EMSB3G3H9WDFHAYTGF4MXSQWQ,114,1537980,2021-01-16 00:36:27 UTC,,,
0EMSB3K5FT9JB1MFQ9RFBB8D5E,114,1537980,2021-01-16 00:36:37 UTC,,,
0EMSB3P6D2G64QEC53TQQQN2DK,114,1537980,2021-01-16 00:36:47 UTC,,,
0EMSB3S9BZ4N0HQ7Z485CJCSVB,113,1537980,2021-01-16 00:36:57 UTC,,,
0EMSB3WAA5758JP7KVVSES2J5A,113,1537980,2021-01-16 00:37:07 UTC,,,
0EMSB3ZCB31PP0HS49BJP9P36P,113,1537980,2021-01-16 00:37:17 UTC,,,
0EMSB42DMHVFMKA5GZGE70XVXV,113,1537980,2021-01-16 00:37:27 UTC,,,
0EMSB45G7976DDYP0AMK23KK8A,113,1537980,2021-01-16 00:37:37 UTC,,,
0EMSB48H3VYVB3MBMY2WTTM71R,113,1537980,2021-01-16 00:37:47 UTC,,,
0EMSB4BJ096RQ51W4G0WP344FA,112,1537980,2021-01-16 00:37:57 UTC,,,
0EMSB4EMZ4XCXTCKDDGNS8XZMA,112,1537980,2021-01-16 00:38:07 UTC,,,
0EMSB4HTM5SK5CZ255T4F93V8B,112,1537980,2021-01-16 00:38:17 UTC,,,
0EMSB4MPT8J5A6SZAQE87JBQYZ,112,1537980,2021-01-16 00:38:27 UTC,,,
0EMSB4QRRK6CF6ZQ0SCPJEW45F,112,1537980,2021-01-16 00:38:37 UTC,,,
0EMSB4TVNKPHXQHCR45T2S98GH,112,1537980,2021-01-16 00:38:47 UTC,,,
0EMSB4XXKYVV781FPKZAV4AMCQ,112,1537980,2021-01-16 00:38:57 UTC,,,
0EMSB50YNMJW7SJPKVJBGBQ9GN,112,1537980,2021-01-16 00:39:07 UTC,,,
0EMSB53ZM94DFRP0BWXWZV6JMR,112,1537980,2021-01-16 00:39:17 UTC,,,
0EMSB572MFEGQJCQ7DBPN5MM00,112,1537980,2021-01-16 00:39:27 UTC,,,
0EMSB5A3GN3829652SA3A6WB8R,112,1537980,2021-01-16 00:39:37 UTC,,,
0EMSB5D4SDDT8F1C6DK50HEC6W,112,1537980,2021-01-16 00:39:47 UTC,,,
0EMSB5G6F3RHQRPPC19VFJH7GN,111,1537980,2021-01-16 00:39:57 UTC,,,
0EMSB5K95KVV5TCJN41ER2AFMK,112,1537980,2021-01-16 00:40:07 UTC,,,
0EMSB5SC10EQHZME33D7XM9TA0,112,1537980,2021-01-16 00:40:27 UTC,,,
0EMSB5WE1R593TH2AJH2HB89W4,112,1537980,2021-01-16 00:40:37 UTC,,,
0EMSB5ZG3M8CW32CD84B6B05JV,112,1537980,2021-01-16 00:40:47 UTC,,,
0EMSB62H3C2A0BGT968FZSSR3R,112,1537980,2021-01-16 00:40:57 UTC,,,
0EMSB65HRSQ1YQWH96QB2STBR5,112,1537980,2021-01-16 00:41:07 UTC,,,
0EMSB68KR105QHXNA132MF91X4,112,1537980,2021-01-16 00:41:17 UTC,,,
0EMSB6BMR4YGP006D7T5F5PWTJ,111,1537980,2021-01-16 00:41:27 UTC,,,
0EMSB6EQMCDQZ0M8Z5GKYQMBVK,112,1537980,2021-01-16 00:41:37 UTC,,,
0EMSB6HSMVWS4D13ZPZHWEDTV9,112,1537980,2021-01-16 00:41:47 UTC,,,
0EMSB6MTFDMAZZE70DY29VAGBQ,112,1537980,2021-01-16 00:41:57 UTC,,,
0EMSB6QV0ZZZSQM15EQP37ZQCA,112,1537980,2021-01-16 00:42:07 UTC,,,
0EMSB6TXDGDSA2KRYWKQ750GWB,112,1537980,2021-01-16 00:42:17 UTC,,,
0EMSB6XZBQ7XBKDYAZY4011J9H,112,1537980,2021-01-16 00:42:27 UTC,,,
0EMSB711CYA5M2YHSG8WQ3SWCH,112,1537980,2021-01-16 00:42:37 UTC,,,
0EMSB74272QFWHSVTH45DP0CQF,112,1537980,2021-01-16 00:42:47 UTC,,,
0EMSB7746WMH6C2JXG4GH6FJB7,112,1537980,2021-01-16 00:42:57 UTC,,,
0EMSB7A66GCW55T63TFH110SK8,112,1537980,2021-01-16 00:43:07 UTC,,,
0EMSB7D8310Y4QMB4A5KQA1T8A,112,1537980,2021-01-16 00:43:17 UTC,,,
0EMSB7G90RC4NG7NAENSRE72M3,111,1537980,2021-01-16 00:43:27 UTC,,,
0EMSB7KBY0Z3RX9WHB8D4VTYQW,112,1537980,2021-01-16 00:43:37 UTC,,,
0EMSB7PDQZ04C4Z1KQJQBVJ0CD,112,1537980,2021-01-16 00:43:47 UTC,,,
0EMSB7SESPYB825STFPJSJT9NF,112,1537980,2021-01-16 00:43:57 UTC,,,
0EMSB7WFTX8ES4QM8712BSYWS2,112,1537980,2021-01-16 00:44:07 UTC,,,
0EMSB7ZKKNHM156E3HRCB7756Y,112,1537980,2021-01-16 00:44:17 UTC,,,
0EMSB82MQDZXK7AFZH6W4NMWTB,112,1537980,2021-01-16 00:44:27 UTC,,,
0EMSB85NGWQ05DDVPWVV819QRQ,112,1537980,2021-01-16 00:44:37 UTC,,,
0EMSB88PGP1CG9J50SZCQRM8H0,112,1537980,2021-01-16 00:44:47 UTC,,,
0EMSB8BSFFSC5Z44HJWDK8V03H,112,1537980,2021-01-16 00:44:57 UTC,,,
0EMSB8EXBCT7D301SMBRM6BX27,112,1537980,2021-01-16 00:45:07 UTC,,,
0EMSB8HWA2G8PXP1EV1JGHTXHG,113,1537980,2021-01-16 00:45:17 UTC,,,
0EMSB8MXFMQ5NVS1JH1ADZBMNP,113,1537980,2021-01-16 00:45:27 UTC,,,
0EMSB8WD9YEKQQHY4H84JVYR38,113,1537980,2021-01-16 00:45:52 UTC,,,
0EMSB8WK1X4FBSX1N33A187XJH,113,1537980,2021-01-16 00:45:52 UTC,,,
0EMSB8Y278MQBQAGFQHKGXE1Y6,114,1537980,2021-01-16 00:45:57 UTC,,,
0EMSB9152X5KMQRXS6C0Z0Y3P1,114,1537980,2021-01-16 00:46:07 UTC,,,
0EMSB945YQB8JG2Z44Y3QRQF3H,114,1537980,2021-01-16 00:46:17 UTC,,,
0EMSB9778PNR72SDXRT39E9R3M,115,1537980,2021-01-16 00:46:27 UTC,,,
0EMSB9A931SNYPCJR4J0M43Q60,115,1537980,2021-01-16 00:46:37 UTC,,,
0EMSB9D9Y5XQ74T81NZDTMPTVB,115,1537980,2021-01-16 00:46:47 UTC,,,
0EMSB9GCN07R60MSSAKJMSGR6Z,115,1537980,2021-01-16 00:46:57 UTC,,,
0EMSB9KEJF1MT3ETYA203XW2J4,116,1537980,2021-01-16 00:47:07 UTC,,,
0EMSB9PFSCT2X4AE3ES0N8G267,116,1537980,2021-01-16 00:47:17 UTC,,,
0EMSB9SJGPK0WW5HJ00FDFDRVH,116,1537980,2021-01-16 00:47:27 UTC,,,
0EMSB9WKPFGYVZM5M8JCAPWWZR,116,1537980,2021-01-16 00:47:37 UTC,,,
0EMSB9ZMB8B09KMSPMD3RQ7PFM,116,1537980,2021-01-16 00:47:47 UTC,,,
0EMSBA2Q9WSRH3RKKST07CFJ6Y,116,1537980,2021-01-16 00:47:57 UTC,,,
0EMSBA5RD5HVQJ2JG9Q2H9RFBY,116,1537980,2021-01-16 00:48:07 UTC,,,
0EMSBA8T7KYS87DY2MKNNTTCWA,116,1537980,2021-01-16 00:48:17 UTC,,,
0EMSBABW54PD6CH53MHDEDFQGS,116,1537980,2021-01-16 00:48:27 UTC,,,
0EMSBAEW6E4CXG90WD6KG7ASCM,116,1537980,2021-01-16 00:48:37 UTC,,,
0EMSBAHZ0511D8D2FYS3PY415C,116,1537980,2021-01-16 00:48:47 UTC,,,
0EMSBAN0YXHYZB59DSP9RVKRJZ,116,1537980,2021-01-16 00:48:57 UTC,,,
0EMSBAR1WZ7D99AF0508HZ65ED,116,1537980,2021-01-16 00:49:07 UTC,,,
0EMSBAV2VGA52P6S52211GYSHJ,115,1537980,2021-01-16 00:49:17 UTC,,,
0EMSBAY5RVQXRJ3AQK0MJ706TB,115,1537980,2021-01-16 00:49:27 UTC,,,
0EMSBB17QB05EB1KYRT7W96EZF,115,1537980,2021-01-16 00:49:37 UTC,,,
0EMSBB48R2YM2CSS5N4RN7BG26,115,1537980,2021-01-16 00:49:47 UTC,,,
0EMSBB7APCVJ2SZF6TPGWMP6XP,114,1537980,2021-01-16 00:49:57 UTC,,,
0EMSBBADG7469RPHQYC521AXPY,114,1537980,2021-01-16 00:50:07 UTC,,,
0EMSBBDDHTD3AB1YNBFHCXF6H1,114,1537980,2021-01-16 00:50:17 UTC,,,
0EMSBBGEDBBE19CYY4GG24TWNS,114,1537980,2021-01-16 00:50:27 UTC,,,
0EMSBBKJ16KMEV5KWFYDG288AF,114,1537980,2021-01-16 00:50:37 UTC,,,
0EMSBBPMC42FNTZFWV51CTR9WM,114,1537980,2021-01-16 00:50:47 UTC,,,
0EMSBBSMBYMB5RXMYCZQPFCWX6,114,1537980,2021-01-16 00:50:57 UTC,,,
0EMSBBWP72A5NPBJ2C0SEG3WK9,114,1537980,2021-01-16 00:51:07 UTC,,,
0EMSBBZQ2T60BFJNTJ2MP9K484,114,1537980,2021-01-16 00:51:17 UTC,,,
0EMSBC2V0XBVRSP7TBSF376YAW,113,1537980,2021-01-16 00:51:27 UTC,,,
0EMSBC5V3NFT2VEWZR4K66E0KA,113,1537980,2021-01-16 00:51:37 UTC,,,
0EMSBC8VVV1FGVB0V02CD2EYAH,113,1537980,2021-01-16 00:51:47 UTC,,,
0EMSBCBYTX45E4FW95BNKTRW4C,113,1537980,2021-01-16 00:51:57 UTC,,,
0EMSBCF0R1W3PGWSPJFQV9DG05,113,1537980,2021-01-16 00:52:07 UTC,,,
0EMSBCJ0T41J97Y7BTJ7RQ18TZ,113,1537980,2021-01-16 00:52:17 UTC,,,
0EMSBCN3NXQ9B6FVEBXF5SWXEW,113,1537980,2021-01-16 00:52:27 UTC,,,
0EMSBCR4KBRNYHXMAZN0A2R0DV,113,1537980,2021-01-16 00:52:37 UTC,,,
0EMSBCV6H09MS050HFJK7PW9EZ,114,1537980,2021-01-16 00:52:47 UTC,,,
0EMSBCY8HJ03SWGQMTRFW057A1,114,1537980,2021-01-16 00:52:57 UTC,,,
0EMSBD19M6EBFTSFDP7MFGR6DF,114,1537980,2021-01-16 00:53:07 UTC,,,
0EMSBD4CBNC2GT3VECPRKYT9BE,114,1537980,2021-01-16 00:53:17 UTC,,,
0EMSBD7E7FD4H9HEEN6WCQTDC9,115,1537980,2021-01-16 00:53:27 UTC,,,
0EMSBDAGG8RDGZ0D18QXN9Q0P8,115,1537980,2021-01-16 00:53:37 UTC,,,
0EMSBDDH530M7GZ7P9R2JNEX41,115,1537980,2021-01-16 00:53:47 UTC,,,
0EMSBDGKA4C3990MYTPCBQF87A,115,1537980,2021-01-16 00:53:57 UTC,,,
0EMSBDKMET2TNCVC6WEF0T7BVV,116,1537980,2021-01-16 00:54:07 UTC,,,
0EMSBDPP2BJE2H58RFR27WQKK2,116,1537980,2021-01-16 00:54:17 UTC,,,
0EMSBDSQ3TQV0WG4E448FAKPSG,116,1537980,2021-01-16 00:54:27 UTC,,,
0EMSBDWSSVE6G1CCB0QAR9G8S8,116,1537980,2021-01-16 00:54:37 UTC,,,
0EMSBDZTW6PHE1WA7PJENEP72Z,116,1537980,2021-01-16 00:54:47 UTC,,,
0EMSBE2X7RJGZT9NSBCQXADGTF,116,1537980,2021-01-16 00:54:57 UTC,,,
0EMSBE5XJZP0C5JFME55F804GP,116,1537980,2021-01-16 00:55:07 UTC,,,
0EMSBE8ZJB5NFZ5GYRHQQ7KA1A,116,1537980,2021-01-16 00:55:17 UTC,,,
0EMSBEC0AH1D4GZR99ZG7E8N99,116,1537980,2021-01-16 00:55:27 UTC,,,
0EMSBEF3G9XDQ3VKZ8J40BC40H,116,1537980,2021-01-16 00:55:37 UTC,,,
0EMSBEJ5D860RHP2X0Z8CVCRY6,116,1537980,2021-01-16 00:55:47 UTC,,,
0EMSBEN6B5SJC4PYA4TD50WDDQ,116,1537980,2021-01-16 00:55:57 UTC,,,
0EMSBER7B0KXGMX7MC78CGA5R9,116,1537980,2021-01-16 00:56:07 UTC,,,
0EMSBEV97FTBSGZXKEDKVBDNQN,116,1537980,2021-01-16 00:56:17 UTC,,,
0EMSBEYB4Q5FRMQJ3A6AT692S6,116,1537980,2021-01-16 00:56:27 UTC,,,
0EMSBF1C1RD5M7GVE8JR0PQRAR,116,1537980,2021-01-16 00:56:37 UTC,,,
0EMSBF4F3DZP3S60A8KP0GWWPX,116,1537980,2021-01-16 00:56:47 UTC,,,
0EMSBF7HY0KHWWMQFC7PT0Q3RA,116,1537980,2021-01-16 00:56:57 UTC,,,
0EMSBFAH9ZDB1794MTGMEKMRWC,116,1537980,2021-01-16 00:57:07 UTC,,,
0EMSBFDN6PW2ZJBD05P1193NCW,115,1537980,2021-01-16 00:57:17 UTC,,,
0EMSBFGMTN0S627C096QXW00T1,115,1537980,2021-01-16 00:57:27 UTC,,,
0EMSBFKPP7JDZT335ZEJFEWJR1,115,1537980,2021-01-16 00:57:37 UTC,,,
0EMSBFPQMNR1T24KS9JAA3ES17,115,1537980,2021-01-16 00:57:47 UTC,,,
0EMSBFSTNN409C2SYWDVDHF7P4,115,1537980,2021-01-16 00:57:57 UTC,,,
0EMSBFZYJNN33Y3H7Z968F2083,114,1537980,2021-01-16 00:58:17 UTC,,,
0EMSBG2ZCGX44Q3GDNKVSDDB8T,114,1537980,2021-01-16 00:58:27 UTC,,,
0EMSBG60C08AWQQXMXGG36QTTB,114,1537980,2021-01-16 00:58:37 UTC,,,
0EMSBG918A69WJ5ETCPCJZQVBV,114,1537980,2021-01-16 00:58:47 UTC,,,
0EMSBGC479KXVX7YC3H3FPPHNN,114,1537980,2021-01-16 00:58:57 UTC,,,
0EMSBGF646S97DJFK9RTSG4CD3,114,1537980,2021-01-16 00:59:07 UTC,,,
0EMSBGJ752QE9FS836PEGN71H5,114,1537980,2021-01-16 00:59:17 UTC,,,
0EMSBGN935Q6SMST4VQHRQ3B01,114,1537980,2021-01-16 00:59:27 UTC,,,
0EMSBGRB5KB0XH2253S9FR197Z,114,1537980,2021-01-16 00:59:37 UTC,,,
0EMSBGVCY0DN6Q3F78DB8E12WN,114,1537980,2021-01-16 00:59:47 UTC,,,
0EMSBGYEV1RHRGE24XFDZ2EHTC,114,1537980,2021-01-16 00:59:57 UTC,,,
0EMSBH1FS681FESSHGW5JCN682,114,1537980,2021-01-16 01:00:07 UTC,,,
0EMSBH4HSASS6MPCM96R6CMPSQ,114,1537980,2021-01-16 01:00:17 UTC,,,
0EMSBH7KRKT0H5K486SA4HX0PE,114,1537980,2021-01-16 01:00:27 UTC,,,
0EMSBHAP3H6MN9KVFTGEH3DJHV,114,1537980,2021-01-16 01:00:37 UTC,,,
0EMSBHDPPC1YDA7AH25JF49AZK,115,1537980,2021-01-16 01:00:47 UTC,,,
0EMSBHGRG98X0WYA4Y4HTPVTEK,115,1537980,2021-01-16 01:00:57 UTC,,,
0EMSBHSXKFKEM1BSG8SV1728HA,116,1537980,2021-01-16 01:01:27 UTC,,,
0EMSBHWZHQ4WCD4Y2DAJ44BWZG,116,1537980,2021-01-16 01:01:37 UTC,,,
0EMSBJ007RGCSZ84Z88VHDSRAQ,116,1537980,2021-01-16 01:01:47 UTC,,,
0EMSBJ3258WFZFZ06AFB86SZN8,116,1537980,2021-01-16 01:01:57 UTC,,,
0EMSBJ633GZ3YFJ6J1KPE08ZF1,116,1537980,2021-01-16 01:02:07 UTC,,,
0EMSBJC6YT7GFFP17Y1FQM7SDF,116,1537980,2021-01-16 01:02:27 UTC,,,
0EMSBJF7V77DT3EHTBEH828T9T,116,1537980,2021-01-16 01:02:37 UTC,,,
0EMSBJJASNDKVAMPDADH380153,116,1537980,2021-01-16 01:02:47 UTC,,,
0EMSBJNCPD6EBW21SF3MF4MV4Q,116,1537980,2021-01-16 01:02:57 UTC,,,
0EMSBJRCQZZXBGAQAE5ESFDMA7,116,1537980,2021-01-16 01:03:07 UTC,,,
0EMSBJVFKR4KVWF9MARJQM92FE,116,1537980,2021-01-16 01:03:17 UTC,,,
0EMSBJYGGW39WP2D1AN6BZK6Q0,116,1537980,2021-01-16 01:03:27 UTC,,,
0EMSBK1JDZQ5D5GTFG1N876PQ6,116,1537980,2021-01-16 01:03:37 UTC,,,
0EMSBKDX38ZGN8TGGMEYMN1VDT,116,1537980,2021-01-16 01:04:17 UTC,,,
0EMSBKM3MSARJ0VQQ1KMBMH7CH,116,1537980,2021-01-16 01:04:38 UTC,,,
0EMSBKSZY85NPQC4XTSTRRQ5WB,116,1537980,2021-01-16 01:04:57 UTC,,,
0EMSBKX0VY4X6P64SPMBFGCR08,115,1537980,2021-01-16 01:05:07 UTC,,,
0EMSBM65PH8Q15BJNA5CNTNRBG,115,1537980,2021-01-16 01:05:37 UTC,,,
0EMSBM97RDK528MNAQBWV14TTF,115,1537980,2021-01-16 01:05:47 UTC,,,
0EMSBMC90CAT4RQE965Q4ZCZ69,115,1537980,2021-01-16 01:05:57 UTC,,,
0EMSBMFCGXZY7BCH2KNMN3PWYK,114,1537980,2021-01-16 01:06:07 UTC,,,
0EMSBMRFAH45TKCG1DT82Y34E3,114,1537980,2021-01-16 01:06:37 UTC,,,
0EMSBMVH3WMDH55MHCKRTQ77ZV,114,1537980,2021-01-16 01:06:47 UTC,,,
0EMSBMYM964EC7WR43RSJT9XF3,114,1537980,2021-01-16 01:06:57 UTC,,,
0EMSBN1P83KBA3EXF1FHCMJ93W,114,1537980,2021-01-16 01:07:07 UTC,,,
0EMSBNDWWVJ8J386W1KKVC658R,114,1537980,2021-01-16 01:07:47 UTC,,,
0EMSBNGXT5X6853GVYRSC5WMXW,115,1537980,2021-01-16 01:07:57 UTC,,,
0EMSBNKYRBRCE1Q5XCVEBCSMW1,115,1537980,2021-01-16 01:08:07 UTC,,,
0EMSBNQ113F6PZ6S1RHN8YV76F,115,1537980,2021-01-16 01:08:17 UTC,,,
0EMSBNT1T6WY36D3H19SJVXR13,115,1537980,2021-01-16 01:08:27 UTC,,,
0EMSBNX4N041VHEG7PC6Q1X9GS,115,1537980,2021-01-16 01:08:37 UTC,,,
0EMSBP06JJTTZQ8QX4WE94FHH3,115,1537980,2021-01-16 01:08:47 UTC,,,
0EMSBP37FDQ1WD1RXKBMPNYBFS,116,1537980,2021-01-16 01:08:57 UTC,,,
0EMSBP684KCWNYNTRAJ5B21E3H,116,1537980,2021-01-16 01:09:07 UTC,,,
0EMSBP9BC0ZBV06EFH0J2CR70Y,116,1537980,2021-01-16 01:09:17 UTC,,,
0EMSBPCC931PPVFBFW4VP3Y78Z,116,1537980,2021-01-16 01:09:27 UTC,,,
0EMSBPFD6XWD65C3MHR1PCH1SG,116,1537980,2021-01-16 01:09:37 UTC,,,
0EMSBPJFQNT8MWQBTNE0V8KZ72,116,1537980,2021-01-16 01:09:47 UTC,,,
0EMSBPNH2TQQPEHSCZ40FK9P76,116,1537980,2021-01-16 01:09:57 UTC,,,
0EMSBPRK7WTZC5AFWS8EAYV80M,116,1537980,2021-01-16 01:10:07 UTC,,,
0EMSBQ1R53J3S0P9DKA7W7G7TT,117,1537980,2021-01-16 01:10:37 UTC,,,
0EMSBQ4T2A8VTCX478M4K7E5A9,117,1537980,2021-01-16 01:10:47 UTC,,,
0EMSBQ7VPKV7P0HA8K7T3Y104G,117,1537980,2021-01-16 01:10:57 UTC,,,
0EMSBQAWKYFGZ7C1JNM04MNCN8,116,1537980,2021-01-16 01:11:07 UTC,,,
0EMSBQDXMV0WHHF6V13ZXFPEEF,116,1537980,2021-01-16 01:11:17 UTC,,,
0EMSBQH0KJKGY0JV5M22S06FD4,116,1537980,2021-01-16 01:11:27 UTC,,,
0EMSBQM1N05QRRNDTYHPAPYEGF,116,1537980,2021-01-16 01:11:37 UTC,,,
0EMSBQQ4F0ZZ8CE70E2X5ZN40Z,116,1537980,2021-01-16 01:11:47 UTC,,,
0EMSBQT5F21JD3FGQYNCHG81X8,116,1537980,2021-01-16 01:11:57 UTC,,,
0EMSBQX6MRWHF8AGMCAZAY6K5N,116,1537980,2021-01-16 01:12:07 UTC,,,
0EMSBR08C8KQDRBFQMP89WFNQN,116,1537980,2021-01-16 01:12:17 UTC,,,
0EMSBR395V4715GYSV9G9GTGMR,116,1537980,2021-01-16 01:12:27 UTC,,,
0EMSBR6C3CTE1BZY0EQN1V20A3,116,1537980,2021-01-16 01:12:37 UTC,,,
0EMSBR9F1P42ZT4NATGPYZGBHE,115,1537980,2021-01-16 01:12:47 UTC,,,
0EMSBRCGETHF237F3N29YX1ENT,115,1537980,2021-01-16 01:12:57 UTC,,,
0EMSBRFH9CJA85TF3R4WM9D7AT,115,1537980,2021-01-16 01:13:07 UTC,,,
0EMSBRJK29VSS0MEKVH3HGB5E1,115,1537980,2021-01-16 01:13:17 UTC,,,
0EMSBRNKSDAB742SRXNCHZ79TC,115,1537980,2021-01-16 01:13:27 UTC,,,
0EMSBRRMRPHQRBBSWTY1FBEPBD,115,1537980,2021-01-16 01:13:37 UTC,,,
0EMSBRVQPCZKZBQ10VH5S6AA6Q,115,1537980,2021-01-16 01:13:47 UTC,,,
0EMSBRYSJWHDB452S2QNJTKK8T,115,1537980,2021-01-16 01:13:57 UTC,,,
0EMSBS1THWX83TP0ZNTJJ4EYR7,115,1537980,2021-01-16 01:14:07 UTC,,,
0EMSBS4VF3KH71C3EJ42QGR759,115,1537980,2021-01-16 01:14:17 UTC,,,
0EMSBS7YCMF24X8V74D01HVVB2,115,1537980,2021-01-16 01:14:27 UTC,,,
0EMSBSB0A81GR6VFAX9P0556K4,115,1537980,2021-01-16 01:14:37 UTC,,,
0EMSBSE1CS4AJWGNTHG1BJNDRT,115,1537980,2021-01-16 01:14:47 UTC,,,
0EMSBSH38AJTRYYRSKRQ5AYNM9,114,1537980,2021-01-16 01:14:57 UTC,,,
0EMSBSM3X9Z8YVAJVVEPCM42AR,114,1537980,2021-01-16 01:15:07 UTC,,,
0EMSBSQ72B2K7XX4YX5H318XVY,114,1537980,2021-01-16 01:15:17 UTC,,,
0EMSBST81Z0QKSAJKRHH7DEQCA,115,1537980,2021-01-16 01:15:27 UTC,,,
0EMSBSX93NPMPRJ3SFA10G3GG1,115,1537980,2021-01-16 01:15:37 UTC,,,
0EMSBT0BEM6ADCMSYG1278AKRE,115,1537980,2021-01-16 01:15:47 UTC,,,
0EMSBT3CW8YV595PGXNK7P8E42,115,1537980,2021-01-16 01:15:57 UTC,,,
0EMSBT6DZYY8AMMTPJ6EMMXQZG,115,1537980,2021-01-16 01:16:07 UTC,,,
0EMSBT9GQ3E52TX1A1K06QA1GK,115,1537980,2021-01-16 01:16:17 UTC,,,
0EMSBTCH3G9F76GDJ884RFQ57Y,115,1537980,2021-01-16 01:16:27 UTC,,,
0EMSBTFKNXB2B6QQDSCB2K8JJV,116,1537980,2021-01-16 01:16:37 UTC,,,
0EMSBTJMN60MK7MM672H3WWT3W,116,1537980,2021-01-16 01:16:47 UTC,,,
0EMSBTNRENX241SF381903YVR5,116,1537980,2021-01-16 01:16:57 UTC,,,
0EMSBTRRCASWNA8WD6VZ52JDFY,116,1537980,2021-01-16 01:17:07 UTC,,,
0EMSBTVS5MJE6VY072XADSAX6W,116,1537980,2021-01-16 01:17:17 UTC,,,
0EMSBTYW8R0B72XY2ZBVWVX3J1,116,1537980,2021-01-16 01:17:27 UTC,,,
0EMSBV1YACB9XJ8JQPZSQC43P0,116,1537980,2021-01-16 01:17:37 UTC,,,
0EMSBV4YFSTAGA2FCCP3J9B22V,116,1537980,2021-01-16 01:17:47 UTC,,,
0EMSBV8147P4V499KB2YE5YTS4,116,1537980,2021-01-16 01:17:57 UTC,,,
0EMSBVB34760TFPR3PY7PCF9P7,116,1537980,2021-01-16 01:18:07 UTC,,,
0EMSBVE41AQ4F9XFWCN3RR4RS6,116,1537980,2021-01-16 01:18:17 UTC,,,
0EMSBVH5YAHCTBQ2C8DXWANSCK,116,1537980,2021-01-16 01:18:27 UTC,,,
0EMSBVM6DDZKVPXKX4D1Z8P9AW,116,1537980,2021-01-16 01:18:37 UTC,,,
0EMSBVQ94BTPE5HGHWZN53JDJK,116,1537980,2021-01-16 01:18:47 UTC,,,
0EMSBVT9QZ65C9F83PA7XJSWDZ,116,1537980,2021-01-16 01:18:57 UTC,,,
0EMSBVXBP2VSTMJ7WM9B0CHX2P,116,1537980,2021-01-16 01:19:07 UTC,,,
0EMSBW0FKK4D6JW493PFGZN37Z,116,1537980,2021-01-16 01:19:17 UTC,,,
0EMSBW3GKKNR4RX2T8TFY8E7EN,116,1537980,2021-01-16 01:19:27 UTC,,,
0EMSBW6HGTYF82HRYNCHTHRC7K,116,1537980,2021-01-16 01:19:37 UTC,,,
0EMSBW9J1JPVMCHASW5VQD2E5V,116,1537980,2021-01-16 01:19:47 UTC,,,
0EMSBWCNKBF93WA8A0QH1BT06G,116,1537980,2021-01-16 01:19:57 UTC,,,
0EMSBWFQF1PTB06Q0FF7EX3CHQ,116,1537980,2021-01-16 01:20:07 UTC,,,
0EMSBWJR7QEY4YZRZ91EBSBF7A,116,1537980,2021-01-16 01:20:17 UTC,,,
0EMSBWNS60K27FM99PT6322MN0,116,1537980,2021-01-16 01:20:27 UTC,,,
0EMSBWRW3H8E1JYNSV9QS24S53,116,1537980,2021-01-16 01:20:37 UTC,,,
0EMSBWVX3N1A1R5S341YTQA401,116,1537980,2021-01-16 01:20:47 UTC,,,
0EMSBWYZ1JW361VK28SWZDBSVG,116,1537980,2021-01-16 01:20:57 UTC,,,
0EMSBX1ZX9X2A9QX423X0Y9GZX,115,1537980,2021-01-16 01:21:07 UTC,,,
0EMSBX50XKVDENFPDE6A567Q2R,115,1537980,2021-01-16 01:21:17 UTC,,,
0EMSBX83SYEC2F9QRZWJ93B483,115,1537980,2021-01-16 01:21:27 UTC,,,
0EMSBXB4R62742ZZ2M3XS3HGSX,115,1537980,2021-01-16 01:21:37 UTC,,,
0EMSBXE8QE483Q93QT4YAHNAM0,115,1537980,2021-01-16 01:21:47 UTC,,,
0EMSBXH8P1AM12AN2YC9517Q7D,115,1537980,2021-01-16 01:21:57 UTC,,,
0EMSBXM929PMSP22JWK361C1Y6,115,1537980,2021-01-16 01:22:07 UTC,,,
0EMSBXQCFBGYAPXAZES7QYTYWQ,115,1537980,2021-01-16 01:22:17 UTC,,,
0EMSBXTDCYA9CQHB196XFKTTB1,115,1537980,2021-01-16 01:22:27 UTC,,,
0EMSBXXEAK1BJR95FR3CHT77Z3,115,1537980,2021-01-16 01:22:37 UTC,,,
0EMSBY0H9F020G115HX0CRJTEQ,115,1537980,2021-01-16 01:22:47 UTC,,,
0EMSBY3J7X7X0PDSXT7N73NS37,115,1537980,2021-01-16 01:22:57 UTC,,,
0EMSBY6KJQWEPTAP41YPQ92AHC,115,1537980,2021-01-16 01:23:07 UTC,,,
0EMSBY9P3PBA70ZC7XGWC4CHC1,115,1537980,2021-01-16 01:23:17 UTC,,,
0EMSBYCR242AGRXWN7SAX5QKC8,115,1537980,2021-01-16 01:23:27 UTC,,,
0EMSBYFS06NK270BAS8RMG5SQ9,115,1537980,2021-01-16 01:23:37 UTC,,,
0EMSBYJSWT3JGAVF50VMEJQ3A3,115,1537980,2021-01-16 01:23:47 UTC,,,
0EMSBYNWVZH34RFX7EMTD1BX73,115,1537980,2021-01-16 01:23:57 UTC,,,
0EMSBYRYAWMMSD96PFXD02FX9H,115,1537980,2021-01-16 01:24:07 UTC,,,
0EMSBYW05KASFB760PFNSCT52J,115,1537980,2021-01-16 01:24:17 UTC,,,
0EMSBYZ1SM6JX0XZHYW6AJ9F0P,115,1537980,2021-01-16 01:24:27 UTC,,,
0EMSBZ22JH9YJAEAMCWXTN3GNS,115,1537980,2021-01-16 01:24:37 UTC,,,
0EMSBZ53KTPWRCTC4EVKSSYXA2,115,1537980,2021-01-16 01:24:47 UTC,,,
0EMSBZ86ESE8ZW0DYX14MK0JCH,115,1537980,2021-01-16 01:24:57 UTC,,,
0EMSBZB8CDJBFFC9MWTEY9MYW9,116,1537980,2021-01-16 01:25:07 UTC,,,
0EMSBZE9BW5ZPA5MW9HPMQ23M8,116,1537980,2021-01-16 01:25:17 UTC,,,
0EMSBZHABK45Y2CR7CSZ4E25Y7,116,1537980,2021-01-16 01:25:27 UTC,,,
0EMSBZMD8TYGHD4HEQJQCT5HY4,116,1537980,2021-01-16 01:25:37 UTC,,,
0EMSBZQE5M0WSAEPJTRYSVQMC1,116,1537980,2021-01-16 01:25:47 UTC,,,
0EMSBZTH48GJBJN4FPAEPNAXWM,116,1537980,2021-01-16 01:25:57 UTC,,,
0EMSBZXH7R3ZPJVWY4951TBNX0,116,1537980,2021-01-16 01:26:07 UTC,,,
0EMSC00KCNTH6T6HV66FPED2DW,116,1537980,2021-01-16 01:26:17 UTC,,,
0EMSC03MX5N22RJP57DKRB8MSS,116,1537980,2021-01-16 01:26:27 UTC,,,
0EMSC06PVSNHWSPQ62CNJCFQ92,116,1537980,2021-01-16 01:26:37 UTC,,,
0EMSC09RWWPYP3PMPQN1HJ96V9,116,1537980,2021-01-16 01:26:47 UTC,,,
0EMSC0CWY243MY21H0DR22WW6N,116,1537980,2021-01-16 01:26:57 UTC,,,
0EMSC0FVTRWQGJAX1ZDZBXYQPY,116,1537980,2021-01-16 01:27:07 UTC,,,
0EMSC0JWN64R1ET0H617NG7J98,116,1537980,2021-01-16 01:27:17 UTC,,,
0EMSC0NZKHFPGFDZ2A09T0KVHH,116,1537980,2021-01-16 01:27:27 UTC,,,
0EMSC0S0HY9SMH991DCK9NYJ0S,116,1537980,2021-01-16 01:27:37 UTC,,,
0EMSC0W3FKAV0GXWYSFJC8EF86,116,1537980,2021-01-16 01:27:47 UTC,,,
0EMSC0Z4EE9QV72JV358T1KTMH,116,1537980,2021-01-16 01:27:57 UTC,,,
0EMSC125ADN2KVMSCJYFNQD5DE,116,1537980,2021-01-16 01:28:07 UTC,,,
0EMSC1589QPWAZXVV2C3GZ7N2K,116,1537980,2021-01-16 01:28:17 UTC,,,
0EMSC1896W6TT9Q3H7DFJWV22S,116,1537980,2021-01-16 01:28:27 UTC,,,
0EMSC1BB4GJ5A21TKEW0431655,116,1537980,2021-01-16 01:28:37 UTC,,,
0EMSC1EC1F2TYDAXCJC7JG1J9R,116,1537980,2021-01-16 01:28:47 UTC,,,
0EMSC1HDZC61WTVMAMP7KGPZVR,115,1537980,2021-01-16 01:28:57 UTC,,,
0EMSC1MF55ETVPN6ZYZ5SG932C,115,1537980,2021-01-16 01:29:07 UTC,,,
0EMSC1QJVFBQ3SW7R3KETTZ5TR,115,1537980,2021-01-16 01:29:17 UTC,,,
0EMSC1TKVTK8JG6HBDDNYDH49Y,115,1537980,2021-01-16 01:29:27 UTC,,,
0EMSC1XMWVHSJ4V1MWV4S75E89,115,1537980,2021-01-16 01:29:37 UTC,,,
0EMSC20NNWE8Z0C4E3XAWEZTBN,115,1537980,2021-01-16 01:29:47 UTC,,,
0EMSC23RKE2D430EZJ3BQY2HXW,115,1537980,2021-01-16 01:29:57 UTC,,,
0EMSC26RJZXF1FMT9YG8HFT8J2,115,1537980,2021-01-16 01:30:07 UTC,,,
0EMSC29VSCSV48FHXP7K936GYY,115,1537980,2021-01-16 01:30:17 UTC,,,
0EMSC2CXF9PC55WNV8AEW3WW4W,115,1537980,2021-01-16 01:30:27 UTC,,,
0EMSC2FYCF4B19XNMSYX0479V3,115,1537980,2021-01-16 01:30:37 UTC,,,
0EMSC2JZ9DSFTPBQ6945AQ0PXW,115,1537980,2021-01-16 01:30:47 UTC,,,
0EMSC2P301A3P5KFCT72G2FKE5,115,1537980,2021-01-16 01:30:57 UTC,,,
0EMSC2S4GRT6TM4EVFSRYMSN6N,115,1537980,2021-01-16 01:31:07 UTC,,,
0EMSC2W5435BRM60XQCBAPDM38,115,1537980,2021-01-16 01:31:17 UTC,,,
0EMSC2Z71F0W9SHGYMM7DGRSH4,115,1537980,2021-01-16 01:31:27 UTC,,,
0EMSC328420F75DCDS2ETJS0P5,115,1537980,2021-01-16 01:31:37 UTC,,,
0EMSC35B0BKZS6NFZW08R5H64F,115,1537980,2021-01-16 01:31:47 UTC,,,
0EMSC38CWWXQ172R3D3FSTD1ZG,115,1537980,2021-01-16 01:31:57 UTC,,,
0EMSC3BDT45RQV776R5JQ3EXRQ,116,1537980,2021-01-16 01:32:07 UTC,,,
0EMSC3EF0TCXHXE70V6J48KBB6,116,1537980,2021-01-16 01:32:17 UTC,,,
0EMSC3HM4PA5V9NPW9X49DCYQC,116,1537980,2021-01-16 01:32:27 UTC,,,
0EMSC3MJNDGDH2RQCFEYPS1E45,116,1537980,2021-01-16 01:32:37 UTC,,,
0EMSC3QKKZFG6NW7M04MTKQTQC,116,1537980,2021-01-16 01:32:47 UTC,,,
0EMSC3TNHMGV4ABGMEZHW15X7H,116,1537980,2021-01-16 01:32:57 UTC,,,
0EMSC3XQE95QB1REFTPS240KAJ,116,1537980,2021-01-16 01:33:07 UTC,,,
0EMSC40SDA8RSM2SQN65ZSDKB0,116,1537980,2021-01-16 01:33:17 UTC,,,
0EMSC43VBNG29GJ9CK3YGF259E,116,1537980,2021-01-16 01:33:27 UTC,,,
0EMSC46WE1DMV0Q96KJFE7D0P0,116,1537980,2021-01-16 01:33:37 UTC,,,
0EMSC49YB8PFXST23X9JNB6X0Y,116,1537980,2021-01-16 01:33:47 UTC,,,
0EMSC4D07KKSPXY2V6G47JPW27,116,1537980,2021-01-16 01:33:57 UTC,,,
0EMSC4G15ZK7QN7ZP0ZFAKM9R9,116,1537980,2021-01-16 01:34:07 UTC,,,
0EMSC4K41GN60JJWFYNQ8BWACK,116,1537980,2021-01-16 01:34:17 UTC,,,
0EMSC4P51VYGSQ21HNVSTFAJ2F,116,1537980,2021-01-16 01:34:27 UTC,,,
0EMSC4S5X1PEB4TZ0R6BKRCPKN,116,1537980,2021-01-16 01:34:37 UTC,,,
0EMSC4W8VYR46GBACNYPA081C4,116,1537980,2021-01-16 01:34:47 UTC,,,
0EMSC4Z9V2299X5SCJGFF4NH8C,116,1537980,2021-01-16 01:34:57 UTC,,,
0EMSC52AR9TA1JWKC28XV2WXKB,116,1537980,2021-01-16 01:35:07 UTC,,,
0EMSC55DHR7D8HXCQ17Z4434QA,116,1537980,2021-01-16 01:35:17 UTC,,,
0EMSC58ET04B49JYFJE5MVNTTC,116,1537980,2021-01-16 01:35:27 UTC,,,
0EMSC5BGG8KNK9QJ94XQNWBSQ7,116,1537980,2021-01-16 01:35:37 UTC,,,
0EMSC5EHT8JG14FPQPHHBKBWTH,115,1537980,2021-01-16 01:35:47 UTC,,,
0EMSC5HKR1808QN4YV7CTBRE9P,115,1537980,2021-01-16 01:35:57 UTC,,,
0EMSC5MNJ028HV0SG2WS9PXM0T,115,1537980,2021-01-16 01:36:07 UTC,,,
0EMSC5QQ7QDW2M0EQ9G3R8REA5,115,1537980,2021-01-16 01:36:17 UTC,,,
0EMSC5TR6EB8S721539ANZCPYT,115,1537980,2021-01-16 01:36:27 UTC,,,
0EMSC5XT5753HMSRTVV6ZCR9N3,115,1537980,2021-01-16 01:36:37 UTC,,,
0EMSC60V4S8KV3WPPQ241QTKSG,115,1537980,2021-01-16 01:36:47 UTC,,,
0EMSC63YZKC5KZJ7HG72M1N3Y1,115,1537980,2021-01-16 01:36:57 UTC,,,
0EMSC6706H7EQBYQJ0VAMJ65TV,115,1537980,2021-01-16 01:37:07 UTC,,,
0EMSC6A0W41KWDBY0CPKA6SSQ0,115,1537980,2021-01-16 01:37:17 UTC,,,
0EMSC6D2W1D110DB9VA5893CA7,115,1537980,2021-01-16 01:37:27 UTC,,,
0EMSC6G3TSWQDT6D6B037126FD,115,1537980,2021-01-16 01:37:37 UTC,,,
0EMSC6K5QQSNFCXX762NT1Z3D1,115,1537980,2021-01-16 01:37:47 UTC,,,
0EMSC6P6NFM535R8C60RXBXXQE,115,1537980,2021-01-16 01:37:57 UTC,,,
0EMSC6S8QGXXM31TTNXQFZJHNF,116,1537980,2021-01-16 01:38:07 UTC,,,
0EMSC6WBJ8M5CFNSTVVG5WFG77,116,1537980,2021-01-16 01:38:17 UTC,,,
0EMSC6ZDGCESCMA1KNRN37A1NQ,116,1537980,2021-01-16 01:38:27 UTC,,,
0EMSC72DQ5AN89K72VA285WAXY,116,1537980,2021-01-16 01:38:37 UTC,,,
0EMSC75FBCC5CD6KG52N1HGNT6,116,1537980,2021-01-16 01:38:47 UTC,,,
0EMSC78H9A37BA7SW976DKMBTB,116,1537980,2021-01-16 01:38:57 UTC,,,
0EMSC7BJ9AXC3REH0YSF03S8GY,116,1537980,2021-01-16 01:39:07 UTC,,,
0EMSC7EN69DR94W85BA532ENNW,116,1537980,2021-01-16 01:39:17 UTC,,,
0EMSC7HQ4PERBGJ8P0Y2TA4SEP,116,1537980,2021-01-16 01:39:27 UTC,,,
0EMSC7MR456PWF698D40NCSXPT,116,1537980,2021-01-16 01:39:37 UTC,,,
0EMSC7QS00K293CZ8HZQXF1C10,116,1537980,2021-01-16 01:39:47 UTC,,,
0EMSC7TTXGRCG5HP9R3GREFVY5,116,1537980,2021-01-16 01:39:57 UTC,,,
0EMSC7XXVAKB3WMNPVMZJDA3TW,116,1537980,2021-01-16 01:40:07 UTC,,,
0EMSC80ZY4KR3EFYAKJQSR3NE5,116,1537980,2021-01-16 01:40:17 UTC,,,
0EMSC840RFT4NDSH7VR7CNDGZ8,116,1537980,2021-01-16 01:40:27 UTC,,,
0EMSC870ZZP8WAVEV5349VVZCB,116,1537980,2021-01-16 01:40:37 UTC,,,
0EMSC8A3JP0BDQBG4B65BCY7H4,116,1537980,2021-01-16 01:40:47 UTC,,,
0EMSC8D4JRRCB1NRVEFPC60JAR,116,1537980,2021-01-16 01:40:57 UTC,,,
0EMSC8G6JAZSA4996262DKB02M,116,1537980,2021-01-16 01:41:07 UTC,,,
0EMSC8K9HCBE7ZE9J30JPZ1YFK,116,1537980,2021-01-16 01:41:17 UTC,,,
0EMSC8PABEZAVGQ3NG2Z4VQ45K,116,1537980,2021-01-16 01:41:27 UTC,,,
0EMSC8SATAG5ZC4ERF6AW9QVBJ,116,1537980,2021-01-16 01:41:37 UTC,,,
0EMSC8WEBZRAD5DG0HFEPCWHVN,116,1537980,2021-01-16 01:41:47 UTC,,,
0EMSC8ZF9JEX76T8Y4KBXY7130,116,1537980,2021-01-16 01:41:57 UTC,,,
0EMSC92G478X4K0WTT6XW2GD5M,116,1537980,2021-01-16 01:42:07 UTC,,,
0EMSC95K67JHVW14CTA4RE1AX4,116,1537980,2021-01-16 01:42:17 UTC,,,
0EMSC9BAJH2AM69453Z941SNNR,116,1537980,2021-01-16 01:42:36 UTC,,,
0EMSC9BPF4B9NWRAEZQHBZGDXJ,116,1537980,2021-01-16 01:42:37 UTC,,,
0EMSC9ER3KFAGE68EAJDJV2K1A,116,1537980,2021-01-16 01:42:47 UTC,,,
0EMSC9HSZZE4X4YMCSSBFRTH24,116,1537980,2021-01-16 01:42:57 UTC,,,
0EMSC9MTP6M1KWQ92GWFNZ2H8J,115,1537980,2021-01-16 01:43:07 UTC,,,
0EMSC9QVPDHEYJQFJ9J06KM93R,115,1537980,2021-01-16 01:43:17 UTC,,,
0EMSC9TZJMNW535A2T7ZGHRT4M,115,1537980,2021-01-16 01:43:27 UTC,,,
0EMSC9XZJAM6WD32CC50T13PQC,115,1537980,2021-01-16 01:43:37 UTC,,,
0EMSCA12QWT7GSKNRB82JF30NP,115,1537980,2021-01-16 01:43:47 UTC,,,
0EMSCA43EFZE65ZMZED8F5WTJN,115,1537980,2021-01-16 01:43:57 UTC,,,
0EMSCA75C51ZJATH8AX8E8ZASY,115,1537980,2021-01-16 01:44:07 UTC,,,
0EMSCAA798SP5070E608HCRNPZ,115,1537980,2021-01-16 01:44:17 UTC,,,
0EMSCADA7TME1WEQW7YSM6DR1Z,116,1537980,2021-01-16 01:44:27 UTC,,,
0EMSCAGA65RGTJZ7NTYPF29PYK,116,1537980,2021-01-16 01:44:37 UTC,,,
0EMSCAKB32DGRYX2D0P5FF8PV1,116,1537980,2021-01-16 01:44:47 UTC,,,
0EMSCAPF7W0ZS5FVAX3QCQK1FY,116,1537980,2021-01-16 01:44:57 UTC,,,
0EMSCASF2K5STH29YCDBD047BE,116,1537980,2021-01-16 01:45:07 UTC,,,
0EMSCAWH028GQ1802BBE093BXR,116,1537980,2021-01-16 01:45:17 UTC,,,
0EMSCAZHTFM2EJBH5HM6QZTC72,116,1537980,2021-01-16 01:45:27 UTC,,,
0EMSCB2KSBTJ41KNVEXAYF4XA5,116,1537980,2021-01-16 01:45:37 UTC,,,
0EMSCB5NRD6R4ENVBVB8BFJTXF,116,1537980,2021-01-16 01:45:47 UTC,,,
0EMSCB8QPBK907PNM4ECJ554SG,116,1537980,2021-01-16 01:45:57 UTC,,,
0EMSCBBSMZ5XMNC5Z5YHBW7Q3Y,116,1537980,2021-01-16 01:46:07 UTC,,,
0EMSCBEVH0JTY7NST2XZ7V71VX,116,1537980,2021-01-16 01:46:17 UTC,,,
0EMSCBHVFRA1R515MRWH46MS59,116,1537980,2021-01-16 01:46:27 UTC,,,
0EMSCBMYDBNZMDRHAF4QNG0SFJ,116,1537980,2021-01-16 01:46:37 UTC,,,
0EMSCBQYTBTK2K737M84FSFGEG,116,1537980,2021-01-16 01:46:47 UTC,,,
0EMSCBV1B31JNF0VQBBS9D02H2,116,1537980,2021-01-16 01:46:57 UTC,,,
0EMSCBY28HQ7E9WNJS1RYXWBWW,116,1537980,2021-01-16 01:47:07 UTC,,,
0EMSCC154V25JNJ2FV84K8V1WZ,116,1537980,2021-01-16 01:47:17 UTC,,,
0EMSCC4753DEBW9CGFPCQ70898,116,1537980,2021-01-16 01:47:27 UTC,,,
0EMSCC7811XRZNZA8SNTKJNVJK,116,1537980,2021-01-16 01:47:37 UTC,,,
0EMSCCA8ZTQ93QZ206PNJYVASA,115,1537980,2021-01-16 01:47:47 UTC,,,
0EMSCCDBYAYV0J3K43JE0VQSTN,115,1537980,2021-01-16 01:47:57 UTC,,,
0EMSCCGCW9AD2BDD22CBRA8DJ9,116,1537980,2021-01-16 01:48:07 UTC,,,
0EMSCCKE7D51QWJ80CHEZHSHA3,116,1537980,2021-01-16 01:48:17 UTC,,,
0EMSCCPGS4QE992ZGG7ETC8Q1Y,116,1537980,2021-01-16 01:48:27 UTC,,,
0EMSCCSHZJ936NYTWAAGAJPNT9,116,1537980,2021-01-16 01:48:37 UTC,,,
0EMSCCWKNXWV6FMV6P2JN0GKBC,116,1537980,2021-01-16 01:48:47 UTC,,,
0EMSCCZMP9504JA46WGEN6MM4B,116,1537980,2021-01-16 01:48:57 UTC,,,
0EMSCD2PF8SC9GGYNJRJFS9QYQ,116,1537980,2021-01-16 01:49:07 UTC,,,
0EMSCD5RCHRNNY5ZQWFJHSE7PE,115,1537980,2021-01-16 01:49:17 UTC,,,
0EMSCD8SNYM91TXREM9SSH0ANT,115,1537980,2021-01-16 01:49:27 UTC,,,
0EMSCDBWGSVNZAMRHYMRCMBXYK,116,1537980,2021-01-16 01:49:37 UTC,,,
0EMSCDEXG47SC0R10YTYNX0943,116,1537980,2021-01-16 01:49:47 UTC,,,
0EMSCDHZ7M515TMN321X0S79JM,116,1537980,2021-01-16 01:49:57 UTC,,,
0EMSCDN128HNG9CGZFEF9FX9S9,116,1537980,2021-01-16 01:50:07 UTC,,,
0EMSCDR20T3P54W0YMCVFBRW5C,116,1537980,2021-01-16 01:50:17 UTC,,,
0EMSCDV2WPMFYWJR9AHGHR6SRQ,116,1537980,2021-01-16 01:50:27 UTC,,,
0EMSCDY5XB2TS706D8JR9JEJP6,116,1537980,2021-01-16 01:50:37 UTC,,,
0EMSCE16WPCM55YR4PSP5ASG3T,116,1537980,2021-01-16 01:50:47 UTC,,,
0EMSCE49WNKYQ2M5S0G46MB9KJ,116,1537980,2021-01-16 01:50:57 UTC,,,
0EMSCE7ASV9JVS3RM6237218JP,116,1537980,2021-01-16 01:51:07 UTC,,,
0EMSCEADPSQ468WCKKE37HS1DF,116,1537980,2021-01-16 01:51:17 UTC,,,
0EMSCEDDMS8405KDTDF7G0Z73D,116,1537980,2021-01-16 01:51:27 UTC,,,
0EMSCEGFJ4V923NQFASAH0KWXF,116,1537980,2021-01-16 01:51:37 UTC,,,
0EMSCEKHJJHA7HKBXW6MSKJ9TJ,116,1537980,2021-01-16 01:51:47 UTC,,,
0EMSCEPKEKTG207J6MH2N0J8GE,116,1537980,2021-01-16 01:51:57 UTC,,,
0EMSCESNC2SXM90WE1BXB0BZ8D,116,1537980,2021-01-16 01:52:07 UTC,,,
0EMSCEWP8VV01D5QMFAWE1YBDE,116,1537980,2021-01-16 01:52:17 UTC,,,
0EMSCEZR9D7KFQES4H06FFEAJQ,116,1537980,2021-01-16 01:52:27 UTC,,,
0EMSCF2S64T8X5ZZ1J4VSN82TZ,116,1537980,2021-01-16 01:52:37 UTC,,,
0EMSCF5W7K6F9N6F7T2FRZ0WDH,116,1537980,2021-01-16 01:52:47 UTC,,,
0EMSCF8X9CC9GZ715TYZBK21SH,116,1537980,2021-01-16 01:52:57 UTC,,,
0EMSCFBY6F8P9XNG6JHW2JAVQW,116,1537980,2021-01-16 01:53:07 UTC,,,
0EMSCFF005SDDW53VED7772GJ0,116,1537980,2021-01-16 01:53:17 UTC,,,
0EMSCFJ0XZ7SCB5TFGVTF2DMSE,116,1537980,2021-01-16 01:53:27 UTC,,,
0EMSCFN2YEJGMN4CDGNXK4AY90,116,1537980,2021-01-16 01:53:37 UTC,,,
0EMSCFR6T36DRNYX45Q6HXZNMP,116,1537980,2021-01-16 01:53:47 UTC,,,
0EMSCFV7BTMSKTKGS0WRW1NZP2,116,1537980,2021-01-16 01:53:57 UTC,,,
0EMSCFY9R7XM0YEDE08BNEN971,116,1537980,2021-01-16 01:54:07 UTC,,,
0EMSCG19HMP3GVH0Z3XEBZ6NNC,116,1537980,2021-01-16 01:54:17 UTC,,,
0EMSCG4CFDH005Z28VG3ME3T75,115,1537980,2021-01-16 01:54:27 UTC,,,
0EMSCG7D9QY78CHKGHPXDCNM9C,115,1537980,2021-01-16 01:54:37 UTC,,,
0EMSCGAED6EWBX7G07VKZPSJQD,115,1537980,2021-01-16 01:54:47 UTC,,,
0EMSCGDHAQKK5K91A6RE624XQS,115,1537980,2021-01-16 01:54:57 UTC,,,
0EMSCGGJGP6JHF4YSNJZ8FQXFC,115,1537980,2021-01-16 01:55:07 UTC,,,
0EMSCGKMC09MXCYPWEAJK2WFR9,115,1537980,2021-01-16 01:55:17 UTC,,,
0EMSCGPN37BVQN2WESHX7X634W,115,1537980,2021-01-16 01:55:27 UTC,,,
0EMSCGSR2WAR58HYXYSCZMQ2MZ,115,1537980,2021-01-16 01:55:37 UTC,,,
0EMSCGWS45TGBSKPBDJWRNJEWW,116,1537980,2021-01-16 01:55:47 UTC,,,
0EMSCGZSWTPHQ4N9X6FZKV8WNQ,116,1537980,2021-01-16 01:55:57 UTC,,,
0EMSCH2XPBCAB8RAZT4FZHDNX2,116,1537980,2021-01-16 01:56:07 UTC,,,
0EMSCH5ZSTARDHVBMGH338JAZ7,116,1537980,2021-01-16 01:56:17 UTC,,,
0EMSCH8ZQ6K9MPKCREJPRWSRSS,116,1537980,2021-01-16 01:56:27 UTC,,,
0EMSCHC0NW0RGTPQ4XJ6FW2YSJ,116,1537980,2021-01-16 01:56:37 UTC,,,
0EMSCHF3MTQCJ08K2G6K1JXPR6,116,1537980,2021-01-16 01:56:47 UTC,,,
0EMSCHJ5MFFY15KM9QT2933GZ2,116,1537980,2021-01-16 01:56:57 UTC,,,
0EMSCHN6E02V0CCVY1FY8CFSV4,116,1537980,2021-01-16 01:57:07 UTC,,,
0EMSCHR8J5G886YW6REKDE8VF3,116,1537980,2021-01-16 01:57:17 UTC,,,
0EMSCHV9BPBTSV65CQYXQ4798K,116,1537980,2021-01-16 01:57:27 UTC,,,
0EMSCHYBETF01FARCBXJ1B97PA,116,1537980,2021-01-16 01:57:37 UTC,,,
0EMSCJ1C6SMK63HEPG5V1NNB04,116,1537980,2021-01-16 01:57:47 UTC,,,
0EMSCJ4F6YMV8YC1SBWQK9P9B9,116,1537980,2021-01-16 01:57:57 UTC,,,
0EMSCJ7G33MSTPMH7DZBQXQKD1,116,1537980,2021-01-16 01:58:07 UTC,,,
0EMSCJAH0WHF415PTFP30S3GQ3,116,1537980,2021-01-16 01:58:17 UTC,,,
0EMSCJDM180WRS0XAJ30E437PF,116,1537980,2021-01-16 01:58:27 UTC,,,
0EMSCJGN6Z13XDZPZ9CFBGDHV2,116,1537980,2021-01-16 01:58:37 UTC,,,
0EMSCJKPX8SS1EK33S1TH5R65S,116,1537980,2021-01-16 01:58:47 UTC,,,
0EMSCJPQXMJ869Z3A2HTH5G7BC,116,1537980,2021-01-16 01:58:57 UTC,,,
0EMSCJSTVFXYJJJF910HV244JP,116,1537980,2021-01-16 01:59:07 UTC,,,
0EMSCJWVQQRDS9R7T8AB5KSCQ9,116,1537980,2021-01-16 01:59:17 UTC,,,
0EMSCJZWQJHTZZ4YGZQ37W5ADV,115,1537980,2021-01-16 01:59:27 UTC,,,
0EMSCK2ZKE87KJGJ4PH3GN2K70,115,1537980,2021-01-16 01:59:37 UTC,,,
0EMSCK60GGGXTJC0S3NZAK86GR,115,1537980,2021-01-16 01:59:47 UTC,,,
0EMSCK92K6DYJ2QHK0VB4X171J,115,1537980,2021-01-16 01:59:57 UTC,,,
0EMSCKC4HSH890QW6XBSTHBNG9,115,1537980,2021-01-16 02:00:07 UTC,,,
0EMSCKF6BRR1RA6CMFJ451CJVY,115,1537980,2021-01-16 02:00:17 UTC,,,
0EMSCKJ78C2D5PAF0HBHD4NGC1,115,1537980,2021-01-16 02:00:27 UTC,,,
0EMSCKN8XQ714BMFP7HTF4GD86,115,1537980,2021-01-16 02:00:37 UTC,,,
0EMSCKRA4CPRZ46WCYMX5M21XK,115,1537980,2021-01-16 02:00:47 UTC,,,
0EMSCKVD0BXKBF931T6KESBTKG,115,1537980,2021-01-16 02:00:57 UTC,,,
0EMSCKYEB5EKSGHNH6W3CSH3KH,115,1537980,2021-01-16 02:01:07 UTC,,,
0EMSCM1EXBRJEEYNWRE4MQM8DN,115,1537980,2021-01-16 02:01:17 UTC,,,
0EMSCM4J098V7HK64EWX98E6DN,116,1537980,2021-01-16 02:01:27 UTC,,,
0EMSCM7J9PNGT8HH7B9GZ87R94,116,1537980,2021-01-16 02:01:37 UTC,,,
0EMSCMAKW85AHYEMVV8WDWF1DG,116,1537980,2021-01-16 02:01:47 UTC,,,
0EMSCMDQPGB0CXQRTRMEV56ZBV,116,1537980,2021-01-16 02:01:57 UTC,,,
0EMSCMGS3TRN11RYH4J7AWCD4G,116,1537980,2021-01-16 02:02:07 UTC,,,
0EMSCMKV31K8V2Y0NBJM9FDC3S,116,1537980,2021-01-16 02:02:17 UTC,,,
0EMSCMPTP0F4PJY6QXMHADF9DN,116,1537980,2021-01-16 02:02:27 UTC,,,
0EMSCMSXJJEVGFWTERVZZJZ53E,116,1537980,2021-01-16 02:02:37 UTC,,,
0EMSCMWZG71ENGBBESM1RFZJ0V,116,1537980,2021-01-16 02:02:47 UTC,,,
0EMSCN008D9GZVX6H42NAWA9CA,116,1537980,2021-01-16 02:02:57 UTC,,,
0EMSCN31AD54DX1PNVK2MBXHHB,116,1537980,2021-01-16 02:03:07 UTC,,,
0EMSCN6493AEHFQYT1N201YMFZ,116,1537980,2021-01-16 02:03:17 UTC,,,
0EMSCN97J83S13AB88GFTHAC54,116,1537980,2021-01-16 02:03:27 UTC,,,
0EMSCNC71AWBX7RVC0XJJKGV5D,116,1537980,2021-01-16 02:03:37 UTC,,,
0EMSCNF902X4PACZ3S3G63CP83,116,1537980,2021-01-16 02:03:47 UTC,,,
0EMSCNJAWY0XS8S6JN4QJ3532A,116,1537980,2021-01-16 02:03:57 UTC,,,
0EMSCNNBVBFK0SKACQP6M1W8GZ,116,1537980,2021-01-16 02:04:07 UTC,,,
0EMSCNRCVMW4PA6QE1NB5F9EDV,116,1537980,2021-01-16 02:04:17 UTC,,,
0EMSCNVFQQNPX4DHW1E6TCSR13,116,1537980,2021-01-16 02:04:27 UTC,,,
0EMSCNYHNF08PGE2Z3WB0QH79F,116,1537980,2021-01-16 02:04:37 UTC,,,
0EMSCP1JKRZ4BBMFC4V0ZSDMS7,116,1537980,2021-01-16 02:04:47 UTC,,,
0EMSCP4KJB2AB7CV5M4T14PWJ4,115,1537980,2021-01-16 02:04:57 UTC,,,
0EMSCP7NK8BRDSZEQ7D63ETM3P,115,1537980,2021-01-16 02:05:07 UTC,,,
0EMSCPAQDSB7PSX6AE0WQ1GFVP,115,1537980,2021-01-16 02:05:17 UTC,,,
0EMSCPDTGY8P59TQ6BYZD5DY4M,116,1537980,2021-01-16 02:05:27 UTC,,,
0EMSCPGTK89SW3BN5Q3ZEHRC2F,116,1537980,2021-01-16 02:05:37 UTC,,,
0EMSCPKX7R4DZRDRVW9GP26BBX,116,1537980,2021-01-16 02:05:47 UTC,,,
0EMSCPPY66H4CZ4TAMH3SYR8JF,116,1537980,2021-01-16 02:05:57 UTC,,,
0EMSCPT074QY30RE1P9MWWC6BP,116,1537980,2021-01-16 02:06:07 UTC,,,
0EMSCPX02BK5BD2JE6VX48GXKC,116,1537980,2021-01-16 02:06:17 UTC,,,
0EMSCQ034V13DFWMM3M4F7KS3B,116,1537980,2021-01-16 02:06:27 UTC,,,
0EMSCQ351AARFDVZMGPEDTFGMZ,116,1537980,2021-01-16 02:06:37 UTC,,,
0EMSCQ65WRQ66GXS4VX2YT5R2H,116,1537980,2021-01-16 02:06:47 UTC,,,
0EMSCQ988ED9EXASB12DYYCN0H,116,1537980,2021-01-16 02:06:57 UTC,,,
0EMSCQC8S0PNMF1FV9QDJX7EEQ,116,1537980,2021-01-16 02:07:07 UTC,,,
0EMSCQFCSCY4Z8RS69MYPEK2J8,116,1537980,2021-01-16 02:07:17 UTC,,,
0EMSCQJCTBDBTV7ZHWAWD18F1N,116,1537980,2021-01-16 02:07:27 UTC,,,
0EMSCQNFHKKG3ZDYRJT39JWAQ2,116,1537980,2021-01-16 02:07:37 UTC,,,
0EMSCQRHD22KX2BM2XA452WCSN,116,1537980,2021-01-16 02:07:47 UTC,,,
0EMSCQVK1B0KEM8HWZ85X4VYAZ,115,1537980,2021-01-16 02:07:57 UTC,,,
0EMSCQYMVA1HP9474AMHMT24ZW,115,1537980,2021-01-16 02:08:07 UTC,,,
0EMSCR1MCH3PJV1K6QCRMK7QVH,115,1537980,2021-01-16 02:08:17 UTC,,,
0EMSCR4Q97J1AJ29E502NXAA00,115,1537980,2021-01-16 02:08:27 UTC,,,
0EMSCR7R4HDRX082B6PG9J7VT8,115,1537980,2021-01-16 02:08:37 UTC,,,
0EMSCRAVAAYVHM155XEFE43TZS,116,1537980,2021-01-16 02:08:47 UTC,,,
0EMSCRDW248R01CF1SAQTEH153,116,1537980,2021-01-16 02:08:57 UTC,,,
0EMSCRGYPSNBCFAB90H2FBXZYV,116,1537980,2021-01-16 02:09:07 UTC,,,
0EMSCRKYZFVR71TXXB00JKCBCR,116,1537980,2021-01-16 02:09:17 UTC,,,
0EMSCRQ0XM7BR3RW2N3TC1SZGQ,116,1537980,2021-01-16 02:09:27 UTC,,,
0EMSCRT2XYTHPYBBAACESGPD6N,116,1537980,2021-01-16 02:09:37 UTC,,,
0EMSCRX4XJZK3Q03CEFMBBCREP,116,1537980,2021-01-16 02:09:47 UTC,,,
0EMSCS05FZ13R6FB0N5XJ8RXGQ,116,1537980,2021-01-16 02:09:57 UTC,,,
0EMSCS36MHV435ZRC56TQ30GBR,116,1537980,2021-01-16 02:10:07 UTC,,,
0EMSCS69M80GKZTHAQ9MFKRSDR,116,1537980,2021-01-16 02:10:17 UTC,,,
0EMSCS9BKDNBS2TGWT4T30V1JJ,116,1537980,2021-01-16 02:10:27 UTC,,,
0EMSCSCCESR0E6N4ES1DTDRCX0,116,1537980,2021-01-16 02:10:37 UTC,,,
0EMSCSFEC4QYEQN75NB3QJ4429,116,1537980,2021-01-16 02:10:47 UTC,,,
0EMSCSJFE3MP8RGJ783M1FHWGT,116,1537980,2021-01-16 02:10:57 UTC,,,
0EMSCSNJ9ZC9KV79NHXYY7MSR2,116,1537980,2021-01-16 02:11:07 UTC,,,
0EMSCSRM7BXJ5WJ0X389B5HTAX,116,1537980,2021-01-16 02:11:17 UTC,,,
0EMSCSVNBWMQXRKY17FWQ087XC,116,1537980,2021-01-16 02:11:27 UTC,,,
0EMSCSYP3EE7MDRQ3XCAPC26DE,116,1537980,2021-01-16 02:11:37 UTC,,,
0EMSCT1R3TDYBV3FTYXPPWSFM5,116,1537980,2021-01-16 02:11:47 UTC,,,
0EMSCT4S4X3H0K8V7T2AE85KRP,116,1537980,2021-01-16 02:11:57 UTC,,,
0EMSCT7VZFT10C7XG37F0HCPBT,116,1537980,2021-01-16 02:12:07 UTC,,,
0EMSCTAWTVKCM8AASWMW8PH360,116,1537980,2021-01-16 02:12:17 UTC,,,
0EMSCTDXQXTV9NXZVA4PY6SDZ8,116,1537980,2021-01-16 02:12:27 UTC,,,
0EMSCTH029BJRVKV72YT4KSTXY,116,1537980,2021-01-16 02:12:37 UTC,,,
0EMSCTM1XEBF5DJWXRT8DPJ5D5,116,1537980,2021-01-16 02:12:47 UTC,,,
0EMSCTQ4JTT08S2H9Q933B0E6C,116,1537980,2021-01-16 02:12:57 UTC,,,
0EMSCTT4MXBWVY6NF6M3RSM802,116,1537980,2021-01-16 02:13:07 UTC,,,
0EMSCTX6EYVZD5FHE52SRTW496,116,1537980,2021-01-16 02:13:17 UTC,,,
0EMSCV09GXP6DNA1QK3RHW1PPB,115,1537980,2021-01-16 02:13:27 UTC,,,
0EMSCV3ATGM5BE477B53AS0AH4,115,1537980,2021-01-16 02:13:37 UTC,,,
0EMSCV6B8V7P963DR8NFYBPMDA,115,1537980,2021-01-16 02:13:47 UTC,,,
0EMSCV9EG3AV0Z89AX8R0WEEAM,115,1537980,2021-01-16 02:13:57 UTC,,,
0EMSCVCG9Z6ZD09N3R044PVHBN,115,1537980,2021-01-16 02:14:07 UTC,,,
0EMSCVFH43ARHA0SWCSBYCP4XW,115,1537980,2021-01-16 02:14:17 UTC,,,
0EMSCVJJ2RFT5ECYBMX0P548BA,115,1537980,2021-01-16 02:14:27 UTC,,,
0EMSCVNMA5W5DWZXGD1EBKCB38,115,1537980,2021-01-16 02:14:37 UTC,,,
0EMSCVRNDHMRD51NQTP7M3YBHZ,115,1537980,2021-01-16 02:14:47 UTC,,,
0EMSCVVPVYZA41ZGJ7Z9H6HWNG,115,1537980,2021-01-16 02:14:57 UTC,,,
0EMSCVYSRSXTD6DHSH5WJ2EAR2,115,1537980,2021-01-16 02:15:07 UTC,,,
0EMSCW1TQBFF2Z88YFGYFGB3ZY,115,1537980,2021-01-16 02:15:17 UTC,,,
0EMSCW4VN2CDZ1PQNC2EJJENKY,115,1537980,2021-01-16 02:15:27 UTC,,,
0EMSCW7XS42MX8BCQXWG6WYEFK,115,1537980,2021-01-16 02:15:37 UTC,,,
0EMSCWB0HTHS14BYTPWQ2E2NQG,116,1537980,2021-01-16 02:15:47 UTC,,,
0EMSCWE3FKB5D53J78C3CNQ95H,116,1537980,2021-01-16 02:15:57 UTC,,,
0EMSCWH3DGAHV4DWTFK9X3K8PF,116,1537980,2021-01-16 02:16:07 UTC,,,
0EMSCWM4E9N187ZTGGK113T3HG,116,1537980,2021-01-16 02:16:17 UTC,,,
0EMSCWQ7ED3TKKXFGAG47RVNB8,116,1537980,2021-01-16 02:16:27 UTC,,,
0EMSCWT9G3CZD18MK1DVR0SR5C,116,1537980,2021-01-16 02:16:37 UTC,,,
0EMSCWXBAT3BQ6CCBDA1WBMMND,116,1537980,2021-01-16 02:16:47 UTC,,,
0EMSCX0C3WY6RM0F2ZX00WMSMK,116,1537980,2021-01-16 02:16:57 UTC,,,
0EMSCX3D39F8GR5ZT6M834EEQH,116,1537980,2021-01-16 02:17:07 UTC,,,
0EMSCX6DZHVNK84JPXMFSRZEAZ,116,1537980,2021-01-16 02:17:17 UTC,,,
0EMSCX9FTCHBZKWQFXE352A8YQ,116,1537980,2021-01-16 02:17:27 UTC,,,
0EMSCXCJW5HP7YGTBFM9NQJZ9T,116,1537980,2021-01-16 02:17:37 UTC,,,
0EMSCXFMSBVSJFYJ6EFQWMKHHW,116,1537980,2021-01-16 02:17:47 UTC,,,
0EMSCXJNS9WMBX2QDQ7H5R7QYG,116,1537980,2021-01-16 02:17:57 UTC,,,
0EMSCXNNZ583WS93743VY5SXTV,116,1537980,2021-01-16 02:18:07 UTC,,,
0EMSCXRRNX6CJWCF8Q9JN3DW2K,116,1537980,2021-01-16 02:18:17 UTC,,,
0EMSCXVVH5F0TVF4GGEP6VBHF4,116,1537980,2021-01-16 02:18:27 UTC,,,
0EMSCXYWF1PC9P6GXM9PDJ6G95,116,1537980,2021-01-16 02:18:37 UTC,,,
0EMSCY1YC5PAPD9DDV5FC6H8B5,116,1537980,2021-01-16 02:18:47 UTC,,,
0EMSCY50A69DGSRVJAY4NT0BKA,116,1537980,2021-01-16 02:18:57 UTC,,,
0EMSCY808DE7NBDCE0927AYR7P,116,1537980,2021-01-16 02:19:07 UTC,,,
0EMSCYB26N5N18BE8F0A0VYG0T,116,1537980,2021-01-16 02:19:17 UTC,,,
0EMSCYE659G0ZP0V4RK0HSVTJW,116,1537980,2021-01-16 02:19:27 UTC,,,
0EMSCYH63CM73X0MDDVNMGC8X4,115,1537980,2021-01-16 02:19:37 UTC,,,
0EMSCYM70W7HQSDQ8P3CF40B49,115,1537980,2021-01-16 02:19:47 UTC,,,
0EMSCYQA9BYKSVCMN3G2ASTBPP,115,1537980,2021-01-16 02:19:57 UTC,,,
0EMSCYT9XV3F9M0JK1F47RVTRK,115,1537980,2021-01-16 02:20:07 UTC,,,
0EMSCYXDVWBN1H6WJ765FMQ723,115,1537980,2021-01-16 02:20:17 UTC,,,
0EMSCZ0EY978EPPPN633NRYS16,115,1537980,2021-01-16 02:20:27 UTC,,,
0EMSCZ3G0PSRRJYW3ED5HDN5TT,115,1537980,2021-01-16 02:20:37 UTC,,,
0EMSCZ6HS7G68D3WH8AEZGJYAV,115,1537980,2021-01-16 02:20:47 UTC,,,
0EMSCZ9KMHEWBT126BFJ7CWYJR,115,1537980,2021-01-16 02:20:57 UTC,,,
0EMSCZCMGAYCHK5ACXK9V70K4X,115,1537980,2021-01-16 02:21:07 UTC,,,
0EMSCZFPEBF080TVPP7T6MPXEX,115,1537980,2021-01-16 02:21:17 UTC,,,
0EMSCZJRC2FD3GKK5HQ560EXV0,115,1537980,2021-01-16 02:21:27 UTC,,,
0EMSCZNSSF9ASR7NQ29S1E4NPS,115,1537980,2021-01-16 02:21:37 UTC,,,
0EMSCZRV9R8YX4RPPMPNPR2Y6M,115,1537980,2021-01-16 02:21:47 UTC,,,
0EMSCZVW9GSYKTF91MY0BKQEF3,116,1537980,2021-01-16 02:21:57 UTC,,,
0EMSCZZ082Z7PYDK6JVWSF3M4A,116,1537980,2021-01-16 02:22:07 UTC,,,
0EMSD01Z2CXQQTZMH3BTD3RKA3,116,1537980,2021-01-16 02:22:17 UTC,,,
0EMSD0511QK71MXP8GYVDDCB83,116,1537980,2021-01-16 02:22:27 UTC,,,
0EMSD083W97F4E987S35PYK2Q0,116,1537980,2021-01-16 02:22:37 UTC,,,
0EMSD0B6AX5XFV4S1G0HN7W68E,116,1537980,2021-01-16 02:22:47 UTC,,,
